<?xml version="1.0" encoding="UTF-8" standalone="no"?>
<!-- Created with Sodipodi ("http://www.sodipodi.com/") -->

<svg
   id="svg1290"
   sodipodi:version="0.32"
   width="210pt"
   height="169pt"
   xml:space="preserve"
   sodipodi:docname="maria_theresia.svg"
   inkscape:version="1.1.2 (0a00cf5339, 2022-02-04)"
   version="1.0"
   inkscape:export-filename="/home/sam/rpg/gzg/trunk/fullthrust/nsl/v3/graf_spee.png"
   inkscape:export-xdpi="90"
   inkscape:export-ydpi="90"
   xmlns:inkscape="http://www.inkscape.org/namespaces/inkscape"
   xmlns:sodipodi="http://sodipodi.sourceforge.net/DTD/sodipodi-0.dtd"
   xmlns="http://www.w3.org/2000/svg"
   xmlns:svg="http://www.w3.org/2000/svg"
   xmlns:rdf="http://www.w3.org/1999/02/22-rdf-syntax-ns#"
   xmlns:cc="http://creativecommons.org/ns#"
   xmlns:dc="http://purl.org/dc/elements/1.1/"><metadata
   id="metadata71"><rdf:RDF><cc:Work
       rdf:about=""><dc:format>image/svg+xml</dc:format><dc:type
         rdf:resource="http://purl.org/dc/dcmitype/StillImage" /><dc:creator><cc:Agent><dc:title>Samuel Penn</dc:title></cc:Agent></dc:creator><dc:rights><cc:Agent><dc:title /></cc:Agent></dc:rights><dc:publisher><cc:Agent><dc:title>http://www.glendale.org.uk</dc:title></cc:Agent></dc:publisher><dc:subject><rdf:Bag><rdf:li>fullthrust</rdf:li></rdf:Bag></dc:subject><cc:license
         rdf:resource="http://www.glendale.org.uk/bsd.txt" /><dc:description>A mobile weapons platform designed for fleet support.</dc:description></cc:Work></rdf:RDF></metadata><defs
   id="defs1292">



















</defs><sodipodi:namedview
   id="base"
   inkscape:zoom="4.264909"
   inkscape:cx="100.94002"
   inkscape:cy="92.616279"
   inkscape:window-width="2560"
   inkscape:window-height="1355"
   inkscape:window-x="1200"
   inkscape:window-y="240"
   inkscape:current-layer="svg1290"
   showgrid="true"
   inkscape:grid-points="true"
   gridtolerance="10000"
   showborder="true"
   pagecolor="#ffffff"
   inkscape:pageopacity="0"
   inkscape:window-maximized="1"
   bordercolor="#666666"
   borderopacity="1.0"
   inkscape:pageshadow="2"
   inkscape:pagecheckerboard="0"
   inkscape:document-units="pt"><inkscape:grid
     id="GridFromPre046Settings"
     type="xygrid"
     originx="0"
     originy="0"
     spacingx="4.0314961"
     spacingy="4.0314961"
     color="#0000ff"
     empcolor="#0000ff"
     opacity="0.2"
     empopacity="0.4"
     empspacing="10"
     units="mm"
     visible="true"
     enabled="true"
     snapvisiblegridlinesonly="true" /></sodipodi:namedview>














<rect
   y="6.4073887"
   x="5.2462997"
   height="237.82358"
   width="319.79306"
   id="rect1157"
   style="font-size:12px;fill:#e6e6e6;fill-rule:evenodd;stroke:#000000;stroke-width:1.3561" /><g
   style="font-size:12px"
   transform="matrix(0.981372,0,0,1,142.35651,-346.3182)"
   id="g1130"><path
     inkscape:connector-curvature="0"
     sodipodi:nodetypes="ccccccccc"
     id="path1129"
     d="m 102.04724,557.85941 h 68.03148 l 3.77952,3.77942 v 18.8977 l -3.77952,3.77952 h -68.03148 l -3.779528,-3.77952 v -18.8977 z"
     style="font-size:12px;fill:#ffffff;fill-opacity:1;fill-rule:evenodd;stroke:#000000;stroke-width:0.533333;stroke-dasharray:none" /><g
     transform="matrix(0.500002,0,0,0.500002,84.094144,321.44832)"
     id="g1088"><rect
       y="480.37891"
       x="35.905518"
       height="37.795273"
       width="37.795269"
       id="rect1089"
       style="font-size:12px;fill:#000000;fill-opacity:1;fill-rule:evenodd;stroke-width:1.06667" /><g
       transform="matrix(0.875,0,0,0.875003,5.1968597,60.754624)"
       id="g1090"><ellipse
         id="path1095"
         style="fill:none;stroke:#ffffff;stroke-width:3.33336;stroke-linecap:butt;stroke-linejoin:miter;stroke-dasharray:none;stroke-opacity:1"
         cx="56.692928"
         cy="493.60724"
         rx="7.5590572"
         ry="7.5592694" /><path
         inkscape:connector-curvature="0"
         sodipodi:nodetypes="cc"
         id="path1096"
         d="M 41.574795,501.16629 H 71.811019"
         style="font-size:12px;fill:none;stroke:#ffffff;stroke-width:3.33333;stroke-dasharray:none" /><path
         inkscape:connector-curvature="0"
         sodipodi:nodetypes="cc"
         id="path1097"
         d="M 41.574795,508.72533 H 71.811019"
         style="font-size:12px;fill:none;stroke:#ffffff;stroke-width:3.33333;stroke-dasharray:none" /><path
         inkscape:connector-curvature="0"
         sodipodi:nodetypes="cc"
         id="path1100"
         d="M 41.574795,516.28448 H 71.811019"
         style="font-size:12px;fill:none;stroke:#ffffff;stroke-width:3.33333" /></g></g><g
     transform="matrix(0.500002,0,0,0.500002,83.149259,320.50347)"
     id="g1101"><rect
       y="482.26874"
       x="86.929123"
       height="37.795307"
       width="37.795269"
       id="rect1102"
       style="font-size:12px;fill:#000000;fill-opacity:1;fill-rule:evenodd;stroke-width:1.06667" /><g
       transform="matrix(0.818182,0,0,0.818191,14.602688,89.570251)"
       id="g1103"><ellipse
         id="path1107"
         style="fill:none;stroke:#ffffff;stroke-width:1.06667pt;stroke-linecap:butt;stroke-linejoin:miter;stroke-opacity:1"
         cx="111.49606"
         cy="503.05618"
         rx="20.787403"
         ry="20.787386" /><g
         transform="translate(3.7795296,0.6401696)"
         id="g1110"><path
           inkscape:connector-curvature="0"
           sodipodi:nodetypes="cccccc"
           id="path1112"
           d="m 107.11899,520.06411 4.37706,-19.82848 11.33856,-3.77952 H 92.598453 l 11.338577,3.77952 z"
           style="font-size:12px;fill:#ffffff;fill-rule:evenodd;stroke:#ffffff;stroke-width:1.06667" /><ellipse
           id="path1113"
           style="fill:#ffffff;fill-opacity:1;fill-rule:evenodd;stroke:none;stroke-width:1.06667"
           cx="107.71653"
           cy="490.43716"
           rx="5.669291"
           ry="5.6692872" /></g></g></g><g
     transform="matrix(0.500002,0,0,0.500002,75.590176,320.50347)"
     id="g1114"><rect
       y="482.26883"
       x="151.18109"
       height="37.79528"
       width="37.79528"
       id="rect1115"
       style="font-size:12px;fill-rule:evenodd;stroke-width:1.06667" /><g
       id="g1116"><ellipse
         id="path1119"
         style="font-size:12px;fill:#ffffff;fill-rule:evenodd;stroke-width:0.768"
         cx="170.07872"
         cy="501.16626"
         rx="2.7212579"
         ry="2.721246" /><ellipse
         transform="rotate(-39.999953)"
         id="path1120"
         style="font-size:12px;fill:none;stroke:#fffffc;stroke-width:0.66671;stroke-dasharray:none"
         cx="-191.85551"
         cy="493.24081"
         rx="3.7795329"
         ry="15.118167" /><ellipse
         transform="rotate(-114.99993)"
         id="path1121"
         style="font-size:12px;fill:none;stroke:#fffffc;stroke-width:0.66671;stroke-dasharray:none"
         cx="-526.08997"
         cy="-57.656097"
         rx="3.7795315"
         ry="15.118182" /><ellipse
         transform="rotate(-164.99988)"
         id="path1124"
         style="font-size:12px;fill:none;stroke:#fffffc;stroke-width:0.66671;stroke-dasharray:none"
         cx="-293.99738"
         cy="-440.06842"
         rx="3.7795317"
         ry="15.118178" /><ellipse
         id="path1125"
         style="font-size:12px;fill:#ffffff;fill-rule:evenodd;stroke-width:0.261995"
         cx="158.32397"
         cy="508.30655"
         rx="0.92832685"
         ry="0.92832285" /><ellipse
         id="path1126"
         style="font-size:12px;fill:#ffffff;fill-rule:evenodd;stroke-width:0.261995"
         cx="160.18028"
         cy="492.04745"
         rx="0.92832685"
         ry="0.92832285" /><ellipse
         id="path1127"
         style="font-size:12px;fill:#ffffff;fill-rule:evenodd;stroke-width:0.261995"
         cx="175.28706"
         cy="488.3989"
         rx="0.92832685"
         ry="0.92832285" /></g></g></g><rect
   y="25.965826"
   x="11.695587"
   height="17.887962"
   width="233.97369"
   id="namebox"
   style="font-size:12px;fill:#ffffff;fill-rule:evenodd;stroke:#000000;stroke-width:1.24796"
   inkscape:label="#rect1156"
   ry="6.0264225" /><text
   transform="scale(0.9906422,1.0094462)"
   xml:space="default"
   id="text1158"
   y="21.539246"
   x="12.526246"
   style="font-weight:bold;font-size:12.8px;line-height:0%;font-family:'Bitstream Vera Sans';stroke-width:1.06667"><tspan
     id="tspan1161"
     sodipodi:role="line"
     y="21.539246"
     x="12.526246"
     style="font-size:12.6802px;line-height:1;stroke-width:1.06667">Maria Theresia Battledreadnaught</tspan></text>



<g
   style="font-size:12px"
   transform="matrix(0.490686,0,0,0.5,4.8355221,-75.530987)"
   id="g1191"><path
   inkscape:connector-curvature="0"
   sodipodi:nodetypes="cccccc"
   id="path1192"
   d="m 28.658075,589.5723 v 37.7952 H 104.24858 V 589.5723 L 66.45336,570.67459 Z"
   style="fill:#ffffff;fill-opacity:1;fill-rule:evenodd;stroke:#000000;stroke-width:1.06667pt;stroke-linecap:butt;stroke-linejoin:miter;stroke-opacity:1" /><text
   xml:space="default"
   id="text1193"
   y="614.55231"
   x="51.880413"
   style="font-style:normal;font-weight:bold;font-size:12.8px;line-height:0%;font-family:'Bitstream Vera Sans';writing-mode:lr-tb;text-anchor:start;fill:#000000;fill-opacity:1;stroke:none;stroke-width:1.06667"><tspan
     id="tspan1194"
     sodipodi:role="line"
     y="614.55231"
     x="51.880413"
     style="font-size:42.6667px;line-height:1;stroke-width:1.06667">2</tspan></text>










</g><rect
   style="color:#000000;display:inline;overflow:visible;visibility:visible;fill:#ffffff;fill-opacity:1;fill-rule:evenodd;stroke:#000000;stroke-width:0.926705;stroke-linecap:round;stroke-linejoin:round;stroke-miterlimit:4;stroke-dasharray:none;stroke-dashoffset:0;stroke-opacity:1;marker:none"
   id="rect2371"
   width="32.439255"
   height="13.348424"
   x="284.97638"
   y="21.926628" /><rect
   style="color:#000000;display:inline;overflow:visible;visibility:visible;fill:#ffffff;fill-opacity:1;fill-rule:evenodd;stroke:#000000;stroke-width:0.926705;stroke-linecap:round;stroke-linejoin:round;stroke-miterlimit:4;stroke-dasharray:none;stroke-dashoffset:0;stroke-opacity:1;marker:none"
   id="rect3246"
   width="32.439255"
   height="13.348424"
   x="284.97638"
   y="47.039261" /><text
   xml:space="preserve"
   style="font-style:oblique;font-variant:normal;font-weight:normal;font-stretch:normal;font-size:12.8px;line-height:0%;font-family:'Bitstream Vera Sans';text-align:start;writing-mode:lr-tb;text-anchor:start;fill:#000000;fill-opacity:1;stroke:none;stroke-width:1.06667"
   x="284.97638"
   y="19.592651"
   id="text3248"><tspan
     sodipodi:role="line"
     id="tspan3250"
     x="284.97638"
     y="19.592651"
     style="font-size:8.53333px;line-height:1;stroke-width:1.06667">Mass</tspan></text>



<text
   xml:space="preserve"
   style="font-style:oblique;font-variant:normal;font-weight:normal;font-stretch:normal;font-size:12.8px;line-height:0%;font-family:'Bitstream Vera Sans';text-align:start;writing-mode:lr-tb;text-anchor:start;fill:#000000;fill-opacity:1;stroke:none;stroke-width:1.06667"
   x="284.97638"
   y="44.973621"
   id="text3252"><tspan
     sodipodi:role="line"
     id="tspan3254"
     x="284.97638"
     y="44.973621"
     style="font-size:8.53333px;line-height:1;stroke-width:1.06667">Points</tspan></text>



<text
   xml:space="preserve"
   style="font-style:normal;font-variant:normal;font-weight:normal;font-stretch:normal;font-size:12.8px;line-height:0%;font-family:'Bitstream Vera Sans';text-align:start;writing-mode:lr-tb;text-anchor:start;fill:#000000;fill-opacity:1;stroke:none;stroke-width:1.06667"
   x="292.31412"
   y="32.578465"
   id="text3256"><tspan
     sodipodi:role="line"
     id="tspan3258"
     x="292.31412"
     y="32.578465"
     style="font-size:10.6667px;line-height:1;stroke-width:1.06667">156</tspan></text>



<text
   xml:space="preserve"
   style="font-style:normal;font-variant:normal;font-weight:normal;font-stretch:normal;font-size:12.8px;line-height:0%;font-family:'Bitstream Vera Sans';text-align:start;writing-mode:lr-tb;text-anchor:start;fill:#000000;fill-opacity:1;stroke:none;stroke-width:1.06667"
   x="292.61649"
   y="57.573738"
   id="text3260"><tspan
     sodipodi:role="line"
     id="tspan3262"
     x="292.61649"
     y="57.573738"
     style="font-size:10.6667px;line-height:1;stroke-width:1.06667">548</tspan></text>



<g
   style="font-size:12px"
   transform="matrix(0.75000054,0,0,0.75000074,128.06974,-310.55198)"
   id="g1219"><rect
     y="669.15875"
     x="156.79929"
     height="15.11811"
     width="15.118096"
     id="rect1218"
     style="font-size:12px;fill:#ffffff;fill-rule:evenodd;stroke:#000000;stroke-width:0.853331" /><polygon
     d="m 155.90552,666.14173 -68.390443,-37.55691 -69.710064,35.04683 14.584934,-76.6489 -54.873114,-55.46814 77.40443,-9.81472 35.796616,-69.32803 33.253631,70.58307 76.99664,12.62107 -56.85255,53.43745 z"
     inkscape:randomized="0"
     inkscape:rounded="0"
     inkscape:flatsided="false"
     transform="matrix(0.05119999,0,0,0.05119999,159.78912,648.08384)"
     points="155.9055,666.1417 87.51508,628.5848 17.80502,663.6317 32.38995,586.9827 -22.48316,531.5146 54.92126,521.6999 90.71788,452.3719 123.9715,522.955 200.9681,535.576 144.1156,589.0134 155.9055,666.1417 "
     sodipodi:arg2="1.5889701"
     sodipodi:arg1="0.96065152"
     sodipodi:r2="58.747353"
     sodipodi:r1="117.49471"
     sodipodi:cy="569.84717"
     sodipodi:cx="88.58268"
     sodipodi:sides="5"
     id="polygon1217"
     style="font-size:12px;fill:#000000;fill-opacity:1;fill-rule:evenodd;stroke-width:1"
     sodipodi:type="star" /></g><g
   id="g2428"
   transform="matrix(0.657391,0,0,0.657391,50.415581,-28.768574)"><g
   transform="matrix(0.75,0,0,0.75,9.9488192,-63.284768)"
   id="g2337"><rect
     y="576.75702"
     x="37.795277"
     height="37.795246"
     width="37.795277"
     id="rect2339"
     style="font-size:12px;fill:#feffff;fill-opacity:1;fill-rule:evenodd;stroke:#000000;stroke-width:1.06667;stroke-opacity:1" /><path
     inkscape:connector-curvature="0"
     sodipodi:nodetypes="csss"
     id="path2341"
     d="m 37.795275,603.21365 c 0,-7.55904 3.77953,-18.8976 11.338581,-18.8976 7.559051,0 7.559051,22.67723 15.118112,22.67723 7.559051,0 11.338581,-11.33867 11.338581,-18.89771"
     style="fill:none;stroke:#000000;stroke-width:1.06667pt;stroke-linecap:butt;stroke-linejoin:miter;stroke-opacity:1" /></g><text
   id="text2343"
   y="382.91132"
   x="53.88805"
   style="font-style:normal;font-variant:normal;font-weight:bold;font-stretch:normal;font-size:12.8px;line-height:0%;font-family:'Bitstream Vera Sans';text-align:start;writing-mode:lr-tb;text-anchor:start;fill:#000000;fill-opacity:1;stroke:none;stroke-width:1.06667"
   xml:space="preserve"><tspan
     y="382.91132"
     x="53.88805"
     id="tspan2345"
     sodipodi:role="line"
     style="font-size:15.7809px;line-height:1;stroke-width:1.06667">2</tspan></text>




</g><rect
   y="161.26614"
   x="18.897638"
   height="11.338587"
   width="11.338581"
   id="rect1016-3"
   style="font-size:12px;fill:#ffffff;fill-rule:evenodd;stroke:#000000;stroke-width:0.639999" /><g
   id="g1495"
   transform="matrix(0.5,0,0,0.5,-71.811029,-46.037346)"><rect
     style="font-size:12px;fill:#ffffff;fill-rule:evenodd;stroke:#000000;stroke-width:1.33333;stroke-dasharray:none"
     id="rect1489"
     width="37.795246"
     height="37.795235"
     x="377.95276"
     y="520.06421" /><ellipse
     style="fill:#000000;fill-opacity:1;fill-rule:evenodd;stroke:#000600;stroke-width:1.06667pt;stroke-linecap:butt;stroke-linejoin:miter;stroke-opacity:1"
     id="path1490"
     cx="396.85043"
     cy="538.96179"
     rx="9.4488182"
     ry="9.4488115" /></g><ellipse
   style="fill:#ffffff;fill-opacity:1;fill-rule:evenodd;stroke:#000600;stroke-width:1pt;stroke-linecap:butt;stroke-linejoin:miter;stroke-opacity:1"
   id="path611"
   cx="24.323359"
   cy="149.68399"
   rx="5.669292"
   ry="5.6692891" /><g
   id="g3196-5"
   transform="matrix(0.144298,0,0,0.144298,252.00243,130.53217)"><ellipse
     id="path3198-9"
     style="color:#000000;display:inline;overflow:visible;visibility:visible;fill:#000000;fill-opacity:1;fill-rule:evenodd;stroke:#000000;stroke-width:5.44778;stroke-linecap:round;stroke-linejoin:miter;stroke-miterlimit:4;stroke-dasharray:none;stroke-dashoffset:0;stroke-opacity:1;marker:none"
     cx="420.20648"
     cy="106.7557"
     rx="54.815933"
     ry="54.931549" /><path
     inkscape:connector-curvature="0"
     style="color:#000000;display:inline;overflow:visible;visibility:visible;fill:#ffffff;fill-opacity:1;fill-rule:evenodd;stroke:#000000;stroke-width:3.77953;stroke-linecap:round;stroke-linejoin:miter;stroke-miterlimit:4;stroke-dasharray:none;stroke-dashoffset:0;stroke-opacity:1;marker:none"
     d="m 379.37691,68.255699 c -9.44407,9.870061 -15.33334,23.189799 -15.33334,37.933331 0,15.28858 6.26427,29.10491 16.33334,39.06667 9.79488,-9.79488 38,-38 38,-38 z"
     id="path3200-4" /><path
     inkscape:connector-curvature="0"
     style="color:#000000;display:inline;overflow:visible;visibility:visible;fill:#ffffff;fill-opacity:1;fill-rule:evenodd;stroke:#000000;stroke-width:3.77953;stroke-linecap:round;stroke-linejoin:miter;stroke-miterlimit:4;stroke-dasharray:none;stroke-dashoffset:0;stroke-opacity:1;marker:none"
     d="m 459.24357,67.239033 c -11.15287,11.152881 -39.7,39.699997 -39.7,39.699997 l 39.33334,39.33333 c 10.47632,-10.00695 17.1,-24.02907 17.1,-39.66666 0,-15.468163 -6.45538,-29.380317 -16.73334,-39.366667 z"
     id="path3202-9" /></g><g
   id="g3196-4-7"
   transform="matrix(0.144298,0,0,0.144298,219.14574,130.53217)"><ellipse
     id="path3198-5-6"
     style="color:#000000;display:inline;overflow:visible;visibility:visible;fill:#000000;fill-opacity:1;fill-rule:evenodd;stroke:#000000;stroke-width:5.44778;stroke-linecap:round;stroke-linejoin:miter;stroke-miterlimit:4;stroke-dasharray:none;stroke-dashoffset:0;stroke-opacity:1;marker:none"
     cx="420.20648"
     cy="106.7557"
     rx="54.815933"
     ry="54.931549" /><path
     inkscape:connector-curvature="0"
     style="color:#000000;display:inline;overflow:visible;visibility:visible;fill:#ffffff;fill-opacity:1;fill-rule:evenodd;stroke:#000000;stroke-width:3.77953;stroke-linecap:round;stroke-linejoin:miter;stroke-miterlimit:4;stroke-dasharray:none;stroke-dashoffset:0;stroke-opacity:1;marker:none"
     d="m 379.37691,68.255699 c -9.44407,9.870061 -15.33334,23.189799 -15.33334,37.933331 0,15.28858 6.26427,29.10491 16.33334,39.06667 9.79488,-9.79488 38,-38 38,-38 z"
     id="path3200-0-7" /><path
     inkscape:connector-curvature="0"
     style="color:#000000;display:inline;overflow:visible;visibility:visible;fill:#ffffff;fill-opacity:1;fill-rule:evenodd;stroke:#000000;stroke-width:3.77953;stroke-linecap:round;stroke-linejoin:miter;stroke-miterlimit:4;stroke-dasharray:none;stroke-dashoffset:0;stroke-opacity:1;marker:none"
     d="m 459.24357,67.239033 c -11.15287,11.152881 -39.7,39.699997 -39.7,39.699997 l 39.33334,39.33333 c 10.47632,-10.00695 17.1,-24.02907 17.1,-39.66666 0,-15.468163 -6.45538,-29.380317 -16.73334,-39.366667 z"
     id="path3202-3-3" /></g><g
   id="g1495-7"
   transform="matrix(0.5,0,0,0.5,-41.57481,-46.037346)"><rect
     style="font-size:12px;fill:#ffffff;fill-rule:evenodd;stroke:#000000;stroke-width:1.33333;stroke-dasharray:none"
     id="rect1489-6"
     width="37.795246"
     height="37.795235"
     x="377.95276"
     y="520.06421" /><ellipse
     style="fill:#000000;fill-opacity:1;fill-rule:evenodd;stroke:#000600;stroke-width:1.06667pt;stroke-linecap:butt;stroke-linejoin:miter;stroke-opacity:1"
     id="path1490-5"
     cx="396.85043"
     cy="538.96179"
     rx="9.4488182"
     ry="9.4488115" /></g><g
   id="g1408"
   transform="matrix(0.225,0,0,0.225,99.623659,-32.425634)"><g
   id="g1409"
   transform="matrix(0.499998,0.866024,-0.866024,0.499998,968.65685,202.36224)"><path
     inkscape:connector-curvature="0"
     style="font-size:12px;fill:#ffffff;fill-rule:evenodd;stroke:#000600;stroke-width:1.06667"
     d="m 133.58027,671.1523 h -1.06667 l -28.2,-49.53333 c 7.86667,-4.8 17.33333,-6.8 27.13333,-7.06667 h 3.13334 c 10.06666,0.13333 19.33333,3.06667 27.33333,8 z"
     id="path1410"
     sodipodi:nodetypes="ccccccc" /><path
     inkscape:connector-curvature="0"
     style="font-size:12px;fill:#ffffff;fill-rule:evenodd;stroke:#000600;stroke-width:1.06667"
     d="m 132.27253,670.32147 -0.53333,0.92374 -56.253013,-0.30006 c -0.22368,-9.2128 2.0336,-18.45578 6.70272,-27.07616 l 1.566613,-2.7136 c 5.1488,-8.6513 12.322453,-15.20981 20.59488,-19.67136 z"
     id="path1411" /><path
     inkscape:connector-curvature="0"
     style="font-size:12px;fill:#999999;fill-rule:evenodd;stroke:#000600;stroke-width:1.06667"
     d="m 131.63061,671.48265 0.53334,0.92384 -28.38646,48.5664 C 95.687147,716.56019 88.8112,709.98387 83.680213,701.63017 l -1.56672,-2.7136 C 77.195627,690.13193 75.10272,680.64009 75.37504,671.24521 Z"
     id="path1412" /><path
     inkscape:connector-curvature="0"
     style="font-size:12px;fill:#999999;fill-rule:evenodd;stroke:#000600;stroke-width:1.06667"
     d="m 132.22293,671.24521 h 1.06678 l 27.86645,48.86666 c -7.86667,4.8 -16.99989,7.46667 -26.79989,7.73334 h -3.13344 c -10.06667,-0.13334 -19.66656,-2.4 -27.66667,-7.33334 z"
     id="path1413"
     sodipodi:nodetypes="ccccccc" /><path
     inkscape:connector-curvature="0"
     style="font-size:12px;fill:#999999;fill-rule:evenodd;stroke:#000600;stroke-width:1.06667"
     d="m 132.05536,672.16905 0.53333,-0.92384 56.25302,0.30026 c 0.22357,9.2128 -2.0336,18.45568 -6.70272,27.07606 l -1.56672,2.7137 c -5.1488,8.65131 -12.32235,15.20971 -20.59488,19.67136 z"
     id="path1414" /><path
     inkscape:connector-curvature="0"
     style="font-size:12px;fill:#ffffff;fill-rule:evenodd;stroke:#000600;stroke-width:1.06666"
     d="m 132.69739,671.00755 -0.53344,-0.92373 28.38656,-48.5664 c 8.09034,4.4128 14.96629,10.98901 20.09717,19.34272 l 1.56683,2.71371 c 4.91776,8.78464 7.01077,18.27626 6.73845,27.67136 z"
     id="path1415" /><circle
     style="font-size:12px;fill:#ffffff;fill-rule:evenodd;stroke:#000600;stroke-width:1.06667"
     id="path1416"
     cx="132.16405"
     cy="671.24524"
     r="37.79528" /></g><text
   style="font-style:normal;font-weight:bold;font-size:12.8px;line-height:0%;font-family:'Bitstream Vera Sans';writing-mode:lr-tb;text-anchor:start;fill:#000000;fill-opacity:1;stroke:none;stroke-width:1.06667"
   x="435.81134"
   y="671.3941"
   id="text1417"
   xml:space="default"><tspan
     x="435.81134"
     y="671.3941"
     sodipodi:role="line"
     id="tspan1418"
     style="font-size:51.2px;line-height:1;stroke-width:1.06667">2</tspan></text>
</g><g
   id="g1444"
   transform="matrix(0.225,0,0,0.225,16.218704,-36.846973)"><g
   id="g1445"
   transform="rotate(-59.999988,129.68517,675.7901)"><path
     inkscape:connector-curvature="0"
     style="font-size:12px;fill:#ffffff;fill-rule:evenodd;stroke:#000600;stroke-width:1.06667"
     d="m 133.58027,671.1523 h -1.06667 l -28.2,-49.53333 c 7.86667,-4.8 17.33333,-6.8 27.13333,-7.06667 h 3.13334 c 10.06666,0.13333 19.33333,3.06667 27.33333,8 z"
     id="path1446"
     sodipodi:nodetypes="ccccccc" /><path
     inkscape:connector-curvature="0"
     style="font-size:12px;fill:#ffffff;fill-rule:evenodd;stroke:#000600;stroke-width:1.06667"
     d="m 132.27253,670.32147 -0.53333,0.92374 -56.253013,-0.30006 c -0.22368,-9.2128 2.0336,-18.45578 6.70272,-27.07616 l 1.566613,-2.7136 c 5.1488,-8.6513 12.322453,-15.20981 20.59488,-19.67136 z"
     id="path1447" /><path
     inkscape:connector-curvature="0"
     style="font-size:12px;fill:#999999;fill-rule:evenodd;stroke:#000600;stroke-width:1.06667"
     d="m 131.63061,671.48265 0.53334,0.92384 -28.38646,48.5664 C 95.687147,716.56019 88.8112,709.98387 83.680213,701.63017 l -1.56672,-2.7136 C 77.195627,690.13193 75.10272,680.64009 75.37504,671.24521 Z"
     id="path1448" /><path
     inkscape:connector-curvature="0"
     style="font-size:12px;fill:#999999;fill-rule:evenodd;stroke:#000600;stroke-width:1.06667"
     d="m 132.22293,671.24521 h 1.06678 l 27.86645,48.86666 c -7.86667,4.8 -16.99989,7.46667 -26.79989,7.73334 h -3.13344 c -10.06667,-0.13334 -19.66656,-2.4 -27.66667,-7.33334 z"
     id="path1449"
     sodipodi:nodetypes="ccccccc" /><path
     inkscape:connector-curvature="0"
     style="font-size:12px;fill:#999999;fill-rule:evenodd;stroke:#000600;stroke-width:1.06667"
     d="m 132.05536,672.16905 0.53333,-0.92384 56.25302,0.30026 c 0.22357,9.2128 -2.0336,18.45568 -6.70272,27.07606 l -1.56672,2.7137 c -5.1488,8.65131 -12.32235,15.20971 -20.59488,19.67136 z"
     id="path1450" /><path
     inkscape:connector-curvature="0"
     style="font-size:12px;fill:#ffffff;fill-rule:evenodd;stroke:#000600;stroke-width:1.06666"
     d="m 132.69739,671.00755 -0.53344,-0.92373 28.38656,-48.5664 c 8.09034,4.4128 14.96629,10.98901 20.09717,19.34272 l 1.56683,2.71371 c 4.91776,8.78464 7.01077,18.27626 6.73845,27.67136 z"
     id="path1451" /><circle
     style="font-size:12px;fill:#ffffff;fill-rule:evenodd;stroke:#000600;stroke-width:1.06667"
     id="path1452"
     cx="132.16405"
     cy="671.24524"
     r="37.79528" /></g><text
   style="font-style:normal;font-weight:bold;font-size:12.8px;line-height:0%;font-family:'Bitstream Vera Sans';writing-mode:lr-tb;text-anchor:start;fill:#000000;fill-opacity:1;stroke:none;stroke-width:1.06667"
   x="109.33582"
   y="690.3476"
   id="text1453"
   xml:space="default"><tspan
     x="109.33582"
     y="690.3476"
     sodipodi:role="line"
     id="tspan1454"
     style="font-size:51.2px;line-height:1;stroke-width:1.06667">2</tspan></text>
</g><g
   id="g1312-6"
   transform="matrix(0.225,0,0,0.225,126.46372,-75.13533)"><g
   id="g1313-9"
   transform="translate(-132.04448,8.8155275)"><path
     inkscape:connector-curvature="0"
     style="font-size:12px;fill:#ffffff;fill-rule:evenodd;stroke:#000600;stroke-width:1.06667"
     d="m 133.58027,671.1523 h -1.06667 l -28.2,-49.53333 c 7.86667,-4.8 17.33333,-6.8 27.13333,-7.06667 h 3.13334 c 10.06666,0.13333 19.33333,3.06667 27.33333,8 z"
     id="path1314-3"
     sodipodi:nodetypes="ccccccc" /><path
     inkscape:connector-curvature="0"
     style="font-size:12px;fill:#ffffff;fill-rule:evenodd;stroke:#000600;stroke-width:1.06667"
     d="m 132.27253,670.32147 -0.53333,0.92374 -56.253013,-0.30006 c -0.22368,-9.2128 2.0336,-18.45578 6.70272,-27.07616 l 1.566613,-2.7136 c 5.1488,-8.6513 12.322453,-15.20981 20.59488,-19.67136 z"
     id="path1315-7" /><path
     inkscape:connector-curvature="0"
     style="font-size:12px;fill:#999999;fill-rule:evenodd;stroke:#000600;stroke-width:1.06667"
     d="m 131.63061,671.48265 0.53334,0.92384 -28.38646,48.5664 C 95.687147,716.56019 88.8112,709.98387 83.680213,701.63017 l -1.56672,-2.7136 C 77.195627,690.13193 75.10272,680.64009 75.37504,671.24521 Z"
     id="path1316-4" /><path
     inkscape:connector-curvature="0"
     style="font-size:12px;fill:#999999;fill-rule:evenodd;stroke:#000600;stroke-width:1.06667"
     d="m 132.22293,671.24521 h 1.06678 l 27.86645,48.86666 c -7.86667,4.8 -16.99989,7.46667 -26.79989,7.73334 h -3.13344 c -10.06667,-0.13334 -19.66656,-2.4 -27.66667,-7.33334 z"
     id="path1317-5"
     sodipodi:nodetypes="ccccccc" /><path
     inkscape:connector-curvature="0"
     style="font-size:12px;fill:#999999;fill-rule:evenodd;stroke:#000600;stroke-width:1.06667"
     d="m 132.05536,672.16905 0.53333,-0.92384 56.25302,0.30026 c 0.22357,9.2128 -2.0336,18.45568 -6.70272,27.07606 l -1.56672,2.7137 c -5.1488,8.65131 -12.32235,15.20971 -20.59488,19.67136 z"
     id="path1318-2" /><path
     inkscape:connector-curvature="0"
     style="font-size:12px;fill:#ffffff;fill-rule:evenodd;stroke:#000600;stroke-width:1.06666"
     d="m 132.69739,671.00755 -0.53344,-0.92373 28.38656,-48.5664 c 8.09034,4.4128 14.96629,10.98901 20.09717,19.34272 l 1.56683,2.71371 c 4.91776,8.78464 7.01077,18.27626 6.73845,27.67136 z"
     id="path1319-5" /><circle
     style="font-size:12px;fill:#ffffff;fill-rule:evenodd;stroke:#000600;stroke-width:1.06667"
     id="path1320-4"
     cx="132.16405"
     cy="671.24524"
     r="37.79528" /></g><text
   style="font-style:normal;font-weight:bold;font-size:12.8px;line-height:0%;font-family:'Bitstream Vera Sans';writing-mode:lr-tb;text-anchor:start;fill:#000000;fill-opacity:1;stroke:none;stroke-width:1.06667"
   x="-17.493025"
   y="699.01428"
   id="text1321-7"
   xml:space="default"><tspan
     x="-17.493025"
     y="699.01428"
     sodipodi:role="line"
     id="tspan1322-4"
     style="font-size:51.2px;line-height:1;stroke-width:1.06667">2</tspan></text>
</g><g
   id="g1495-7-5"
   transform="matrix(0.5,0,0,0.5,-11.338589,-46.037346)"><rect
     style="font-size:12px;fill:#ffffff;fill-rule:evenodd;stroke:#000000;stroke-width:1.33333;stroke-dasharray:none"
     id="rect1489-6-7"
     width="37.795246"
     height="37.795235"
     x="377.95276"
     y="520.06421" /><ellipse
     style="fill:#000000;fill-opacity:1;fill-rule:evenodd;stroke:#000600;stroke-width:1.06667pt;stroke-linecap:butt;stroke-linejoin:miter;stroke-opacity:1"
     id="path1490-5-4"
     cx="396.85043"
     cy="538.96179"
     rx="9.4488182"
     ry="9.4488115" /></g><rect
   y="161.26614"
   x="49.133858"
   height="11.338587"
   width="11.338581"
   id="rect1016-3-18"
   style="font-size:12px;fill:#ffffff;fill-rule:evenodd;stroke:#000000;stroke-width:0.639999" /><rect
   y="191.50237"
   x="18.897638"
   height="11.338587"
   width="11.338581"
   id="rect1016-3-59"
   style="font-size:12px;fill:#ffffff;fill-rule:evenodd;stroke:#000000;stroke-width:0.639999" /><rect
   y="161.26614"
   x="34.015747"
   height="11.338587"
   width="11.338581"
   id="rect1016-3-7"
   style="font-size:12px;fill:#ffffff;fill-rule:evenodd;stroke:#000000;stroke-width:0.639999" /><rect
   y="176.38425"
   x="34.015747"
   height="11.338587"
   width="11.338581"
   id="rect1016-3-53"
   style="font-size:12px;fill:#ffffff;fill-rule:evenodd;stroke:#000000;stroke-width:0.639999" /><rect
   y="191.50237"
   x="34.015747"
   height="11.338587"
   width="11.338581"
   id="rect1016-3-8"
   style="font-size:12px;fill:#ffffff;fill-rule:evenodd;stroke:#000000;stroke-width:0.639999" /><rect
   y="176.38425"
   x="49.133858"
   height="11.338587"
   width="11.338581"
   id="rect1016-3-53-8"
   style="font-size:12px;fill:#ffffff;fill-rule:evenodd;stroke:#000000;stroke-width:0.639999" /><rect
   y="161.26614"
   x="185.19684"
   height="11.338587"
   width="11.338581"
   id="rect1016-3-53-3"
   style="font-size:12px;fill:#ffffff;fill-rule:evenodd;stroke:#000000;stroke-width:0.639999" /><g
   style="font-size:12px"
   transform="matrix(0.75000054,0,0,0.75000074,7.124856,-310.55198)"
   id="g1219-1"><rect
     y="669.15875"
     x="156.79929"
     height="15.11811"
     width="15.118096"
     id="rect1218-8"
     style="font-size:12px;fill:#ffffff;fill-rule:evenodd;stroke:#000000;stroke-width:0.853331" /><polygon
     d="m 155.90552,666.14173 -68.390443,-37.55691 -69.710064,35.04683 14.584934,-76.6489 -54.873114,-55.46814 77.40443,-9.81472 35.796616,-69.32803 33.253631,70.58307 76.99664,12.62107 -56.85255,53.43745 z"
     inkscape:randomized="0"
     inkscape:rounded="0"
     inkscape:flatsided="false"
     transform="matrix(0.05119999,0,0,0.05119999,159.78912,648.08384)"
     points="155.9055,666.1417 87.51508,628.5848 17.80502,663.6317 32.38995,586.9827 -22.48316,531.5146 54.92126,521.6999 90.71788,452.3719 123.9715,522.955 200.9681,535.576 144.1156,589.0134 155.9055,666.1417 "
     sodipodi:arg2="1.5889701"
     sodipodi:arg1="0.96065152"
     sodipodi:r2="58.747353"
     sodipodi:r1="117.49471"
     sodipodi:cy="569.84717"
     sodipodi:cx="88.58268"
     sodipodi:sides="5"
     id="polygon1217-9"
     style="font-size:12px;fill:#000000;fill-opacity:1;fill-rule:evenodd;stroke-width:1"
     sodipodi:type="star" /></g><rect
   y="161.26614"
   x="64.251968"
   height="11.338587"
   width="11.338581"
   id="rect1016-3-6"
   style="font-size:12px;fill:#ffffff;fill-rule:evenodd;stroke:#000000;stroke-width:0.639999" /><rect
   y="176.19948"
   x="94.48819"
   height="11.338587"
   width="11.338581"
   id="rect1016-3-18-4"
   style="font-size:12px;fill:#ffffff;fill-rule:evenodd;stroke:#000000;stroke-width:0.639999" /><rect
   y="191.50237"
   x="64.251968"
   height="11.338587"
   width="11.338581"
   id="rect1016-3-59-3"
   style="font-size:12px;fill:#ffffff;fill-rule:evenodd;stroke:#000000;stroke-width:0.639999" /><rect
   y="161.26614"
   x="79.370079"
   height="11.338587"
   width="11.338581"
   id="rect1016-3-7-3"
   style="font-size:12px;fill:#ffffff;fill-rule:evenodd;stroke:#000000;stroke-width:0.639999" /><rect
   y="176.38425"
   x="79.370079"
   height="11.338587"
   width="11.338581"
   id="rect1016-3-53-38"
   style="font-size:12px;fill:#ffffff;fill-rule:evenodd;stroke:#000000;stroke-width:0.639999" /><rect
   y="191.31758"
   x="215.43307"
   height="11.338587"
   width="11.338581"
   id="rect1016-3-8-6"
   style="font-size:12px;fill:#ffffff;fill-rule:evenodd;stroke:#000000;stroke-width:0.639999" /><rect
   y="176.19948"
   x="139.84251"
   height="11.338587"
   width="11.338581"
   id="rect1016-3-53-8-0"
   style="font-size:12px;fill:#ffffff;fill-rule:evenodd;stroke:#000000;stroke-width:0.639999" /><rect
   y="191.50237"
   x="94.48819"
   height="11.338587"
   width="11.338581"
   id="rect1016-3-53-3-4"
   style="font-size:12px;fill:#ffffff;fill-rule:evenodd;stroke:#000000;stroke-width:0.639999" /><g
   style="font-size:12px"
   transform="matrix(0.75000054,0,0,0.75000074,7.124856,-340.60342)"
   id="g1219-8"><rect
     y="669.15875"
     x="156.79929"
     height="15.11811"
     width="15.118096"
     id="rect1218-88"
     style="font-size:12px;fill:#ffffff;fill-rule:evenodd;stroke:#000000;stroke-width:0.853331" /><polygon
     d="m 155.90552,666.14173 -68.390443,-37.55691 -69.710064,35.04683 14.584934,-76.6489 -54.873114,-55.46814 77.40443,-9.81472 35.796616,-69.32803 33.253631,70.58307 76.99664,12.62107 -56.85255,53.43745 z"
     inkscape:randomized="0"
     inkscape:rounded="0"
     inkscape:flatsided="false"
     transform="matrix(0.05119999,0,0,0.05119999,159.78912,648.08384)"
     points="155.9055,666.1417 87.51508,628.5848 17.80502,663.6317 32.38995,586.9827 -22.48316,531.5146 54.92126,521.6999 90.71788,452.3719 123.9715,522.955 200.9681,535.576 144.1156,589.0134 155.9055,666.1417 "
     sodipodi:arg2="1.5889701"
     sodipodi:arg1="0.96065152"
     sodipodi:r2="58.747353"
     sodipodi:r1="117.49471"
     sodipodi:cy="569.84717"
     sodipodi:cx="88.58268"
     sodipodi:sides="5"
     id="polygon1217-97"
     style="font-size:12px;fill:#000000;fill-opacity:1;fill-rule:evenodd;stroke-width:1"
     sodipodi:type="star" /></g><rect
   y="161.26614"
   x="109.60631"
   height="11.338587"
   width="11.338581"
   id="rect1016-3-76"
   style="font-size:12px;fill:#ffffff;fill-rule:evenodd;stroke:#000000;stroke-width:0.639999" /><rect
   y="176.38425"
   x="109.60631"
   height="11.338587"
   width="11.338581"
   id="rect1016-3-18-43"
   style="font-size:12px;fill:#ffffff;fill-rule:evenodd;stroke:#000000;stroke-width:0.639999" /><rect
   y="191.50237"
   x="109.60631"
   height="11.338587"
   width="11.338581"
   id="rect1016-3-59-0"
   style="font-size:12px;fill:#ffffff;fill-rule:evenodd;stroke:#000000;stroke-width:0.639999" /><rect
   y="161.26614"
   x="94.48819"
   height="11.338587"
   width="11.338581"
   id="rect1016-3-7-30"
   style="font-size:12px;fill:#ffffff;fill-rule:evenodd;stroke:#000000;stroke-width:0.639999" /><rect
   y="176.38425"
   x="124.7244"
   height="11.338587"
   width="11.338581"
   id="rect1016-3-53-9"
   style="font-size:12px;fill:#ffffff;fill-rule:evenodd;stroke:#000000;stroke-width:0.639999" /><rect
   y="191.31758"
   x="79.370079"
   height="11.338587"
   width="11.338581"
   id="rect1016-3-8-2"
   style="font-size:12px;fill:#ffffff;fill-rule:evenodd;stroke:#000000;stroke-width:0.639999" /><rect
   y="161.26614"
   x="139.84251"
   height="11.338587"
   width="11.338581"
   id="rect1016-3-53-8-5"
   style="font-size:12px;fill:#ffffff;fill-rule:evenodd;stroke:#000000;stroke-width:0.639999" /><rect
   y="191.50237"
   x="139.84253"
   height="11.338587"
   width="11.338581"
   id="rect1016-3-53-3-40"
   style="font-size:12px;fill:#ffffff;fill-rule:evenodd;stroke:#000000;stroke-width:0.639999" /><g
   style="font-size:12px"
   transform="matrix(0.75000054,0,0,0.75000074,128.06974,-340.7882)"
   id="g1219-5"><rect
     y="669.15875"
     x="156.79929"
     height="15.11811"
     width="15.118096"
     id="rect1218-9"
     style="font-size:12px;fill:#ffffff;fill-rule:evenodd;stroke:#000000;stroke-width:0.853331" /><polygon
     d="m 155.90552,666.14173 -68.390443,-37.55691 -69.710064,35.04683 14.584934,-76.6489 -54.873114,-55.46814 77.40443,-9.81472 35.796616,-69.32803 33.253631,70.58307 76.99664,12.62107 -56.85255,53.43745 z"
     inkscape:randomized="0"
     inkscape:rounded="0"
     inkscape:flatsided="false"
     transform="matrix(0.05119999,0,0,0.05119999,159.78912,648.08384)"
     points="155.9055,666.1417 87.51508,628.5848 17.80502,663.6317 32.38995,586.9827 -22.48316,531.5146 54.92126,521.6999 90.71788,452.3719 123.9715,522.955 200.9681,535.576 144.1156,589.0134 155.9055,666.1417 "
     sodipodi:arg2="1.5889701"
     sodipodi:arg1="0.96065152"
     sodipodi:r2="58.747353"
     sodipodi:r1="117.49471"
     sodipodi:cy="569.84717"
     sodipodi:cx="88.58268"
     sodipodi:sides="5"
     id="polygon1217-4"
     style="font-size:12px;fill:#000000;fill-opacity:1;fill-rule:evenodd;stroke-width:1"
     sodipodi:type="star" /></g><rect
   y="161.26614"
   x="154.96063"
   height="11.338587"
   width="11.338581"
   id="rect1016-3-69"
   style="font-size:12px;fill:#ffffff;fill-rule:evenodd;stroke:#000000;stroke-width:0.639999" /><rect
   y="176.38425"
   x="154.96063"
   height="11.338587"
   width="11.338581"
   id="rect1016-3-18-2"
   style="font-size:12px;fill:#ffffff;fill-rule:evenodd;stroke:#000000;stroke-width:0.639999" /><rect
   y="191.50237"
   x="154.96063"
   height="11.338587"
   width="11.338581"
   id="rect1016-3-59-2"
   style="font-size:12px;fill:#ffffff;fill-rule:evenodd;stroke:#000000;stroke-width:0.639999" /><rect
   y="161.26614"
   x="170.07875"
   height="11.338587"
   width="11.338581"
   id="rect1016-3-7-4"
   style="font-size:12px;fill:#ffffff;fill-rule:evenodd;stroke:#000000;stroke-width:0.639999" /><rect
   y="176.38425"
   x="170.07875"
   height="11.338587"
   width="11.338581"
   id="rect1016-3-53-7"
   style="font-size:12px;fill:#ffffff;fill-rule:evenodd;stroke:#000000;stroke-width:0.639999" /><rect
   y="176.19948"
   x="215.43307"
   height="11.338587"
   width="11.338581"
   id="rect1016-3-53-8-54"
   style="font-size:12px;fill:#ffffff;fill-rule:evenodd;stroke:#000000;stroke-width:0.639999" /><rect
   y="191.50237"
   x="185.19685"
   height="11.338587"
   width="11.338581"
   id="rect1016-3-53-3-8"
   style="font-size:12px;fill:#ffffff;fill-rule:evenodd;stroke:#000000;stroke-width:0.639999" /><rect
   y="161.26614"
   x="200.31496"
   height="11.338587"
   width="11.338581"
   id="rect1016-3-1"
   style="font-size:12px;fill:#ffffff;fill-rule:evenodd;stroke:#000000;stroke-width:0.639999" /><rect
   y="176.38423"
   x="200.31496"
   height="11.338587"
   width="11.338581"
   id="rect1016-3-18-28"
   style="font-size:12px;fill:#ffffff;fill-rule:evenodd;stroke:#000000;stroke-width:0.639999" /><rect
   y="191.31758"
   x="170.07875"
   height="11.338587"
   width="11.338581"
   id="rect1016-3-59-9"
   style="font-size:12px;fill:#ffffff;fill-rule:evenodd;stroke:#000000;stroke-width:0.639999" /><rect
   y="161.26614"
   x="215.43307"
   height="11.338587"
   width="11.338581"
   id="rect1016-3-7-36"
   style="font-size:12px;fill:#ffffff;fill-rule:evenodd;stroke:#000000;stroke-width:0.639999" /><rect
   y="191.31758"
   x="49.133858"
   height="11.338587"
   width="11.338581"
   id="rect1016-3-53-80"
   style="font-size:12px;fill:#ffffff;fill-rule:evenodd;stroke:#000000;stroke-width:0.639999" /><g
   style="font-size:12px"
   transform="matrix(0.75000054,0,0,0.75000074,67.597297,-325.67009)"
   id="g1219-0"><rect
     y="669.15875"
     x="156.79929"
     height="15.11811"
     width="15.118096"
     id="rect1218-5"
     style="font-size:12px;fill:#ffffff;fill-rule:evenodd;stroke:#000000;stroke-width:0.853331" /><polygon
     d="m 155.90552,666.14173 -68.390443,-37.55691 -69.710064,35.04683 14.584934,-76.6489 -54.873114,-55.46814 77.40443,-9.81472 35.796616,-69.32803 33.253631,70.58307 76.99664,12.62107 -56.85255,53.43745 z"
     inkscape:randomized="0"
     inkscape:rounded="0"
     inkscape:flatsided="false"
     transform="matrix(0.05119999,0,0,0.05119999,159.78912,648.08384)"
     points="155.9055,666.1417 87.51508,628.5848 17.80502,663.6317 32.38995,586.9827 -22.48316,531.5146 54.92126,521.6999 90.71788,452.3719 123.9715,522.955 200.9681,535.576 144.1156,589.0134 155.9055,666.1417 "
     sodipodi:arg2="1.5889701"
     sodipodi:arg1="0.96065152"
     sodipodi:r2="58.747353"
     sodipodi:r1="117.49471"
     sodipodi:cy="569.84717"
     sodipodi:cx="88.58268"
     sodipodi:sides="5"
     id="polygon1217-1"
     style="font-size:12px;fill:#000000;fill-opacity:1;fill-rule:evenodd;stroke-width:1"
     sodipodi:type="star" /></g><g
   style="font-size:12px"
   transform="matrix(0.75000054,0,0,0.75000074,-53.347585,-325.67009)"
   id="g1219-10"><rect
     y="669.15875"
     x="156.79929"
     height="15.11811"
     width="15.118096"
     id="rect1218-85"
     style="font-size:12px;fill:#ffffff;fill-rule:evenodd;stroke:#000000;stroke-width:0.853331" /><polygon
     d="m 155.90552,666.14173 -68.390443,-37.55691 -69.710064,35.04683 14.584934,-76.6489 -54.873114,-55.46814 77.40443,-9.81472 35.796616,-69.32803 33.253631,70.58307 76.99664,12.62107 -56.85255,53.43745 z"
     inkscape:randomized="0"
     inkscape:rounded="0"
     inkscape:flatsided="false"
     transform="matrix(0.05119999,0,0,0.05119999,159.78912,648.08384)"
     points="155.9055,666.1417 87.51508,628.5848 17.80502,663.6317 32.38995,586.9827 -22.48316,531.5146 54.92126,521.6999 90.71788,452.3719 123.9715,522.955 200.9681,535.576 144.1156,589.0134 155.9055,666.1417 "
     sodipodi:arg2="1.5889701"
     sodipodi:arg1="0.96065152"
     sodipodi:r2="58.747353"
     sodipodi:r1="117.49471"
     sodipodi:cy="569.84717"
     sodipodi:cx="88.58268"
     sodipodi:sides="5"
     id="polygon1217-0"
     style="font-size:12px;fill:#000000;fill-opacity:1;fill-rule:evenodd;stroke-width:1"
     sodipodi:type="star" /></g><ellipse
   style="fill:#ffffff;fill-opacity:1;fill-rule:evenodd;stroke:#000600;stroke-width:1pt;stroke-linecap:butt;stroke-linejoin:miter;stroke-opacity:1"
   id="path611-4"
   cx="39.685043"
   cy="149.68399"
   rx="5.669292"
   ry="5.6692891" /><ellipse
   style="fill:#ffffff;fill-opacity:1;fill-rule:evenodd;stroke:#000600;stroke-width:1pt;stroke-linecap:butt;stroke-linejoin:miter;stroke-opacity:1"
   id="path611-6"
   cx="54.803146"
   cy="149.68399"
   rx="5.669292"
   ry="5.6692891" /><ellipse
   style="fill:#ffffff;fill-opacity:1;fill-rule:evenodd;stroke:#000600;stroke-width:1pt;stroke-linecap:butt;stroke-linejoin:miter;stroke-opacity:1"
   id="path611-2"
   cx="69.921257"
   cy="149.68399"
   rx="5.669292"
   ry="5.6692891" /><ellipse
   style="fill:#ffffff;fill-opacity:1;fill-rule:evenodd;stroke:#000600;stroke-width:1pt;stroke-linecap:butt;stroke-linejoin:miter;stroke-opacity:1"
   id="path611-5"
   cx="85.039368"
   cy="149.68399"
   rx="5.669292"
   ry="5.6692891" /><ellipse
   style="fill:#ffffff;fill-opacity:1;fill-rule:evenodd;stroke:#000600;stroke-width:1pt;stroke-linecap:butt;stroke-linejoin:miter;stroke-opacity:1"
   id="path611-8"
   cx="100.15748"
   cy="149.68399"
   rx="5.669292"
   ry="5.6692891" /><ellipse
   style="fill:#ffffff;fill-opacity:1;fill-rule:evenodd;stroke:#000600;stroke-width:1pt;stroke-linecap:butt;stroke-linejoin:miter;stroke-opacity:1"
   id="path611-62"
   cx="115.27559"
   cy="149.68399"
   rx="5.669292"
   ry="5.6692891" /><g
   transform="translate(-252.69054,-304.11955)"
   id="g3305"><g
     transform="translate(-0.51390592,31.443314)"
     id="g3235"><ellipse
       style="fill:#000000;fill-opacity:1;fill-rule:evenodd;stroke:#000600;stroke-width:0.948159pt;stroke-linecap:butt;stroke-linejoin:miter;stroke-opacity:1"
       id="path3237"
       cx="341.17947"
       cy="351.86227"
       rx="8.3990469"
       ry="8.399044" /><g
       id="g3239"
       transform="matrix(0.606886,0,0,0.606886,388.40742,272.45668)"><path
         inkscape:connector-curvature="0"
         id="path3241"
         d="m -88.911469,112.59284 c -2.978069,1.60616 -5.579766,3.95219 -7.433333,7.06667 l -0.566667,0.96667 c -1.680885,3.10332 -2.480521,6.45005 -2.4,9.76666 l 6.833334,0.0333 c -4.3e-5,-0.0147 10e-7,-0.0187 0,-0.0333 -2e-6,-0.93931 0.08559,-1.84686 0.266666,-2.73333 0.181075,-0.88648 0.456038,-1.75148 0.8,-2.56667 0.687927,-1.63037 1.669658,-3.09882 2.9,-4.33333 0.869487,-0.87243 1.988298,-1.45485 3.066667,-2.06667 z"
         style="font-size:12px;fill:#999999;fill-opacity:1;fill-rule:evenodd;stroke:#000000;stroke-width:0.941333;stroke-miterlimit:4;stroke-dasharray:none;stroke-opacity:1" /><path
         inkscape:connector-curvature="0"
         id="path3243"
         d="m -78.595889,109.65639 c -3.528,0.096 -6.934667,0.83867 -9.766667,2.56667 l 3.533334,6.2 c 0.533865,-0.32005 0.955305,-0.78786 1.533333,-1.03333 0.813622,-0.34553 1.681102,-0.61802 2.566667,-0.8 0.885564,-0.182 1.794016,-0.26667 2.733333,-0.26667 0.939319,0 1.847767,0.0847 2.733333,0.26667 0.885566,0.18198 1.753045,0.45447 2.566667,0.8 0.603779,0.2564 1.044564,0.76238 1.6,1.1 l 3.466667,-5.93334 c -2.88,-1.776 -6.209334,-2.852 -9.833334,-2.9 z"
         style="font-size:12px;fill:#ffffff;fill-rule:evenodd;stroke:#000600;stroke-width:0.941333;stroke-miterlimit:4;stroke-dasharray:none" /><path
         inkscape:connector-curvature="0"
         id="path3245"
         d="m -67.511878,112.59284 c 2.978069,1.60616 5.579766,3.95219 7.433333,7.06667 l 0.566667,0.96667 c 1.680885,3.10332 2.480521,6.45005 2.4,9.76666 l -6.833334,0.0333 c 4.3e-5,-0.0147 -1e-6,-0.0187 0,-0.0333 10e-7,-0.93931 -0.08559,-1.84686 -0.266666,-2.73333 -0.181076,-0.88648 -0.456038,-1.75148 -0.8,-2.56667 -0.687927,-1.63037 -1.669658,-3.09882 -2.9,-4.33333 -0.869487,-0.87243 -1.988298,-1.45485 -3.066667,-2.06667 z"
         style="font-size:12px;fill:#999999;fill-opacity:1;fill-rule:evenodd;stroke:#000000;stroke-width:0.941333;stroke-miterlimit:4;stroke-dasharray:none;stroke-opacity:1" /></g><path
       sodipodi:type="star"
       style="color:#000000;display:inline;overflow:visible;visibility:visible;fill:#ffffff;fill-opacity:1;fill-rule:nonzero;stroke:#ffffff;stroke-width:0.4;stroke-linecap:round;stroke-linejoin:bevel;stroke-miterlimit:4;stroke-dasharray:none;stroke-dashoffset:0;stroke-opacity:1;marker:none"
       id="path3247"
       sodipodi:sides="4"
       sodipodi:cx="343.12415"
       sodipodi:cy="334.9292"
       sodipodi:r1="14.197438"
       sodipodi:r2="4.9691033"
       sodipodi:arg1="0.92016945"
       sodipodi:arg2="1.7055676"
       inkscape:flatsided="false"
       inkscape:rounded="-5.984796e-15"
       inkscape:randomized="0"
       d="m 351.72333,346.22616 -9.26685,-6.37292 -10.6293,3.67514 6.37292,-9.26685 -3.67513,-10.62929 9.26684,6.37292 10.6293,-3.67514 -6.37292,9.26685 z"
       transform="matrix(0.44464853,-0.06101682,0.06101682,0.44464853,167.98788,223.68972)" /></g><g
     transform="translate(1.9783734,-3.4171905)"
     id="g3283"><ellipse
   style="fill:#ffffff;fill-opacity:1;fill-rule:evenodd;stroke:#000600;stroke-width:0.62575pt;stroke-linecap:butt;stroke-linejoin:miter;stroke-opacity:1"
   id="path3277"
   cx="338.48169"
   cy="397.90442"
   rx="5.543066"
   ry="5.5430641" /><text
   xml:space="preserve"
   style="font-style:normal;font-variant:normal;font-weight:bold;font-stretch:normal;font-size:12.8px;line-height:0%;font-family:sans-serif;-inkscape-font-specification:'Sans Bold';text-align:start;writing-mode:lr-tb;text-anchor:start;fill:#000000;fill-opacity:1;stroke:none;stroke-width:1.06667"
   x="336.28015"
   y="400.27942"
   id="text3279"><tspan
     sodipodi:role="line"
     id="tspan3281"
     x="336.28015"
     y="400.27942"
     style="font-size:6.4px;line-height:1;font-family:sans-serif;stroke-width:1.06667">2</tspan></text>
</g></g><rect
   y="161.08136"
   x="230.55119"
   height="11.338587"
   width="11.338581"
   id="rect1016-3-53-3-1"
   style="font-size:12px;fill:#ffffff;fill-rule:evenodd;stroke:#000000;stroke-width:0.639999" /><rect
   y="176.19946"
   x="230.55121"
   height="11.338587"
   width="11.338581"
   id="rect1016-3-53-8-54-9"
   style="font-size:12px;fill:#ffffff;fill-rule:evenodd;stroke:#000000;stroke-width:0.639999" /><rect
   y="191.31758"
   x="230.55121"
   height="11.338587"
   width="11.338581"
   id="rect1016-3-53-3-8-6"
   style="font-size:12px;fill:#ffffff;fill-rule:evenodd;stroke:#000000;stroke-width:0.639999" /><rect
   y="176.19948"
   x="18.897638"
   height="11.338587"
   width="11.338581"
   id="rect1016-3-1-9"
   style="font-size:12px;fill:#ffffff;fill-rule:evenodd;stroke:#000000;stroke-width:0.639999" /><rect
   y="176.19945"
   x="245.6693"
   height="11.338587"
   width="11.338581"
   id="rect1016-3-18-28-3"
   style="font-size:12px;fill:#ffffff;fill-rule:evenodd;stroke:#000000;stroke-width:0.639999" /><rect
   y="191.31758"
   x="200.31496"
   height="11.338587"
   width="11.338581"
   id="rect1016-3-59-9-3"
   style="font-size:12px;fill:#ffffff;fill-rule:evenodd;stroke:#000000;stroke-width:0.639999" /><rect
   y="161.08136"
   x="260.78741"
   height="11.338587"
   width="11.338581"
   id="rect1016-3-53-3-1-8"
   style="font-size:12px;fill:#ffffff;fill-rule:evenodd;stroke:#000000;stroke-width:0.639999" /><rect
   y="176.19946"
   x="260.78741"
   height="11.338587"
   width="11.338581"
   id="rect1016-3-53-8-54-9-0"
   style="font-size:12px;fill:#ffffff;fill-rule:evenodd;stroke:#000000;stroke-width:0.639999" /><g
   style="font-size:12px"
   transform="matrix(0.75000054,0,0,0.75000074,188.54218,-310.55198)"
   id="g1219-6"><rect
     y="669.15875"
     x="156.79929"
     height="15.11811"
     width="15.118096"
     id="rect1218-4"
     style="font-size:12px;fill:#ffffff;fill-rule:evenodd;stroke:#000000;stroke-width:0.853331" /><polygon
     d="m 155.90552,666.14173 -68.390443,-37.55691 -69.710064,35.04683 14.584934,-76.6489 -54.873114,-55.46814 77.40443,-9.81472 35.796616,-69.32803 33.253631,70.58307 76.99664,12.62107 -56.85255,53.43745 z"
     inkscape:randomized="0"
     inkscape:rounded="0"
     inkscape:flatsided="false"
     transform="matrix(0.05119999,0,0,0.05119999,159.78912,648.08384)"
     points="155.9055,666.1417 87.51508,628.5848 17.80502,663.6317 32.38995,586.9827 -22.48316,531.5146 54.92126,521.6999 90.71788,452.3719 123.9715,522.955 200.9681,535.576 144.1156,589.0134 155.9055,666.1417 "
     sodipodi:arg2="1.5889701"
     sodipodi:arg1="0.96065152"
     sodipodi:r2="58.747353"
     sodipodi:r1="117.49471"
     sodipodi:cy="569.84717"
     sodipodi:cx="88.58268"
     sodipodi:sides="5"
     id="polygon1217-00"
     style="font-size:12px;fill:#000000;fill-opacity:1;fill-rule:evenodd;stroke-width:1"
     sodipodi:type="star" /></g><ellipse
   style="fill:#ffffff;fill-opacity:1;fill-rule:evenodd;stroke:#000600;stroke-width:1pt;stroke-linecap:butt;stroke-linejoin:miter;stroke-opacity:1"
   id="path611-46"
   cx="130.39371"
   cy="149.74278"
   rx="5.669292"
   ry="5.6692891" /><ellipse
   style="fill:#ffffff;fill-opacity:1;fill-rule:evenodd;stroke:#000600;stroke-width:1pt;stroke-linecap:butt;stroke-linejoin:miter;stroke-opacity:1"
   id="path611-4-2"
   cx="145.75539"
   cy="149.74278"
   rx="5.669292"
   ry="5.6692891" /><ellipse
   style="fill:#ffffff;fill-opacity:1;fill-rule:evenodd;stroke:#000600;stroke-width:1pt;stroke-linecap:butt;stroke-linejoin:miter;stroke-opacity:1"
   id="path611-6-6"
   cx="160.87349"
   cy="149.74278"
   rx="5.669292"
   ry="5.6692891" /><ellipse
   style="fill:#ffffff;fill-opacity:1;fill-rule:evenodd;stroke:#000600;stroke-width:1pt;stroke-linecap:butt;stroke-linejoin:miter;stroke-opacity:1"
   id="path611-2-7"
   cx="175.99159"
   cy="149.74278"
   rx="5.669292"
   ry="5.6692891" /><g
   transform="translate(-176.59985,-304.11955)"
   id="g3305-5"><g
     transform="translate(-0.51390592,31.443314)"
     id="g3235-6"><ellipse
       style="fill:#000000;fill-opacity:1;fill-rule:evenodd;stroke:#000600;stroke-width:0.948159pt;stroke-linecap:butt;stroke-linejoin:miter;stroke-opacity:1"
       id="path3237-9"
       cx="341.17947"
       cy="351.86227"
       rx="8.3990469"
       ry="8.399044" /><g
       id="g3239-8"
       transform="matrix(0.606886,0,0,0.606886,388.40742,272.45668)"><path
         inkscape:connector-curvature="0"
         id="path3241-7"
         d="m -88.911469,112.59284 c -2.978069,1.60616 -5.579766,3.95219 -7.433333,7.06667 l -0.566667,0.96667 c -1.680885,3.10332 -2.480521,6.45005 -2.4,9.76666 l 6.833334,0.0333 c -4.3e-5,-0.0147 10e-7,-0.0187 0,-0.0333 -2e-6,-0.93931 0.08559,-1.84686 0.266666,-2.73333 0.181075,-0.88648 0.456038,-1.75148 0.8,-2.56667 0.687927,-1.63037 1.669658,-3.09882 2.9,-4.33333 0.869487,-0.87243 1.988298,-1.45485 3.066667,-2.06667 z"
         style="font-size:12px;fill:#999999;fill-opacity:1;fill-rule:evenodd;stroke:#000000;stroke-width:0.941333;stroke-miterlimit:4;stroke-dasharray:none;stroke-opacity:1" /><path
         inkscape:connector-curvature="0"
         id="path3243-2"
         d="m -78.595889,109.65639 c -3.528,0.096 -6.934667,0.83867 -9.766667,2.56667 l 3.533334,6.2 c 0.533865,-0.32005 0.955305,-0.78786 1.533333,-1.03333 0.813622,-0.34553 1.681102,-0.61802 2.566667,-0.8 0.885564,-0.182 1.794016,-0.26667 2.733333,-0.26667 0.939319,0 1.847767,0.0847 2.733333,0.26667 0.885566,0.18198 1.753045,0.45447 2.566667,0.8 0.603779,0.2564 1.044564,0.76238 1.6,1.1 l 3.466667,-5.93334 c -2.88,-1.776 -6.209334,-2.852 -9.833334,-2.9 z"
         style="font-size:12px;fill:#ffffff;fill-rule:evenodd;stroke:#000600;stroke-width:0.941333;stroke-miterlimit:4;stroke-dasharray:none" /><path
         inkscape:connector-curvature="0"
         id="path3245-8"
         d="m -67.511878,112.59284 c 2.978069,1.60616 5.579766,3.95219 7.433333,7.06667 l 0.566667,0.96667 c 1.680885,3.10332 2.480521,6.45005 2.4,9.76666 l -6.833334,0.0333 c 4.3e-5,-0.0147 -1e-6,-0.0187 0,-0.0333 10e-7,-0.93931 -0.08559,-1.84686 -0.266666,-2.73333 -0.181076,-0.88648 -0.456038,-1.75148 -0.8,-2.56667 -0.687927,-1.63037 -1.669658,-3.09882 -2.9,-4.33333 -0.869487,-0.87243 -1.988298,-1.45485 -3.066667,-2.06667 z"
         style="font-size:12px;fill:#999999;fill-opacity:1;fill-rule:evenodd;stroke:#000000;stroke-width:0.941333;stroke-miterlimit:4;stroke-dasharray:none;stroke-opacity:1" /></g><path
       sodipodi:type="star"
       style="color:#000000;display:inline;overflow:visible;visibility:visible;fill:#ffffff;fill-opacity:1;fill-rule:nonzero;stroke:#ffffff;stroke-width:0.4;stroke-linecap:round;stroke-linejoin:bevel;stroke-miterlimit:4;stroke-dasharray:none;stroke-dashoffset:0;stroke-opacity:1;marker:none"
       id="path3247-2"
       sodipodi:sides="4"
       sodipodi:cx="343.12415"
       sodipodi:cy="334.9292"
       sodipodi:r1="14.197438"
       sodipodi:r2="4.9691033"
       sodipodi:arg1="0.92016945"
       sodipodi:arg2="1.7055676"
       inkscape:flatsided="false"
       inkscape:rounded="-5.984796e-15"
       inkscape:randomized="0"
       d="m 351.72333,346.22616 -9.26685,-6.37292 -10.6293,3.67514 6.37292,-9.26685 -3.67513,-10.62929 9.26684,6.37292 10.6293,-3.67514 -6.37292,9.26685 z"
       transform="matrix(0.44464853,-0.06101682,0.06101682,0.44464853,167.98788,223.68972)" /></g><g
     transform="translate(1.9783734,-3.4171905)"
     id="g3283-9"><ellipse
   style="fill:#ffffff;fill-opacity:1;fill-rule:evenodd;stroke:#000600;stroke-width:0.62575pt;stroke-linecap:butt;stroke-linejoin:miter;stroke-opacity:1"
   id="path3277-9"
   cx="338.48169"
   cy="397.90442"
   rx="5.543066"
   ry="5.5430641" /><text
   xml:space="preserve"
   style="font-style:normal;font-variant:normal;font-weight:bold;font-stretch:normal;font-size:12.8px;line-height:0%;font-family:sans-serif;-inkscape-font-specification:'Sans Bold';text-align:start;writing-mode:lr-tb;text-anchor:start;fill:#000000;fill-opacity:1;stroke:none;stroke-width:1.06667"
   x="336.28015"
   y="400.27942"
   id="text3279-6"><tspan
     sodipodi:role="line"
     id="tspan3281-0"
     x="336.28015"
     y="400.27942"
     style="font-size:6.4px;line-height:1;font-family:sans-serif;stroke-width:1.06667">2</tspan></text>
</g></g><rect
   y="161.08136"
   x="306.14172"
   height="11.338587"
   width="11.338581"
   id="rect1016-3-53-3-9"
   style="font-size:12px;fill:#ffffff;fill-rule:evenodd;stroke:#000000;stroke-width:0.639999" /><rect
   y="161.08136"
   x="275.90555"
   height="11.338587"
   width="11.338581"
   id="rect1016-3-69-9"
   style="font-size:12px;fill:#ffffff;fill-rule:evenodd;stroke:#000000;stroke-width:0.639999" /><rect
   y="176.19946"
   x="275.90555"
   height="11.338587"
   width="11.338581"
   id="rect1016-3-18-2-1"
   style="font-size:12px;fill:#ffffff;fill-rule:evenodd;stroke:#000000;stroke-width:0.639999" /><rect
   y="191.31758"
   x="275.90555"
   height="11.338587"
   width="11.338581"
   id="rect1016-3-59-2-4"
   style="font-size:12px;fill:#ffffff;fill-rule:evenodd;stroke:#000000;stroke-width:0.639999" /><rect
   y="161.08136"
   x="291.02362"
   height="11.338587"
   width="11.338581"
   id="rect1016-3-7-4-9"
   style="font-size:12px;fill:#ffffff;fill-rule:evenodd;stroke:#000000;stroke-width:0.639999" /><rect
   y="176.19946"
   x="291.02362"
   height="11.338587"
   width="11.338581"
   id="rect1016-3-53-7-1"
   style="font-size:12px;fill:#ffffff;fill-rule:evenodd;stroke:#000000;stroke-width:0.639999" /><rect
   y="191.31758"
   x="260.78741"
   height="11.338587"
   width="11.338581"
   id="rect1016-3-53-3-8-7"
   style="font-size:12px;fill:#ffffff;fill-rule:evenodd;stroke:#000000;stroke-width:0.639999" /><rect
   y="191.1328"
   x="291.02362"
   height="11.338587"
   width="11.338581"
   id="rect1016-3-59-9-5"
   style="font-size:12px;fill:#ffffff;fill-rule:evenodd;stroke:#000000;stroke-width:0.639999" /><g
   id="g3196-5-8"
   transform="matrix(0.144298,0,0,0.144298,252.00243,77.618781)"><ellipse
     id="path3198-9-7"
     style="color:#000000;display:inline;overflow:visible;visibility:visible;fill:#000000;fill-opacity:1;fill-rule:evenodd;stroke:#000000;stroke-width:5.44778;stroke-linecap:round;stroke-linejoin:miter;stroke-miterlimit:4;stroke-dasharray:none;stroke-dashoffset:0;stroke-opacity:1;marker:none"
     cx="420.20648"
     cy="106.7557"
     rx="54.815933"
     ry="54.931549" /><path
     inkscape:connector-curvature="0"
     style="color:#000000;display:inline;overflow:visible;visibility:visible;fill:#ffffff;fill-opacity:1;fill-rule:evenodd;stroke:#000000;stroke-width:3.77953;stroke-linecap:round;stroke-linejoin:miter;stroke-miterlimit:4;stroke-dasharray:none;stroke-dashoffset:0;stroke-opacity:1;marker:none"
     d="m 379.37691,68.255699 c -9.44407,9.870061 -15.33334,23.189799 -15.33334,37.933331 0,15.28858 6.26427,29.10491 16.33334,39.06667 9.79488,-9.79488 38,-38 38,-38 z"
     id="path3200-4-0" /><path
     inkscape:connector-curvature="0"
     style="color:#000000;display:inline;overflow:visible;visibility:visible;fill:#ffffff;fill-opacity:1;fill-rule:evenodd;stroke:#000000;stroke-width:3.77953;stroke-linecap:round;stroke-linejoin:miter;stroke-miterlimit:4;stroke-dasharray:none;stroke-dashoffset:0;stroke-opacity:1;marker:none"
     d="m 459.24357,67.239033 c -11.15287,11.152881 -39.7,39.699997 -39.7,39.699997 l 39.33334,39.33333 c 10.47632,-10.00695 17.1,-24.02907 17.1,-39.66666 0,-15.468163 -6.45538,-29.380317 -16.73334,-39.366667 z"
     id="path3202-9-4" /></g><g
   id="g3196-4-7-8"
   transform="matrix(0.144298,0,0,0.144298,219.14574,77.618781)"><ellipse
     id="path3198-5-6-0"
     style="color:#000000;display:inline;overflow:visible;visibility:visible;fill:#000000;fill-opacity:1;fill-rule:evenodd;stroke:#000000;stroke-width:5.44778;stroke-linecap:round;stroke-linejoin:miter;stroke-miterlimit:4;stroke-dasharray:none;stroke-dashoffset:0;stroke-opacity:1;marker:none"
     cx="420.20648"
     cy="106.7557"
     rx="54.815933"
     ry="54.931549" /><path
     inkscape:connector-curvature="0"
     style="color:#000000;display:inline;overflow:visible;visibility:visible;fill:#ffffff;fill-opacity:1;fill-rule:evenodd;stroke:#000000;stroke-width:3.77953;stroke-linecap:round;stroke-linejoin:miter;stroke-miterlimit:4;stroke-dasharray:none;stroke-dashoffset:0;stroke-opacity:1;marker:none"
     d="m 379.37691,68.255699 c -9.44407,9.870061 -15.33334,23.189799 -15.33334,37.933331 0,15.28858 6.26427,29.10491 16.33334,39.06667 9.79488,-9.79488 38,-38 38,-38 z"
     id="path3200-0-7-4" /><path
     inkscape:connector-curvature="0"
     style="color:#000000;display:inline;overflow:visible;visibility:visible;fill:#ffffff;fill-opacity:1;fill-rule:evenodd;stroke:#000000;stroke-width:3.77953;stroke-linecap:round;stroke-linejoin:miter;stroke-miterlimit:4;stroke-dasharray:none;stroke-dashoffset:0;stroke-opacity:1;marker:none"
     d="m 459.24357,67.239033 c -11.15287,11.152881 -39.7,39.699997 -39.7,39.699997 l 39.33334,39.33333 c 10.47632,-10.00695 17.1,-24.02907 17.1,-39.66666 0,-15.468163 -6.45538,-29.380317 -16.73334,-39.366667 z"
     id="path3202-3-3-2" /></g><g
   id="g3196-5-9"
   transform="matrix(0.144298,0,0,0.144298,252.17078,104.02978)"><ellipse
     id="path3198-9-6"
     style="color:#000000;display:inline;overflow:visible;visibility:visible;fill:#000000;fill-opacity:1;fill-rule:evenodd;stroke:#000000;stroke-width:5.44778;stroke-linecap:round;stroke-linejoin:miter;stroke-miterlimit:4;stroke-dasharray:none;stroke-dashoffset:0;stroke-opacity:1;marker:none"
     cx="420.20648"
     cy="106.7557"
     rx="54.815933"
     ry="54.931549" /><path
     inkscape:connector-curvature="0"
     style="color:#000000;display:inline;overflow:visible;visibility:visible;fill:#ffffff;fill-opacity:1;fill-rule:evenodd;stroke:#000000;stroke-width:3.77953;stroke-linecap:round;stroke-linejoin:miter;stroke-miterlimit:4;stroke-dasharray:none;stroke-dashoffset:0;stroke-opacity:1;marker:none"
     d="m 379.37691,68.255699 c -9.44407,9.870061 -15.33334,23.189799 -15.33334,37.933331 0,15.28858 6.26427,29.10491 16.33334,39.06667 9.79488,-9.79488 38,-38 38,-38 z"
     id="path3200-4-1" /><path
     inkscape:connector-curvature="0"
     style="color:#000000;display:inline;overflow:visible;visibility:visible;fill:#ffffff;fill-opacity:1;fill-rule:evenodd;stroke:#000000;stroke-width:3.77953;stroke-linecap:round;stroke-linejoin:miter;stroke-miterlimit:4;stroke-dasharray:none;stroke-dashoffset:0;stroke-opacity:1;marker:none"
     d="m 459.24357,67.239033 c -11.15287,11.152881 -39.7,39.699997 -39.7,39.699997 l 39.33334,39.33333 c 10.47632,-10.00695 17.1,-24.02907 17.1,-39.66666 0,-15.468163 -6.45538,-29.380317 -16.73334,-39.366667 z"
     id="path3202-9-0" /></g><g
   id="g3196-4-7-4"
   transform="matrix(0.144298,0,0,0.144298,219.31409,104.02978)"><ellipse
     id="path3198-5-6-2"
     style="color:#000000;display:inline;overflow:visible;visibility:visible;fill:#000000;fill-opacity:1;fill-rule:evenodd;stroke:#000000;stroke-width:5.44778;stroke-linecap:round;stroke-linejoin:miter;stroke-miterlimit:4;stroke-dasharray:none;stroke-dashoffset:0;stroke-opacity:1;marker:none"
     cx="420.20648"
     cy="106.7557"
     rx="54.815933"
     ry="54.931549" /><path
     inkscape:connector-curvature="0"
     style="color:#000000;display:inline;overflow:visible;visibility:visible;fill:#ffffff;fill-opacity:1;fill-rule:evenodd;stroke:#000000;stroke-width:3.77953;stroke-linecap:round;stroke-linejoin:miter;stroke-miterlimit:4;stroke-dasharray:none;stroke-dashoffset:0;stroke-opacity:1;marker:none"
     d="m 379.37691,68.255699 c -9.44407,9.870061 -15.33334,23.189799 -15.33334,37.933331 0,15.28858 6.26427,29.10491 16.33334,39.06667 9.79488,-9.79488 38,-38 38,-38 z"
     id="path3200-0-7-2" /><path
     inkscape:connector-curvature="0"
     style="color:#000000;display:inline;overflow:visible;visibility:visible;fill:#ffffff;fill-opacity:1;fill-rule:evenodd;stroke:#000000;stroke-width:3.77953;stroke-linecap:round;stroke-linejoin:miter;stroke-miterlimit:4;stroke-dasharray:none;stroke-dashoffset:0;stroke-opacity:1;marker:none"
     d="m 459.24357,67.239033 c -11.15287,11.152881 -39.7,39.699997 -39.7,39.699997 l 39.33334,39.33333 c 10.47632,-10.00695 17.1,-24.02907 17.1,-39.66666 0,-15.468163 -6.45538,-29.380317 -16.73334,-39.366667 z"
     id="path3202-3-3-20" /></g><path
   inkscape:connector-curvature="0"
   style="fill:#ffffff;fill-opacity:1;stroke:#000000;stroke-width:0.512402px;stroke-linecap:butt;stroke-linejoin:miter;stroke-opacity:1"
   d="m 239.39527,77.154489 -8.84409,27.233961 h 17.92208 z"
   id="path5020"
   sodipodi:nodetypes="cccc" /><g
   transform="matrix(0.225,0,0,0.225,59.50455,-48.490771)"
   id="g6008"><g
   id="g1457-4-5"
   transform="translate(4.7156576,-0.41835947)"><path
     inkscape:connector-curvature="0"
     style="font-size:12px;fill:#ffffff;fill-rule:evenodd;stroke:#000600;stroke-width:1.06667"
     d="m 455.07904,746.74283 h -1.06667 l -28.2,-49.53334 c 7.86667,-4.8 17.33334,-6.8 27.13334,-7.06666 h 3.13333 c 10.06667,0.13333 19.33333,3.06666 27.33333,8 z"
     id="path1458-7-2"
     sodipodi:nodetypes="ccccccc" /><path
     inkscape:connector-curvature="0"
     style="font-size:12px;fill:#ffffff;fill-opacity:1;fill-rule:evenodd;stroke:#000600;stroke-width:1.06667"
     d="m 453.77131,745.912 -0.53334,0.92373 -56.25301,-0.30005 c -0.22368,-9.2128 2.0336,-18.45579 6.70272,-27.07616 l 1.56661,-2.7136 c 5.1488,-8.65131 12.32246,-15.20981 20.59488,-19.67136 z"
     id="path1459-2-9" /><path
     inkscape:connector-curvature="0"
     style="font-size:12px;fill:#999999;fill-rule:evenodd;stroke:#000600;stroke-width:1.06667"
     d="m 453.12939,747.07317 0.53333,0.92384 -28.38645,48.5664 c -8.09035,-4.41269 -14.9663,-10.98901 -20.09728,-19.34272 l -1.56672,-2.7136 c -4.91787,-8.78464 -7.01078,-18.27648 -6.73846,-27.67136 z"
     id="path1460-4-0" /><path
     inkscape:connector-curvature="0"
     style="font-size:12px;fill:#999999;fill-rule:evenodd;stroke:#000600;stroke-width:1.06667"
     d="m 453.72171,746.83573 h 1.06677 l 27.86645,48.86667 c -7.86666,4.8 -16.99989,7.46667 -26.79989,7.73333 h -3.13344 c -10.06667,-0.13333 -19.66656,-2.4 -27.66667,-7.33333 z"
     id="path1461-0-2"
     sodipodi:nodetypes="ccccccc" /><path
     inkscape:connector-curvature="0"
     style="font-size:12px;fill:#999999;fill-rule:evenodd;stroke:#000600;stroke-width:1.06667"
     d="m 453.55413,747.75957 0.53334,-0.92384 56.25301,0.30027 c 0.22357,9.2128 -2.0336,18.45568 -6.70272,27.07605 l -1.56672,2.71371 c -5.1488,8.65131 -12.32235,15.20971 -20.59488,19.67136 z"
     id="path1462-6-8" /><path
     inkscape:connector-curvature="0"
     style="font-size:12px;fill:#ffffff;fill-opacity:1;fill-rule:evenodd;stroke:#000600;stroke-width:1.06666"
     d="m 454.19616,746.59808 -0.53344,-0.92373 28.38656,-48.5664 c 8.09035,4.4128 14.96629,10.98901 20.09717,19.34272 l 1.56683,2.7137 c 4.91776,8.78464 7.01077,18.27627 6.73845,27.67136 z"
     id="path1463-2-3" /><circle
     style="font-size:12px;fill:#ffffff;fill-rule:evenodd;stroke:#000600;stroke-width:1.06667"
     id="path1464-9-8"
     cx="453.66281"
     cy="746.83575"
     r="37.79528" /></g><text
   style="font-style:normal;font-weight:bold;font-size:12.8px;line-height:0%;font-family:'Bitstream Vera Sans';writing-mode:lr-tb;text-anchor:start;fill:#000000;fill-opacity:1;stroke:none;stroke-width:1.06667"
   x="440.89093"
   y="765.00842"
   id="text1465-9-0"
   xml:space="default"><tspan
     x="440.89093"
     y="765.00842"
     sodipodi:role="line"
     id="tspan1466-0-4"
     style="font-size:51.2px;line-height:1;stroke-width:1.06667">3</tspan></text>
</g><g
   transform="matrix(0.225,0,0,0.225,23.235446,-47.492468)"
   id="g6008-0"><g
   id="g1457-4-5-9"
   transform="translate(4.7156576,-0.41835947)"><path
     inkscape:connector-curvature="0"
     style="font-size:12px;fill:#ffffff;fill-rule:evenodd;stroke:#000600;stroke-width:1.06667"
     d="m 455.07904,746.74283 h -1.06667 l -28.2,-49.53334 c 7.86667,-4.8 17.33334,-6.8 27.13334,-7.06666 h 3.13333 c 10.06667,0.13333 19.33333,3.06666 27.33333,8 z"
     id="path1458-7-2-1"
     sodipodi:nodetypes="ccccccc" /><path
     inkscape:connector-curvature="0"
     style="font-size:12px;fill:#ffffff;fill-opacity:1;fill-rule:evenodd;stroke:#000600;stroke-width:1.06667"
     d="m 453.77131,745.912 -0.53334,0.92373 -56.25301,-0.30005 c -0.22368,-9.2128 2.0336,-18.45579 6.70272,-27.07616 l 1.56661,-2.7136 c 5.1488,-8.65131 12.32246,-15.20981 20.59488,-19.67136 z"
     id="path1459-2-9-9" /><path
     inkscape:connector-curvature="0"
     style="font-size:12px;fill:#999999;fill-rule:evenodd;stroke:#000600;stroke-width:1.06667"
     d="m 453.12939,747.07317 0.53333,0.92384 -28.38645,48.5664 c -8.09035,-4.41269 -14.9663,-10.98901 -20.09728,-19.34272 l -1.56672,-2.7136 c -4.91787,-8.78464 -7.01078,-18.27648 -6.73846,-27.67136 z"
     id="path1460-4-0-6" /><path
     inkscape:connector-curvature="0"
     style="font-size:12px;fill:#999999;fill-rule:evenodd;stroke:#000600;stroke-width:1.06667"
     d="m 453.72171,746.83573 h 1.06677 l 27.86645,48.86667 c -7.86666,4.8 -16.99989,7.46667 -26.79989,7.73333 h -3.13344 c -10.06667,-0.13333 -19.66656,-2.4 -27.66667,-7.33333 z"
     id="path1461-0-2-2"
     sodipodi:nodetypes="ccccccc" /><path
     inkscape:connector-curvature="0"
     style="font-size:12px;fill:#999999;fill-rule:evenodd;stroke:#000600;stroke-width:1.06667"
     d="m 453.55413,747.75957 0.53334,-0.92384 56.25301,0.30027 c 0.22357,9.2128 -2.0336,18.45568 -6.70272,27.07605 l -1.56672,2.71371 c -5.1488,8.65131 -12.32235,15.20971 -20.59488,19.67136 z"
     id="path1462-6-8-5" /><path
     inkscape:connector-curvature="0"
     style="font-size:12px;fill:#ffffff;fill-opacity:1;fill-rule:evenodd;stroke:#000600;stroke-width:1.06666"
     d="m 454.19616,746.59808 -0.53344,-0.92373 28.38656,-48.5664 c 8.09035,4.4128 14.96629,10.98901 20.09717,19.34272 l 1.56683,2.7137 c 4.91776,8.78464 7.01077,18.27627 6.73845,27.67136 z"
     id="path1463-2-3-4" /><circle
     style="font-size:12px;fill:#ffffff;fill-rule:evenodd;stroke:#000600;stroke-width:1.06667"
     id="path1464-9-8-4"
     cx="453.66281"
     cy="746.83575"
     r="37.79528" /></g><text
   style="font-style:normal;font-weight:bold;font-size:12.8px;line-height:0%;font-family:'Bitstream Vera Sans';writing-mode:lr-tb;text-anchor:start;fill:#000000;fill-opacity:1;stroke:none;stroke-width:1.06667"
   x="440.89093"
   y="765.00842"
   id="text1465-9-0-9"
   xml:space="default"><tspan
     x="440.89093"
     y="765.00842"
     sodipodi:role="line"
     id="tspan1466-0-4-9"
     style="font-size:51.2px;line-height:1;stroke-width:1.06667">3</tspan></text>
</g><g
   transform="matrix(0.225,0,0,0.225,-16.206001,-48.698636)"
   id="g6008-3"><g
   id="g1457-4-5-6"
   transform="translate(4.7156576,-0.41835947)"><path
     inkscape:connector-curvature="0"
     style="font-size:12px;fill:#ffffff;fill-rule:evenodd;stroke:#000600;stroke-width:1.06667"
     d="m 455.07904,746.74283 h -1.06667 l -28.2,-49.53334 c 7.86667,-4.8 17.33334,-6.8 27.13334,-7.06666 h 3.13333 c 10.06667,0.13333 19.33333,3.06666 27.33333,8 z"
     id="path1458-7-2-0"
     sodipodi:nodetypes="ccccccc" /><path
     inkscape:connector-curvature="0"
     style="font-size:12px;fill:#ffffff;fill-opacity:1;fill-rule:evenodd;stroke:#000600;stroke-width:1.06667"
     d="m 453.77131,745.912 -0.53334,0.92373 -56.25301,-0.30005 c -0.22368,-9.2128 2.0336,-18.45579 6.70272,-27.07616 l 1.56661,-2.7136 c 5.1488,-8.65131 12.32246,-15.20981 20.59488,-19.67136 z"
     id="path1459-2-9-5" /><path
     inkscape:connector-curvature="0"
     style="font-size:12px;fill:#999999;fill-rule:evenodd;stroke:#000600;stroke-width:1.06667"
     d="m 453.12939,747.07317 0.53333,0.92384 -28.38645,48.5664 c -8.09035,-4.41269 -14.9663,-10.98901 -20.09728,-19.34272 l -1.56672,-2.7136 c -4.91787,-8.78464 -7.01078,-18.27648 -6.73846,-27.67136 z"
     id="path1460-4-0-0" /><path
     inkscape:connector-curvature="0"
     style="font-size:12px;fill:#999999;fill-rule:evenodd;stroke:#000600;stroke-width:1.06667"
     d="m 453.72171,746.83573 h 1.06677 l 27.86645,48.86667 c -7.86666,4.8 -16.99989,7.46667 -26.79989,7.73333 h -3.13344 c -10.06667,-0.13333 -19.66656,-2.4 -27.66667,-7.33333 z"
     id="path1461-0-2-29"
     sodipodi:nodetypes="ccccccc" /><path
     inkscape:connector-curvature="0"
     style="font-size:12px;fill:#999999;fill-rule:evenodd;stroke:#000600;stroke-width:1.06667"
     d="m 453.55413,747.75957 0.53334,-0.92384 56.25301,0.30027 c 0.22357,9.2128 -2.0336,18.45568 -6.70272,27.07605 l -1.56672,2.71371 c -5.1488,8.65131 -12.32235,15.20971 -20.59488,19.67136 z"
     id="path1462-6-8-4" /><path
     inkscape:connector-curvature="0"
     style="font-size:12px;fill:#ffffff;fill-opacity:1;fill-rule:evenodd;stroke:#000600;stroke-width:1.06666"
     d="m 454.19616,746.59808 -0.53344,-0.92373 28.38656,-48.5664 c 8.09035,4.4128 14.96629,10.98901 20.09717,19.34272 l 1.56683,2.7137 c 4.91776,8.78464 7.01077,18.27627 6.73845,27.67136 z"
     id="path1463-2-3-3" /><circle
     style="font-size:12px;fill:#ffffff;fill-rule:evenodd;stroke:#000600;stroke-width:1.06667"
     id="path1464-9-8-5"
     cx="453.66281"
     cy="746.83575"
     r="37.79528" /></g><text
   style="font-style:normal;font-weight:bold;font-size:12.8px;line-height:0%;font-family:'Bitstream Vera Sans';writing-mode:lr-tb;text-anchor:start;fill:#000000;fill-opacity:1;stroke:none;stroke-width:1.06667"
   x="440.89093"
   y="765.00842"
   id="text1465-9-0-1"
   xml:space="default"><tspan
     x="440.89093"
     y="765.00842"
     sodipodi:role="line"
     id="tspan1466-0-4-7"
     style="font-size:51.2px;line-height:1;stroke-width:1.06667">3</tspan></text>
</g><g
   style="font-size:12px"
   transform="matrix(0.75000054,0,0,0.75000074,188.54218,-325.67009)"
   id="g1219-1-2"><rect
     y="669.15875"
     x="156.79929"
     height="15.11811"
     width="15.118096"
     id="rect1218-8-8"
     style="font-size:12px;fill:#ffffff;fill-rule:evenodd;stroke:#000000;stroke-width:0.853331" /><polygon
     d="m 155.90552,666.14173 -68.390443,-37.55691 -69.710064,35.04683 14.584934,-76.6489 -54.873114,-55.46814 77.40443,-9.81472 35.796616,-69.32803 33.253631,70.58307 76.99664,12.62107 -56.85255,53.43745 z"
     inkscape:randomized="0"
     inkscape:rounded="0"
     inkscape:flatsided="false"
     transform="matrix(0.05119999,0,0,0.05119999,159.78912,648.08384)"
     points="155.9055,666.1417 87.51508,628.5848 17.80502,663.6317 32.38995,586.9827 -22.48316,531.5146 54.92126,521.6999 90.71788,452.3719 123.9715,522.955 200.9681,535.576 144.1156,589.0134 155.9055,666.1417 "
     sodipodi:arg2="1.5889701"
     sodipodi:arg1="0.96065152"
     sodipodi:r2="58.747353"
     sodipodi:r1="117.49471"
     sodipodi:cy="569.84717"
     sodipodi:cx="88.58268"
     sodipodi:sides="5"
     id="polygon1217-9-8"
     style="font-size:12px;fill:#000000;fill-opacity:1;fill-rule:evenodd;stroke-width:1"
     sodipodi:type="star" /></g><ellipse
   style="fill:#ffffff;fill-opacity:1;fill-rule:evenodd;stroke:#000600;stroke-width:1pt;stroke-linecap:butt;stroke-linejoin:miter;stroke-opacity:1"
   id="path611-2-7-9"
   cx="190.86615"
   cy="149.74278"
   rx="5.669292"
   ry="5.6692891" /></svg>
