<?xml version="1.0" encoding="UTF-8" standalone="no"?>
<!-- Created with Inkscape (http://www.inkscape.org/) -->

<svg
   xmlns:dc="http://purl.org/dc/elements/1.1/"
   xmlns:cc="http://creativecommons.org/ns#"
   xmlns:rdf="http://www.w3.org/1999/02/22-rdf-syntax-ns#"
   xmlns:svg="http://www.w3.org/2000/svg"
   xmlns="http://www.w3.org/2000/svg"
   xmlns:xlink="http://www.w3.org/1999/xlink"
   xmlns:sodipodi="http://sodipodi.sourceforge.net/DTD/sodipodi-0.dtd"
   xmlns:inkscape="http://www.inkscape.org/namespaces/inkscape"
   width="105mm"
   height="148mm"
   id="svg1557"
   sodipodi:version="0.32"
   inkscape:version="0.92.3 (2405546, 2018-03-11)"
   sodipodi:docname="new-anglian-confederation.svg"
   version="1.1">
  <defs
     id="defs1559">
    <linearGradient
       gradientUnits="userSpaceOnUse"
       y2="288.20282"
       x2="-194.88188"
       y1="212.87576"
       x1="-194.88188"
       id="linearGradient4876"
       xlink:href="#linearGradient4751"
       inkscape:collect="always" />
    <linearGradient
       y2="241.39342"
       x2="-194.88188"
       y1="315.88159"
       x1="-194.88188"
       gradientUnits="userSpaceOnUse"
       id="linearGradient4832"
       xlink:href="#linearGradient612"
       inkscape:collect="always" />
    <linearGradient
       y2="241.39342"
       x2="-194.88188"
       y1="315.88159"
       x1="-194.88188"
       gradientUnits="userSpaceOnUse"
       id="linearGradient4830"
       xlink:href="#linearGradient612"
       inkscape:collect="always" />
    <linearGradient
       y2="241.39342"
       x2="-194.88188"
       y1="315.88159"
       x1="-194.88188"
       gradientUnits="userSpaceOnUse"
       id="linearGradient4828"
       xlink:href="#linearGradient612"
       inkscape:collect="always" />
    <linearGradient
       gradientUnits="userSpaceOnUse"
       y2="121.91096"
       x2="-170.45177"
       y1="208.69179"
       x1="-185.14128"
       id="linearGradient4803"
       xlink:href="#linearGradient4751"
       inkscape:collect="always" />
    <linearGradient
       gradientUnits="userSpaceOnUse"
       y2="173.5363"
       x2="-170.84909"
       y1="252.71829"
       x1="-183.00568"
       id="linearGradient4797"
       xlink:href="#linearGradient612"
       inkscape:collect="always" />
    <linearGradient
       y2="193.26682"
       x2="-283.87234"
       y1="180.10085"
       x1="-283.87234"
       gradientTransform="matrix(-1.194261,0,0,1.63723,-455.413,-74.02025)"
       gradientUnits="userSpaceOnUse"
       id="linearGradient4787"
       xlink:href="#linearGradient4751"
       inkscape:collect="always" />
    <linearGradient
       y2="193.26682"
       x2="-283.87234"
       y1="180.10085"
       x1="-283.87234"
       gradientTransform="matrix(-1.194261,0,0,1.63723,-443.2921,-95.28005)"
       gradientUnits="userSpaceOnUse"
       id="linearGradient4785"
       xlink:href="#linearGradient4751"
       inkscape:collect="always" />
    <linearGradient
       y2="193.26682"
       x2="-283.87234"
       y1="180.10085"
       x1="-283.87234"
       gradientTransform="matrix(-1.194261,0,0,1.63723,-432.0533,-116.762)"
       gradientUnits="userSpaceOnUse"
       id="linearGradient4783"
       xlink:href="#linearGradient4751"
       inkscape:collect="always" />
    <linearGradient
       y2="193.26682"
       x2="-283.87234"
       y1="180.10085"
       x1="-283.87234"
       gradientTransform="matrix(1.194261,0,0,1.63723,68.75401,-73.81049)"
       gradientUnits="userSpaceOnUse"
       id="linearGradient4775"
       xlink:href="#linearGradient4751"
       inkscape:collect="always" />
    <linearGradient
       y2="193.26682"
       x2="-283.87234"
       y1="180.10085"
       x1="-283.87234"
       gradientTransform="matrix(1.194261,0,0,1.63723,56.63319,-95.07033)"
       gradientUnits="userSpaceOnUse"
       id="linearGradient4771"
       xlink:href="#linearGradient4751"
       inkscape:collect="always" />
    <linearGradient
       gradientTransform="matrix(1.194261,0,0,1.63723,45.39431,-116.5522)"
       gradientUnits="userSpaceOnUse"
       y2="193.26682"
       x2="-283.87234"
       y1="180.10085"
       x1="-283.87234"
       id="linearGradient3872"
       xlink:href="#linearGradient4751"
       inkscape:collect="always" />
    <radialGradient
       id="radialGradient1028"
       xlink:href="#linearGradient612" />
    <linearGradient
       id="linearGradient615"
       xlink:href="#linearGradient612" />
    <linearGradient
       id="linearGradient612">
      <stop
         id="stop613"
         offset="0"
         style="stop-color:#1e1e1e;stop-opacity:1;" />
      <stop
         style="stop-color:#ffffff;stop-opacity:1;"
         offset="0.58823532"
         id="stop3874" />
      <stop
         id="stop3876"
         offset="0.79411769"
         style="stop-color:#dddddd;stop-opacity:1;" />
      <stop
         id="stop614"
         offset="1"
         style="stop-color:#000000;stop-opacity:1;" />
    </linearGradient>
    <linearGradient
       id="linearGradient4751">
      <stop
         style="stop-color:none"
         offset="0"
         id="stop4753" />
      <stop
         id="stop4755"
         offset="0.58823532"
         style="stop-color:#ffffff;stop-opacity:1;" />
      <stop
         style="stop-color:#dddddd;stop-opacity:1;"
         offset="0.79411769"
         id="stop4757" />
      <stop
         style="stop-color:#000000;stop-opacity:1;"
         offset="1"
         id="stop4759" />
    </linearGradient>
    <linearGradient
       id="linearGradient4791">
      <stop
         id="stop4793"
         offset="0"
         style="stop-color:#000000;stop-opacity:1;" />
      <stop
         style="stop-color:#000000;stop-opacity:0.49803922;"
         offset="0"
         id="stop4799" />
      <stop
         id="stop4795"
         offset="1"
         style="stop-color:#000000;stop-opacity:0;" />
    </linearGradient>
    <linearGradient
       id="linearGradient4860">
      <stop
         style="stop-color:#1e1e1e;stop-opacity:1;"
         offset="0"
         id="stop4862" />
      <stop
         id="stop4864"
         offset="0.58823532"
         style="stop-color:#ffffff;stop-opacity:1;" />
      <stop
         style="stop-color:#dddddd;stop-opacity:1;"
         offset="0.79411769"
         id="stop4866" />
      <stop
         style="stop-color:#410000;stop-opacity:1"
         offset="1"
         id="stop4868" />
    </linearGradient>
  </defs>
  <sodipodi:namedview
     id="base"
     pagecolor="#ffffff"
     bordercolor="#666666"
     borderopacity="1.0"
     inkscape:pageopacity="0.0"
     inkscape:pageshadow="2"
     inkscape:zoom="1.4142136"
     inkscape:cx="273.88368"
     inkscape:cy="116.6376"
     inkscape:document-units="px"
     inkscape:current-layer="layer1"
     inkscape:window-width="2560"
     inkscape:window-height="1329"
     inkscape:window-x="1680"
     inkscape:window-y="0"
     showgrid="true"
     inkscape:window-maximized="1"
     units="mm"
     inkscape:snap-grids="true">
    <inkscape:grid
       type="xygrid"
       id="grid948"
       units="mm"
       spacingx="11.338583"
       spacingy="11.338583"
       empspacing="3" />
  </sodipodi:namedview>
  <metadata
     id="metadata1562">
    <rdf:RDF>
      <cc:Work
         rdf:about="">
        <dc:format>image/svg+xml</dc:format>
        <dc:type
           rdf:resource="http://purl.org/dc/dcmitype/StillImage" />
        <dc:title></dc:title>
      </cc:Work>
    </rdf:RDF>
  </metadata>
  <g
     inkscape:label="Layer 1"
     inkscape:groupmode="layer"
     id="layer1"
     transform="translate(0,-492.99211)">
    <g
       id="g970">
      <path
         sodipodi:nodetypes="ccccccccc"
         inkscape:connector-curvature="0"
         id="path946"
         d="M 60.944883,825.59053 150.23622,644.1732 h 99.2126 l 89.29134,181.41733 -39.68504,45.35433 -29.76378,-45.35433 H 130.3937 l -29.76378,45.35433 z"
         style="fill:#0000ff;stroke:#0000ff;stroke-width:0.99999994px;stroke-linecap:butt;stroke-linejoin:miter;stroke-opacity:1" />
      <path
         sodipodi:nodetypes="ccccc"
         inkscape:connector-curvature="0"
         id="path950"
         d="m 189.92126,655.51178 h 19.84252 l 19.84252,148.74017 h -59.52755 z"
         style="fill:#ff0000;stroke:#ff0000;stroke-width:0.99999994px;stroke-linecap:butt;stroke-linejoin:miter;stroke-opacity:1" />
      <path
         sodipodi:nodetypes="ccccc"
         inkscape:connector-curvature="0"
         id="path952"
         d="m 219.68504,655.51178 h 19.84252 l 59.52756,124.72442 -49.6063,24.01575 z"
         style="fill:#ffffff;stroke:#ffffff;stroke-width:0.99999994px;stroke-linecap:butt;stroke-linejoin:miter;stroke-opacity:1" />
      <path
         sodipodi:nodetypes="ccccc"
         inkscape:connector-curvature="0"
         id="path954"
         d="m 180,655.51178 h -19.84252 l -59.52756,124.72442 49.6063,24.01575 z"
         style="fill:#ffffff;stroke:#ffffff;stroke-width:0.99999994px;stroke-linecap:butt;stroke-linejoin:miter;stroke-opacity:1" />
    </g>
  </g>
</svg>
