<?xml version="1.0" encoding="UTF-8" standalone="no"?>
<!-- Created with Sodipodi ("http://www.sodipodi.com/") -->

<svg
   id="svg1290"
   sodipodi:version="0.32"
   width="210pt"
   height="169pt"
   xml:space="preserve"
   sodipodi:docname="098_duquesne.svg"
   inkscape:version="1.1.2 (0a00cf5339, 2022-02-04)"
   version="1.0"
   inkscape:export-filename="/home/sam/rpg/gzg/trunk/fullthrust/fse/new/designs/duquesne.png"
   inkscape:export-xdpi="90"
   inkscape:export-ydpi="90"
   xmlns:inkscape="http://www.inkscape.org/namespaces/inkscape"
   xmlns:sodipodi="http://sodipodi.sourceforge.net/DTD/sodipodi-0.dtd"
   xmlns="http://www.w3.org/2000/svg"
   xmlns:svg="http://www.w3.org/2000/svg"
   xmlns:rdf="http://www.w3.org/1999/02/22-rdf-syntax-ns#"
   xmlns:cc="http://creativecommons.org/ns#"
   xmlns:dc="http://purl.org/dc/elements/1.1/"><metadata
   id="metadata71"><rdf:RDF><cc:Work
       rdf:about=""><dc:format>image/svg+xml</dc:format><dc:type
         rdf:resource="http://purl.org/dc/dcmitype/StillImage" /><dc:creator><cc:Agent><dc:title>Samuel Penn</dc:title></cc:Agent></dc:creator><dc:rights><cc:Agent><dc:title /></cc:Agent></dc:rights><dc:publisher><cc:Agent><dc:title>http://www.glendale.org.uk/ft</dc:title></cc:Agent></dc:publisher><dc:subject><rdf:Bag><rdf:li>fullthrust</rdf:li></rdf:Bag></dc:subject><cc:license
         rdf:resource="http://www.glendale.org.uk/bsd.txt" /><dc:description>A short range patrol vessel designed for anti-pirate and escort duty.</dc:description></cc:Work></rdf:RDF></metadata><defs
   id="defs1292"><inkscape:perspective
     sodipodi:type="inkscape:persp3d"
     inkscape:vp_x="0 : 112.66667 : 1"
     inkscape:vp_y="0 : 1066.6667 : 0"
     inkscape:vp_z="280 : 112.66667 : 1"
     inkscape:persp3d-origin="140 : 75.111111 : 1"
     id="perspective15577" /></defs><sodipodi:namedview
   id="base"
   inkscape:zoom="4.264909"
   inkscape:cx="150.88247"
   inkscape:cy="104.8088"
   inkscape:window-width="2560"
   inkscape:window-height="1355"
   inkscape:window-x="1200"
   inkscape:window-y="240"
   inkscape:current-layer="svg1290"
   showgrid="true"
   inkscape:grid-points="true"
   gridtolerance="1mm"
   showborder="true"
   pagecolor="#ffffff"
   inkscape:pageopacity="0"
   inkscape:window-maximized="1"
   guidetolerance="20"
   bordercolor="#666666"
   borderopacity="1.0"
   inkscape:pageshadow="2"
   inkscape:pagecheckerboard="0"
   inkscape:document-units="pt"><inkscape:grid
     id="GridFromPre046Settings"
     type="xygrid"
     originx="0"
     originy="0"
     spacingx="20.15748"
     spacingy="20.15748"
     color="#0000ff"
     empcolor="#0000ff"
     opacity="0.2"
     empopacity="0.4"
     empspacing="10" /></sodipodi:namedview><rect
   y="6.5071993"
   x="5.3461099"
   height="217.53778"
   width="292.82352"
   id="rect1157"
   style="font-size:12px;fill:#e6e6e6;fill-rule:evenodd;stroke:#000000;stroke-width:1.12797" /><g
   style="font-size:12px"
   transform="matrix(0.981372,0,0,1,122.32306,-365.06535)"
   id="g1130"><path
     inkscape:connector-curvature="0"
     sodipodi:nodetypes="ccccccccc"
     id="path1129"
     d="m 102.04724,557.85941 h 68.03148 l 3.77952,3.77942 v 18.8977 l -3.77952,3.77952 h -68.03148 l -3.779528,-3.77952 v -18.8977 z"
     style="font-size:12px;fill:#ffffff;fill-opacity:1;fill-rule:evenodd;stroke:#000000;stroke-width:0.533333;stroke-dasharray:none" /><g
     transform="matrix(0.500002,0,0,0.500002,84.094144,321.44832)"
     id="g1088"><rect
       y="480.37891"
       x="35.905518"
       height="37.795273"
       width="37.795269"
       id="rect1089"
       style="font-size:12px;fill:#000000;fill-opacity:1;fill-rule:evenodd;stroke-width:1.06667" /><g
       transform="matrix(0.875,0,0,0.875003,5.1968597,60.754624)"
       id="g1090"><ellipse
         id="path1095"
         style="fill:none;stroke:#ffffff;stroke-width:3.33336;stroke-linecap:butt;stroke-linejoin:miter;stroke-dasharray:none;stroke-opacity:1"
         cx="56.692928"
         cy="493.60724"
         rx="7.5590572"
         ry="7.5592694" /><path
         inkscape:connector-curvature="0"
         sodipodi:nodetypes="cc"
         id="path1096"
         d="M 41.574795,501.16629 H 71.811019"
         style="font-size:12px;fill:none;stroke:#ffffff;stroke-width:3.33333;stroke-dasharray:none" /><path
         inkscape:connector-curvature="0"
         sodipodi:nodetypes="cc"
         id="path1097"
         d="M 41.574795,508.72533 H 71.811019"
         style="font-size:12px;fill:none;stroke:#ffffff;stroke-width:3.33333;stroke-dasharray:none" /><path
         inkscape:connector-curvature="0"
         sodipodi:nodetypes="cc"
         id="path1100"
         d="M 41.574795,516.28448 H 71.811019"
         style="font-size:12px;fill:none;stroke:#ffffff;stroke-width:3.33333" /></g></g><g
     transform="matrix(0.500002,0,0,0.500002,83.149259,320.50347)"
     id="g1101"><rect
       y="482.26874"
       x="86.929123"
       height="37.795307"
       width="37.795269"
       id="rect1102"
       style="font-size:12px;fill:#000000;fill-opacity:1;fill-rule:evenodd;stroke-width:1.06667" /><g
       transform="matrix(0.818182,0,0,0.818191,14.602688,89.570251)"
       id="g1103"><ellipse
         id="path1107"
         style="fill:none;stroke:#ffffff;stroke-width:1.06667pt;stroke-linecap:butt;stroke-linejoin:miter;stroke-opacity:1"
         cx="111.49606"
         cy="503.05618"
         rx="20.787403"
         ry="20.787386" /><g
         transform="translate(3.7795296,0.6401696)"
         id="g1110"><path
           inkscape:connector-curvature="0"
           sodipodi:nodetypes="cccccc"
           id="path1112"
           d="m 107.11899,520.06411 4.37706,-19.82848 11.33856,-3.77952 H 92.598453 l 11.338577,3.77952 z"
           style="font-size:12px;fill:#ffffff;fill-rule:evenodd;stroke:#ffffff;stroke-width:1.06667" /><ellipse
           id="path1113"
           style="fill:#ffffff;fill-opacity:1;fill-rule:evenodd;stroke:none;stroke-width:1.06667"
           cx="107.71653"
           cy="490.43716"
           rx="5.669291"
           ry="5.6692872" /></g></g></g><g
     transform="matrix(0.500002,0,0,0.500002,75.590176,320.50347)"
     id="g1114"><rect
       y="482.26883"
       x="151.18109"
       height="37.79528"
       width="37.79528"
       id="rect1115"
       style="font-size:12px;fill-rule:evenodd;stroke-width:1.06667" /><g
       id="g1116"><ellipse
         id="path1119"
         style="font-size:12px;fill:#ffffff;fill-rule:evenodd;stroke-width:0.768"
         cx="170.07872"
         cy="501.16626"
         rx="2.7212579"
         ry="2.721246" /><ellipse
         transform="rotate(-39.999953)"
         id="path1120"
         style="font-size:12px;fill:none;stroke:#fffffc;stroke-width:0.66671;stroke-dasharray:none"
         cx="-191.85551"
         cy="493.24081"
         rx="3.7795329"
         ry="15.118167" /><ellipse
         transform="rotate(-114.99993)"
         id="path1121"
         style="font-size:12px;fill:none;stroke:#fffffc;stroke-width:0.66671;stroke-dasharray:none"
         cx="-526.08997"
         cy="-57.656097"
         rx="3.7795315"
         ry="15.118182" /><ellipse
         transform="rotate(-164.99988)"
         id="path1124"
         style="font-size:12px;fill:none;stroke:#fffffc;stroke-width:0.66671;stroke-dasharray:none"
         cx="-293.99738"
         cy="-440.06842"
         rx="3.7795317"
         ry="15.118178" /><ellipse
         id="path1125"
         style="font-size:12px;fill:#ffffff;fill-rule:evenodd;stroke-width:0.261995"
         cx="158.32397"
         cy="508.30655"
         rx="0.92832685"
         ry="0.92832285" /><ellipse
         id="path1126"
         style="font-size:12px;fill:#ffffff;fill-rule:evenodd;stroke-width:0.261995"
         cx="160.18028"
         cy="492.04745"
         rx="0.92832685"
         ry="0.92832285" /><ellipse
         id="path1127"
         style="font-size:12px;fill:#ffffff;fill-rule:evenodd;stroke-width:0.261995"
         cx="175.28706"
         cy="488.3989"
         rx="0.92832685"
         ry="0.92832285" /></g></g></g><rect
   y="25.965826"
   x="11.695587"
   height="17.887962"
   width="170.93326"
   id="namebox"
   style="font-size:12px;fill:#ffffff;fill-rule:evenodd;stroke:#000000;stroke-width:1.06667"
   inkscape:label="#rect1156"
   ry="6.0264225" /><text
   transform="scale(0.9906422,1.0094462)"
   xml:space="default"
   id="text1158"
   y="21.539249"
   x="12.526248"
   style="font-weight:bold;font-size:12.8px;line-height:0%;font-family:'Bitstream Vera Sans';stroke-width:1.06667"><tspan
     id="tspan1161"
     sodipodi:role="line"
     y="21.539249"
     x="12.526248"
     style="font-size:12.6802px;line-height:1;stroke-width:1.06667">Duquesne Battlecruiser</tspan></text>
<rect
   y="93.222969"
   x="11.824801"
   height="15.11811"
   width="14.836475"
   id="rect1016"
   style="font-size:12px;fill:#ffffff;fill-rule:evenodd;stroke:#000000;stroke-width:0.845346" /><g
   style="font-size:12px"
   transform="matrix(0.981372,0,0,1,-67.722449,-594.44341)"
   id="g1219"><rect
     y="669.15875"
     x="156.79929"
     height="15.11811"
     width="15.118096"
     id="rect1218"
     style="font-size:12px;fill:#ffffff;fill-rule:evenodd;stroke:#000000;stroke-width:0.853331" /></g><rect
   style="color:#000000;display:inline;overflow:visible;visibility:visible;fill:#ffffff;fill-opacity:1;fill-rule:evenodd;stroke:#000000;stroke-width:0.926705;stroke-linecap:round;stroke-linejoin:round;stroke-miterlimit:4;stroke-dasharray:none;stroke-dashoffset:0;stroke-opacity:1;marker:none"
   id="rect2371"
   width="32.439255"
   height="13.348424"
   x="255.10971"
   y="21.926628" /><rect
   style="color:#000000;display:inline;overflow:visible;visibility:visible;fill:#ffffff;fill-opacity:1;fill-rule:evenodd;stroke:#000000;stroke-width:0.926705;stroke-linecap:round;stroke-linejoin:round;stroke-miterlimit:4;stroke-dasharray:none;stroke-dashoffset:0;stroke-opacity:1;marker:none"
   id="rect3246"
   width="32.439255"
   height="13.348424"
   x="255.10971"
   y="47.039261" /><text
   xml:space="preserve"
   style="font-style:oblique;font-variant:normal;font-weight:normal;font-stretch:normal;font-size:12.8px;line-height:0%;font-family:'Bitstream Vera Sans';text-align:start;writing-mode:lr-tb;text-anchor:start;fill:#000000;fill-opacity:1;stroke:none;stroke-width:1.06667"
   x="255.10971"
   y="19.592651"
   id="text3248"><tspan
     sodipodi:role="line"
     id="tspan3250"
     x="255.10971"
     y="19.592651"
     style="font-size:8.53333px;line-height:1;stroke-width:1.06667">Mass</tspan></text>
<text
   xml:space="preserve"
   style="font-style:oblique;font-variant:normal;font-weight:normal;font-stretch:normal;font-size:12.8px;line-height:0%;font-family:'Bitstream Vera Sans';text-align:start;writing-mode:lr-tb;text-anchor:start;fill:#000000;fill-opacity:1;stroke:none;stroke-width:1.06667"
   x="255.10971"
   y="44.973621"
   id="text3252"><tspan
     sodipodi:role="line"
     id="tspan3254"
     x="255.10971"
     y="44.973621"
     style="font-size:8.53333px;line-height:1;stroke-width:1.06667">Points</tspan></text>
<text
   xml:space="preserve"
   style="font-style:normal;font-variant:normal;font-weight:normal;font-stretch:normal;font-size:12.8px;line-height:0%;font-family:'Bitstream Vera Sans';text-align:start;writing-mode:lr-tb;text-anchor:start;fill:#000000;fill-opacity:1;stroke:none;stroke-width:1.06667"
   x="266.71414"
   y="32.578465"
   id="text3256"><tspan
     sodipodi:role="line"
     id="tspan3258"
     x="266.71414"
     y="32.578465"
     style="font-size:10.6667px;line-height:1;stroke-width:1.06667">98</tspan></text>
<text
   xml:space="preserve"
   style="font-style:normal;font-variant:normal;font-weight:normal;font-stretch:normal;font-size:12.8px;line-height:0%;font-family:'Bitstream Vera Sans';text-align:start;writing-mode:lr-tb;text-anchor:start;fill:#000000;fill-opacity:1;stroke:none;stroke-width:1.06667"
   x="260.61649"
   y="57.573738"
   id="text3260"><tspan
     sodipodi:role="line"
     id="tspan3262"
     x="260.61649"
     y="57.573738"
     style="font-size:10.6667px;line-height:1;stroke-width:1.06667">324</tspan></text>
<g
   id="g4503"
   transform="translate(-8.003297,37.515455)"><path
   inkscape:connector-curvature="0"
   style="fill:#ffffff;fill-opacity:1;fill-rule:evenodd;stroke:#000000;stroke-width:0.533333pt;stroke-linecap:butt;stroke-linejoin:miter;stroke-opacity:1"
   d="m 18.897638,161.64717 v 18.8976 h 37.795243 v -18.8976 l -18.8976,-9.44886 z"
   id="path964"
   sodipodi:nodetypes="cccccc" /><text
   style="font-style:normal;font-variant:normal;font-weight:bold;font-stretch:normal;font-size:12.8px;line-height:0%;font-family:'Bitstream Vera Sans';text-align:start;writing-mode:lr-tb;text-anchor:start;fill:#000000;fill-opacity:1;stroke:none;stroke-width:1.06667"
   x="30.383799"
   y="174.14757"
   id="text934"
   xml:space="default"><tspan
     x="30.383799"
     y="174.14757"
     sodipodi:role="line"
     id="tspan950"
     style="font-size:21.3333px;line-height:1;stroke-width:1.06667">6</tspan></text>
</g><g
   id="g2435"
   transform="matrix(0.674582,0,0,0.674582,15.696276,-50.827126)"><g
   transform="matrix(0.75,0,0,0.75,47.744096,-63.284768)"
   id="g2347"><rect
     y="576.75702"
     x="37.795277"
     height="37.795246"
     width="37.795277"
     id="rect2349"
     style="font-size:12px;fill:#feffff;fill-opacity:1;fill-rule:evenodd;stroke:#000000;stroke-width:1.06667;stroke-opacity:1" /><path
     inkscape:connector-curvature="0"
     sodipodi:nodetypes="csss"
     id="path2351"
     d="m 37.795275,603.21365 c 0,-7.55904 3.77953,-18.8976 11.338581,-18.8976 7.559051,0 7.559051,22.67723 15.118112,22.67723 7.559051,0 11.338581,-11.33867 11.338581,-18.89771"
     style="fill:none;stroke:#000000;stroke-width:1.06667pt;stroke-linecap:butt;stroke-linejoin:miter;stroke-opacity:1" /></g><text
   id="text2357"
   y="383.77768"
   x="91.864304"
   style="font-style:normal;font-variant:normal;font-weight:bold;font-stretch:normal;font-size:12.8px;line-height:0%;font-family:'Bitstream Vera Sans';text-align:start;writing-mode:lr-tb;text-anchor:start;fill:#000000;fill-opacity:1;stroke:none;stroke-width:1.06667"
   xml:space="preserve"><tspan
     y="383.77768"
     x="91.864304"
     id="tspan2359"
     sodipodi:role="line"
     style="font-size:15.7809px;line-height:1;stroke-width:1.06667">2</tspan></text>
</g><rect
   y="55.567608"
   x="11.824801"
   height="15.11811"
   width="14.836475"
   id="rect1016-5"
   style="font-size:12px;fill:#ffffff;fill-rule:evenodd;stroke:#000000;stroke-width:0.845346" /><rect
   y="55.567608"
   x="30.383013"
   height="15.11811"
   width="14.836475"
   id="rect1016-5-8"
   style="font-size:12px;fill:#ffffff;fill-rule:evenodd;stroke:#000000;stroke-width:0.845346" /><g
   id="g1495"
   transform="matrix(0.5,0,0,0.5,-72.372794,-64.155814)"><rect
     style="font-size:12px;fill:#ffffff;fill-rule:evenodd;stroke:#000000;stroke-width:1.33333;stroke-dasharray:none"
     id="rect1489"
     width="37.795246"
     height="37.795235"
     x="377.95276"
     y="520.06421" /><ellipse
     style="fill:#000000;fill-opacity:1;fill-rule:evenodd;stroke:#000600;stroke-width:1.06667pt;stroke-linecap:butt;stroke-linejoin:miter;stroke-opacity:1"
     id="path1490"
     cx="396.85043"
     cy="538.96179"
     rx="9.4488182"
     ry="9.4488115" /></g><rect
   y="111.9475"
   x="30.383013"
   height="15.11811"
   width="14.836475"
   id="rect1016-5-8-9"
   style="font-size:12px;fill:#ffffff;fill-rule:evenodd;stroke:#000000;stroke-width:0.845346" /><rect
   y="111.9475"
   x="86.035423"
   height="15.11811"
   width="14.836475"
   id="rect1016-2-6-8"
   style="font-size:12px;fill:#ffffff;fill-rule:evenodd;stroke:#000000;stroke-width:0.845346" /><rect
   y="55.567608"
   x="48.15958"
   height="15.11811"
   width="14.836475"
   id="rect1016-5-81"
   style="font-size:12px;fill:#ffffff;fill-rule:evenodd;stroke:#000000;stroke-width:0.845346" /><rect
   y="74.71534"
   x="30.383013"
   height="15.11811"
   width="14.836475"
   id="rect1016-2-0"
   style="font-size:12px;fill:#ffffff;fill-rule:evenodd;stroke:#000000;stroke-width:0.845346" /><g
   style="font-size:12px"
   transform="matrix(0.981372,0,0,1,-142.05363,-594.44341)"
   id="g1219-3"><rect
     y="669.15875"
     x="156.79929"
     height="15.11811"
     width="15.118096"
     id="rect1218-0"
     style="font-size:12px;fill:#ffffff;fill-rule:evenodd;stroke:#000000;stroke-width:0.853331" /></g><rect
   y="93.222969"
   x="48.15958"
   height="15.11811"
   width="14.836475"
   id="rect1016-2-0-4"
   style="font-size:12px;fill:#ffffff;fill-rule:evenodd;stroke:#000000;stroke-width:0.845346" /><rect
   y="55.567608"
   x="67.05722"
   height="15.11811"
   width="14.836475"
   id="rect1016-5-5"
   style="font-size:12px;fill:#ffffff;fill-rule:evenodd;stroke:#000000;stroke-width:0.845346" /><rect
   y="74.965439"
   x="48.299492"
   height="15.11811"
   width="14.836475"
   id="rect1016-2-8"
   style="font-size:12px;fill:#ffffff;fill-rule:evenodd;stroke:#000000;stroke-width:0.845346" /><rect
   y="93.222969"
   x="67.05722"
   height="15.11811"
   width="14.836475"
   id="rect1016-5-81-6"
   style="font-size:12px;fill:#ffffff;fill-rule:evenodd;stroke:#000000;stroke-width:0.845346" /><g
   style="font-size:12px"
   transform="matrix(0.981372,0,0,1,-86.821216,-557.21125)"
   id="g1219-3-2"><rect
     y="669.15875"
     x="156.79929"
     height="15.11811"
     width="15.118096"
     id="rect1218-0-5"
     style="font-size:12px;fill:#ffffff;fill-rule:evenodd;stroke:#000000;stroke-width:0.853331" /></g><rect
   y="111.9475"
   x="48.15958"
   height="15.11811"
   width="14.836475"
   id="rect1016-2-0-4-5"
   style="font-size:12px;fill:#ffffff;fill-rule:evenodd;stroke:#000000;stroke-width:0.845346" /><g
   id="g1360"
   transform="matrix(0.225,0,0,0.225,201.05562,65.23674)"><g
   id="g1361"
   transform="translate(-50.838315,-170.26752)"
   style="fill:#ffffff;fill-opacity:1"><path
     inkscape:connector-curvature="0"
     style="font-size:12px;fill:#ffffff;fill-opacity:1;fill-rule:evenodd;stroke:#000600;stroke-width:1.06667"
     d="m 133.58027,671.1523 h -1.06667 l -28.2,-49.53333 c 7.86667,-4.8 17.33333,-6.8 27.13333,-7.06667 h 3.13334 c 10.06666,0.13333 19.33333,3.06667 27.33333,8 z"
     id="path1362"
     sodipodi:nodetypes="ccccccc" /><path
     inkscape:connector-curvature="0"
     style="font-size:12px;fill:#ffffff;fill-opacity:1;fill-rule:evenodd;stroke:#000600;stroke-width:1.06667"
     d="m 132.27253,670.32147 -0.53333,0.92374 -56.253013,-0.30006 c -0.22368,-9.2128 2.0336,-18.45578 6.70272,-27.07616 l 1.566613,-2.7136 c 5.1488,-8.6513 12.322453,-15.20981 20.59488,-19.67136 z"
     id="path1363" /><path
     inkscape:connector-curvature="0"
     style="font-size:12px;fill:#ffffff;fill-opacity:1;fill-rule:evenodd;stroke:#000600;stroke-width:1.06667"
     d="m 131.63061,671.48265 0.53334,0.92384 -28.38646,48.5664 C 95.687147,716.56019 88.8112,709.98387 83.680213,701.63017 l -1.56672,-2.7136 C 77.195627,690.13193 75.10272,680.64009 75.37504,671.24521 Z"
     id="path1364" /><path
     inkscape:connector-curvature="0"
     style="font-size:12px;fill:#ffffff;fill-opacity:1;fill-rule:evenodd;stroke:#000600;stroke-width:1.06667"
     d="m 132.22293,671.24521 h 1.06678 l 27.86645,48.86666 c -7.86667,4.8 -16.99989,7.46667 -26.79989,7.73334 h -3.13344 c -10.06667,-0.13334 -19.66656,-2.4 -27.66667,-7.33334 z"
     id="path1365"
     sodipodi:nodetypes="ccccccc" /><path
     inkscape:connector-curvature="0"
     style="font-size:12px;fill:#ffffff;fill-opacity:1;fill-rule:evenodd;stroke:#000600;stroke-width:1.06667"
     d="m 132.05536,672.16905 0.53333,-0.92384 56.25302,0.30026 c 0.22357,9.2128 -2.0336,18.45568 -6.70272,27.07606 l -1.56672,2.7137 c -5.1488,8.65131 -12.32235,15.20971 -20.59488,19.67136 z"
     id="path1366" /><path
     inkscape:connector-curvature="0"
     style="font-size:12px;fill:#ffffff;fill-opacity:1;fill-rule:evenodd;stroke:#000600;stroke-width:1.06666"
     d="m 132.69739,671.00755 -0.53344,-0.92373 28.38656,-48.5664 c 8.09034,4.4128 14.96629,10.98901 20.09717,19.34272 l 1.56683,2.71371 c 4.91776,8.78464 7.01077,18.27626 6.73845,27.67136 z"
     id="path1367" /><circle
     style="font-size:12px;fill:#ffffff;fill-opacity:1;fill-rule:evenodd;stroke:#000600;stroke-width:1.06667"
     id="path1368"
     cx="132.16405"
     cy="671.24524"
     r="37.79528" /></g><text
   style="font-style:normal;font-weight:bold;font-size:12.8px;line-height:0%;font-family:'Bitstream Vera Sans';writing-mode:lr-tb;text-anchor:start;fill:#000000;fill-opacity:1;stroke:none;stroke-width:1.06667"
   x="62.388191"
   y="519.59375"
   id="text1369"
   xml:space="default"><tspan
     x="62.388191"
     y="519.59375"
     sodipodi:role="line"
     id="tspan1370"
     style="font-size:51.2px;line-height:1;stroke-width:1.06667">1</tspan></text>
</g><g
   id="g1360-5"
   transform="matrix(0.225,0,0,0.225,163.12573,56.233031)"><g
   id="g1361-2"
   transform="translate(-50.838315,-170.26752)"
   style="fill:#ffffff;fill-opacity:1"><path
     inkscape:connector-curvature="0"
     style="font-size:12px;fill:#ffffff;fill-opacity:1;fill-rule:evenodd;stroke:#000600;stroke-width:1.06667"
     d="m 133.58027,671.1523 h -1.06667 l -28.2,-49.53333 c 7.86667,-4.8 17.33333,-6.8 27.13333,-7.06667 h 3.13334 c 10.06666,0.13333 19.33333,3.06667 27.33333,8 z"
     id="path1362-9"
     sodipodi:nodetypes="ccccccc" /><path
     inkscape:connector-curvature="0"
     style="font-size:12px;fill:#ffffff;fill-opacity:1;fill-rule:evenodd;stroke:#000600;stroke-width:1.06667"
     d="m 132.27253,670.32147 -0.53333,0.92374 -56.253013,-0.30006 c -0.22368,-9.2128 2.0336,-18.45578 6.70272,-27.07616 l 1.566613,-2.7136 c 5.1488,-8.6513 12.322453,-15.20981 20.59488,-19.67136 z"
     id="path1363-2" /><path
     inkscape:connector-curvature="0"
     style="font-size:12px;fill:#ffffff;fill-opacity:1;fill-rule:evenodd;stroke:#000600;stroke-width:1.06667"
     d="m 131.63061,671.48265 0.53334,0.92384 -28.38646,48.5664 C 95.687147,716.56019 88.8112,709.98387 83.680213,701.63017 l -1.56672,-2.7136 C 77.195627,690.13193 75.10272,680.64009 75.37504,671.24521 Z"
     id="path1364-0" /><path
     inkscape:connector-curvature="0"
     style="font-size:12px;fill:#ffffff;fill-opacity:1;fill-rule:evenodd;stroke:#000600;stroke-width:1.06667"
     d="m 132.22293,671.24521 h 1.06678 l 27.86645,48.86666 c -7.86667,4.8 -16.99989,7.46667 -26.79989,7.73334 h -3.13344 c -10.06667,-0.13334 -19.66656,-2.4 -27.66667,-7.33334 z"
     id="path1365-1"
     sodipodi:nodetypes="ccccccc" /><path
     inkscape:connector-curvature="0"
     style="font-size:12px;fill:#ffffff;fill-opacity:1;fill-rule:evenodd;stroke:#000600;stroke-width:1.06667"
     d="m 132.05536,672.16905 0.53333,-0.92384 56.25302,0.30026 c 0.22357,9.2128 -2.0336,18.45568 -6.70272,27.07606 l -1.56672,2.7137 c -5.1488,8.65131 -12.32235,15.20971 -20.59488,19.67136 z"
     id="path1366-1" /><path
     inkscape:connector-curvature="0"
     style="font-size:12px;fill:#ffffff;fill-opacity:1;fill-rule:evenodd;stroke:#000600;stroke-width:1.06666"
     d="m 132.69739,671.00755 -0.53344,-0.92373 28.38656,-48.5664 c 8.09034,4.4128 14.96629,10.98901 20.09717,19.34272 l 1.56683,2.71371 c 4.91776,8.78464 7.01077,18.27626 6.73845,27.67136 z"
     id="path1367-8" /><circle
     style="font-size:12px;fill:#ffffff;fill-opacity:1;fill-rule:evenodd;stroke:#000600;stroke-width:1.06667"
     id="path1368-9"
     cx="132.16405"
     cy="671.24524"
     r="37.79528" /></g><text
   style="font-style:normal;font-weight:bold;font-size:12.8px;line-height:0%;font-family:'Bitstream Vera Sans';writing-mode:lr-tb;text-anchor:start;fill:#000000;fill-opacity:1;stroke:none;stroke-width:1.06667"
   x="62.388191"
   y="519.59375"
   id="text1369-1"
   xml:space="default"><tspan
     x="62.388191"
     y="519.59375"
     sodipodi:role="line"
     id="tspan1370-9"
     style="font-size:51.2px;line-height:1;stroke-width:1.06667">1</tspan></text>
</g><g
   id="g1408"
   transform="matrix(0.225,0,0,0.225,159.0223,-28.425475)"><g
   id="g1409"
   transform="matrix(0.499998,0.866024,-0.866024,0.499998,968.65685,202.36224)"><path
     inkscape:connector-curvature="0"
     style="font-size:12px;fill:#ffffff;fill-rule:evenodd;stroke:#000600;stroke-width:1.06667"
     d="m 133.58027,671.1523 h -1.06667 l -28.2,-49.53333 c 7.86667,-4.8 17.33333,-6.8 27.13333,-7.06667 h 3.13334 c 10.06666,0.13333 19.33333,3.06667 27.33333,8 z"
     id="path1410"
     sodipodi:nodetypes="ccccccc" /><path
     inkscape:connector-curvature="0"
     style="font-size:12px;fill:#ffffff;fill-rule:evenodd;stroke:#000600;stroke-width:1.06667"
     d="m 132.27253,670.32147 -0.53333,0.92374 -56.253013,-0.30006 c -0.22368,-9.2128 2.0336,-18.45578 6.70272,-27.07616 l 1.566613,-2.7136 c 5.1488,-8.6513 12.322453,-15.20981 20.59488,-19.67136 z"
     id="path1411" /><path
     inkscape:connector-curvature="0"
     style="font-size:12px;fill:#999999;fill-rule:evenodd;stroke:#000600;stroke-width:1.06667"
     d="m 131.63061,671.48265 0.53334,0.92384 -28.38646,48.5664 C 95.687147,716.56019 88.8112,709.98387 83.680213,701.63017 l -1.56672,-2.7136 C 77.195627,690.13193 75.10272,680.64009 75.37504,671.24521 Z"
     id="path1412" /><path
     inkscape:connector-curvature="0"
     style="font-size:12px;fill:#999999;fill-rule:evenodd;stroke:#000600;stroke-width:1.06667"
     d="m 132.22293,671.24521 h 1.06678 l 27.86645,48.86666 c -7.86667,4.8 -16.99989,7.46667 -26.79989,7.73334 h -3.13344 c -10.06667,-0.13334 -19.66656,-2.4 -27.66667,-7.33334 z"
     id="path1413"
     sodipodi:nodetypes="ccccccc" /><path
     inkscape:connector-curvature="0"
     style="font-size:12px;fill:#999999;fill-rule:evenodd;stroke:#000600;stroke-width:1.06667"
     d="m 132.05536,672.16905 0.53333,-0.92384 56.25302,0.30026 c 0.22357,9.2128 -2.0336,18.45568 -6.70272,27.07606 l -1.56672,2.7137 c -5.1488,8.65131 -12.32235,15.20971 -20.59488,19.67136 z"
     id="path1414" /><path
     inkscape:connector-curvature="0"
     style="font-size:12px;fill:#ffffff;fill-rule:evenodd;stroke:#000600;stroke-width:1.06666"
     d="m 132.69739,671.00755 -0.53344,-0.92373 28.38656,-48.5664 c 8.09034,4.4128 14.96629,10.98901 20.09717,19.34272 l 1.56683,2.71371 c 4.91776,8.78464 7.01077,18.27626 6.73845,27.67136 z"
     id="path1415" /><circle
     style="font-size:12px;fill:#ffffff;fill-rule:evenodd;stroke:#000600;stroke-width:1.06667"
     id="path1416"
     cx="132.16405"
     cy="671.24524"
     r="37.79528" /></g><text
   style="font-style:normal;font-weight:bold;font-size:12.8px;line-height:0%;font-family:'Bitstream Vera Sans';writing-mode:lr-tb;text-anchor:start;fill:#000000;fill-opacity:1;stroke:none;stroke-width:1.06667"
   x="435.81134"
   y="671.3941"
   id="text1417"
   xml:space="default"><tspan
     x="435.81134"
     y="671.3941"
     sodipodi:role="line"
     id="tspan1418"
     style="font-size:51.2px;line-height:1;stroke-width:1.06667">2</tspan></text>
</g><g
   id="g1444"
   transform="matrix(0.225,0,0,0.225,149.79986,-29.481362)"><g
   id="g1445"
   transform="rotate(-59.999988,129.68517,675.7901)"><path
     inkscape:connector-curvature="0"
     style="font-size:12px;fill:#ffffff;fill-rule:evenodd;stroke:#000600;stroke-width:1.06667"
     d="m 133.58027,671.1523 h -1.06667 l -28.2,-49.53333 c 7.86667,-4.8 17.33333,-6.8 27.13333,-7.06667 h 3.13334 c 10.06666,0.13333 19.33333,3.06667 27.33333,8 z"
     id="path1446"
     sodipodi:nodetypes="ccccccc" /><path
     inkscape:connector-curvature="0"
     style="font-size:12px;fill:#ffffff;fill-rule:evenodd;stroke:#000600;stroke-width:1.06667"
     d="m 132.27253,670.32147 -0.53333,0.92374 -56.253013,-0.30006 c -0.22368,-9.2128 2.0336,-18.45578 6.70272,-27.07616 l 1.566613,-2.7136 c 5.1488,-8.6513 12.322453,-15.20981 20.59488,-19.67136 z"
     id="path1447" /><path
     inkscape:connector-curvature="0"
     style="font-size:12px;fill:#999999;fill-rule:evenodd;stroke:#000600;stroke-width:1.06667"
     d="m 131.63061,671.48265 0.53334,0.92384 -28.38646,48.5664 C 95.687147,716.56019 88.8112,709.98387 83.680213,701.63017 l -1.56672,-2.7136 C 77.195627,690.13193 75.10272,680.64009 75.37504,671.24521 Z"
     id="path1448" /><path
     inkscape:connector-curvature="0"
     style="font-size:12px;fill:#999999;fill-rule:evenodd;stroke:#000600;stroke-width:1.06667"
     d="m 132.22293,671.24521 h 1.06678 l 27.86645,48.86666 c -7.86667,4.8 -16.99989,7.46667 -26.79989,7.73334 h -3.13344 c -10.06667,-0.13334 -19.66656,-2.4 -27.66667,-7.33334 z"
     id="path1449"
     sodipodi:nodetypes="ccccccc" /><path
     inkscape:connector-curvature="0"
     style="font-size:12px;fill:#999999;fill-rule:evenodd;stroke:#000600;stroke-width:1.06667"
     d="m 132.05536,672.16905 0.53333,-0.92384 56.25302,0.30026 c 0.22357,9.2128 -2.0336,18.45568 -6.70272,27.07606 l -1.56672,2.7137 c -5.1488,8.65131 -12.32235,15.20971 -20.59488,19.67136 z"
     id="path1450" /><path
     inkscape:connector-curvature="0"
     style="font-size:12px;fill:#ffffff;fill-rule:evenodd;stroke:#000600;stroke-width:1.06666"
     d="m 132.69739,671.00755 -0.53344,-0.92373 28.38656,-48.5664 c 8.09034,4.4128 14.96629,10.98901 20.09717,19.34272 l 1.56683,2.71371 c 4.91776,8.78464 7.01077,18.27626 6.73845,27.67136 z"
     id="path1451" /><circle
     style="font-size:12px;fill:#ffffff;fill-rule:evenodd;stroke:#000600;stroke-width:1.06667"
     id="path1452"
     cx="132.16405"
     cy="671.24524"
     r="37.79528" /></g><text
   style="font-style:normal;font-weight:bold;font-size:12.8px;line-height:0%;font-family:'Bitstream Vera Sans';writing-mode:lr-tb;text-anchor:start;fill:#000000;fill-opacity:1;stroke:none;stroke-width:1.06667"
   x="109.33582"
   y="690.3476"
   id="text1453"
   xml:space="default"><tspan
     x="109.33582"
     y="690.3476"
     sodipodi:role="line"
     id="tspan1454"
     style="font-size:51.2px;line-height:1;stroke-width:1.06667">2</tspan></text>
</g><g
   style="font-size:12px"
   transform="matrix(0.981372,0,0,1,-49.666058,-613.34105)"
   id="g1219-3-8"><rect
     y="669.15875"
     x="156.79929"
     height="15.11811"
     width="15.118096"
     id="rect1218-0-9"
     style="font-size:12px;fill:#ffffff;fill-rule:evenodd;stroke:#000000;stroke-width:0.853331" /><polygon
     d="m 155.90552,666.14173 -68.390443,-37.55691 -69.710064,35.04683 14.584934,-76.6489 -54.873114,-55.46814 77.40443,-9.81472 35.796616,-69.32803 33.253631,70.58307 76.99664,12.62107 -56.85255,53.43745 z"
     inkscape:randomized="0"
     inkscape:rounded="0"
     inkscape:flatsided="false"
     transform="matrix(0.05119999,0,0,0.05119999,159.78912,648.08384)"
     points="155.9055,666.1417 87.51508,628.5848 17.80502,663.6317 32.38995,586.9827 -22.48316,531.5146 54.92126,521.6999 90.71788,452.3719 123.9715,522.955 200.9681,535.576 144.1156,589.0134 155.9055,666.1417 "
     sodipodi:arg2="1.5889701"
     sodipodi:arg1="0.96065152"
     sodipodi:r2="58.747353"
     sodipodi:r1="117.49471"
     sodipodi:cy="569.84717"
     sodipodi:cx="88.58268"
     sodipodi:sides="5"
     id="polygon1217-4-5"
     style="font-size:12px;fill:#000000;fill-opacity:1;fill-rule:evenodd;stroke-width:1"
     sodipodi:type="star" /></g><g
   style="font-size:12px"
   transform="matrix(0.981372,0,0,1,-123.57552,-575.93579)"
   id="g1219-3-80"><rect
     y="669.15875"
     x="156.79929"
     height="15.11811"
     width="15.118096"
     id="rect1218-0-8"
     style="font-size:12px;fill:#ffffff;fill-rule:evenodd;stroke:#000000;stroke-width:0.853331" /><polygon
     d="m 155.90552,666.14173 -68.390443,-37.55691 -69.710064,35.04683 14.584934,-76.6489 -54.873114,-55.46814 77.40443,-9.81472 35.796616,-69.32803 33.253631,70.58307 76.99664,12.62107 -56.85255,53.43745 z"
     inkscape:randomized="0"
     inkscape:rounded="0"
     inkscape:flatsided="false"
     transform="matrix(0.05119999,0,0,0.05119999,159.78912,648.08384)"
     points="155.9055,666.1417 87.51508,628.5848 17.80502,663.6317 32.38995,586.9827 -22.48316,531.5146 54.92126,521.6999 90.71788,452.3719 123.9715,522.955 200.9681,535.576 144.1156,589.0134 155.9055,666.1417 "
     sodipodi:arg2="1.5889701"
     sodipodi:arg1="0.96065152"
     sodipodi:r2="58.747353"
     sodipodi:r1="117.49471"
     sodipodi:cy="569.84717"
     sodipodi:cx="88.58268"
     sodipodi:sides="5"
     id="polygon1217-4-8"
     style="font-size:12px;fill:#000000;fill-opacity:1;fill-rule:evenodd;stroke-width:1"
     sodipodi:type="star" /></g><g
   style="font-size:12px"
   transform="matrix(0.981372,0,0,1,-12.963444,-575.46878)"
   id="g1219-3-9"><rect
     y="669.15875"
     x="156.79929"
     height="15.11811"
     width="15.118096"
     id="rect1218-0-1"
     style="font-size:12px;fill:#ffffff;fill-rule:evenodd;stroke:#000000;stroke-width:0.853331" /><polygon
     d="m 155.90552,666.14173 -68.390443,-37.55691 -69.710064,35.04683 14.584934,-76.6489 -54.873114,-55.46814 77.40443,-9.81472 35.796616,-69.32803 33.253631,70.58307 76.99664,12.62107 -56.85255,53.43745 z"
     inkscape:randomized="0"
     inkscape:rounded="0"
     inkscape:flatsided="false"
     transform="matrix(0.05119999,0,0,0.05119999,159.78912,648.08384)"
     points="155.9055,666.1417 87.51508,628.5848 17.80502,663.6317 32.38995,586.9827 -22.48316,531.5146 54.92126,521.6999 90.71788,452.3719 123.9715,522.955 200.9681,535.576 144.1156,589.0134 155.9055,666.1417 "
     sodipodi:arg2="1.5889701"
     sodipodi:arg1="0.96065152"
     sodipodi:r2="58.747353"
     sodipodi:r1="117.49471"
     sodipodi:cy="569.84717"
     sodipodi:cx="88.58268"
     sodipodi:sides="5"
     id="polygon1217-4-06"
     style="font-size:12px;fill:#000000;fill-opacity:1;fill-rule:evenodd;stroke-width:1"
     sodipodi:type="star" /></g><g
   style="font-size:12px"
   transform="matrix(0.981372,0,0,1,-49.280689,-557.21125)"
   id="g1219-3-7"><rect
     y="669.15875"
     x="156.79929"
     height="15.11811"
     width="15.118096"
     id="rect1218-0-0"
     style="font-size:12px;fill:#ffffff;fill-rule:evenodd;stroke:#000000;stroke-width:0.853331" /><polygon
     d="m 155.90552,666.14173 -68.390443,-37.55691 -69.710064,35.04683 14.584934,-76.6489 -54.873114,-55.46814 77.40443,-9.81472 35.796616,-69.32803 33.253631,70.58307 76.99664,12.62107 -56.85255,53.43745 z"
     inkscape:randomized="0"
     inkscape:rounded="0"
     inkscape:flatsided="false"
     transform="matrix(0.05119999,0,0,0.05119999,159.78912,648.08384)"
     points="155.9055,666.1417 87.51508,628.5848 17.80502,663.6317 32.38995,586.9827 -22.48316,531.5146 54.92126,521.6999 90.71788,452.3719 123.9715,522.955 200.9681,535.576 144.1156,589.0134 155.9055,666.1417 "
     sodipodi:arg2="1.5889701"
     sodipodi:arg1="0.96065152"
     sodipodi:r2="58.747353"
     sodipodi:r1="117.49471"
     sodipodi:cy="569.84717"
     sodipodi:cx="88.58268"
     sodipodi:sides="5"
     id="polygon1217-4-9"
     style="font-size:12px;fill:#000000;fill-opacity:1;fill-rule:evenodd;stroke-width:1"
     sodipodi:type="star" /></g><g
   id="g3196-2-0"
   transform="matrix(0.144298,0,0,0.144298,-31.262998,142.65098)"><ellipse
     id="path3198-1-72"
     style="color:#000000;display:inline;overflow:visible;visibility:visible;fill:#000000;fill-opacity:1;fill-rule:evenodd;stroke:#000000;stroke-width:5.44778;stroke-linecap:round;stroke-linejoin:miter;stroke-miterlimit:4;stroke-dasharray:none;stroke-dashoffset:0;stroke-opacity:1;marker:none"
     cx="420.20648"
     cy="106.7557"
     rx="54.815933"
     ry="54.931549" /><path
     inkscape:connector-curvature="0"
     style="color:#000000;display:inline;overflow:visible;visibility:visible;fill:#ffffff;fill-opacity:1;fill-rule:evenodd;stroke:#000000;stroke-width:3.77953;stroke-linecap:round;stroke-linejoin:miter;stroke-miterlimit:4;stroke-dasharray:none;stroke-dashoffset:0;stroke-opacity:1;marker:none"
     d="m 379.37691,68.255699 c -9.44407,9.870061 -15.33334,23.189799 -15.33334,37.933331 0,15.28858 6.26427,29.10491 16.33334,39.06667 9.79488,-9.79488 38,-38 38,-38 z"
     id="path3200-7-36" /><path
     inkscape:connector-curvature="0"
     style="color:#000000;display:inline;overflow:visible;visibility:visible;fill:#ffffff;fill-opacity:1;fill-rule:evenodd;stroke:#000000;stroke-width:3.77953;stroke-linecap:round;stroke-linejoin:miter;stroke-miterlimit:4;stroke-dasharray:none;stroke-dashoffset:0;stroke-opacity:1;marker:none"
     d="m 459.24357,67.239033 c -11.15287,11.152881 -39.7,39.699997 -39.7,39.699997 l 39.33334,39.33333 c 10.47632,-10.00695 17.1,-24.02907 17.1,-39.66666 0,-15.468163 -6.45538,-29.380317 -16.73334,-39.366667 z"
     id="path3202-8-14" /></g><g
   id="g3196-2-4-71"
   transform="matrix(0.144298,0,0,0.144298,-6.4466227,142.65098)"><ellipse
     id="path3198-1-6-0"
     style="color:#000000;display:inline;overflow:visible;visibility:visible;fill:#000000;fill-opacity:1;fill-rule:evenodd;stroke:#000000;stroke-width:5.44778;stroke-linecap:round;stroke-linejoin:miter;stroke-miterlimit:4;stroke-dasharray:none;stroke-dashoffset:0;stroke-opacity:1;marker:none"
     cx="420.20648"
     cy="106.7557"
     rx="54.815933"
     ry="54.931549" /><path
     inkscape:connector-curvature="0"
     style="color:#000000;display:inline;overflow:visible;visibility:visible;fill:#ffffff;fill-opacity:1;fill-rule:evenodd;stroke:#000000;stroke-width:3.77953;stroke-linecap:round;stroke-linejoin:miter;stroke-miterlimit:4;stroke-dasharray:none;stroke-dashoffset:0;stroke-opacity:1;marker:none"
     d="m 379.37691,68.255699 c -9.44407,9.870061 -15.33334,23.189799 -15.33334,37.933331 0,15.28858 6.26427,29.10491 16.33334,39.06667 9.79488,-9.79488 38,-38 38,-38 z"
     id="path3200-7-0-7" /><path
     inkscape:connector-curvature="0"
     style="color:#000000;display:inline;overflow:visible;visibility:visible;fill:#ffffff;fill-opacity:1;fill-rule:evenodd;stroke:#000000;stroke-width:3.77953;stroke-linecap:round;stroke-linejoin:miter;stroke-miterlimit:4;stroke-dasharray:none;stroke-dashoffset:0;stroke-opacity:1;marker:none"
     d="m 459.24357,67.239033 c -11.15287,11.152881 -39.7,39.699997 -39.7,39.699997 l 39.33334,39.33333 c 10.47632,-10.00695 17.1,-24.02907 17.1,-39.66666 0,-15.468163 -6.45538,-29.380317 -16.73334,-39.366667 z"
     id="path3202-8-1-3" /></g><g
   id="g1360-2"
   transform="matrix(0.225,0,0,0.225,239.98591,56.233031)"><g
   id="g1361-6"
   transform="translate(-50.838315,-170.26752)"
   style="fill:#ffffff;fill-opacity:1"><path
     inkscape:connector-curvature="0"
     style="font-size:12px;fill:#ffffff;fill-opacity:1;fill-rule:evenodd;stroke:#000600;stroke-width:1.06667"
     d="m 133.58027,671.1523 h -1.06667 l -28.2,-49.53333 c 7.86667,-4.8 17.33333,-6.8 27.13333,-7.06667 h 3.13334 c 10.06666,0.13333 19.33333,3.06667 27.33333,8 z"
     id="path1362-6"
     sodipodi:nodetypes="ccccccc" /><path
     inkscape:connector-curvature="0"
     style="font-size:12px;fill:#ffffff;fill-opacity:1;fill-rule:evenodd;stroke:#000600;stroke-width:1.06667"
     d="m 132.27253,670.32147 -0.53333,0.92374 -56.253013,-0.30006 c -0.22368,-9.2128 2.0336,-18.45578 6.70272,-27.07616 l 1.566613,-2.7136 c 5.1488,-8.6513 12.322453,-15.20981 20.59488,-19.67136 z"
     id="path1363-6" /><path
     inkscape:connector-curvature="0"
     style="font-size:12px;fill:#ffffff;fill-opacity:1;fill-rule:evenodd;stroke:#000600;stroke-width:1.06667"
     d="m 131.63061,671.48265 0.53334,0.92384 -28.38646,48.5664 C 95.687147,716.56019 88.8112,709.98387 83.680213,701.63017 l -1.56672,-2.7136 C 77.195627,690.13193 75.10272,680.64009 75.37504,671.24521 Z"
     id="path1364-6" /><path
     inkscape:connector-curvature="0"
     style="font-size:12px;fill:#ffffff;fill-opacity:1;fill-rule:evenodd;stroke:#000600;stroke-width:1.06667"
     d="m 132.22293,671.24521 h 1.06678 l 27.86645,48.86666 c -7.86667,4.8 -16.99989,7.46667 -26.79989,7.73334 h -3.13344 c -10.06667,-0.13334 -19.66656,-2.4 -27.66667,-7.33334 z"
     id="path1365-6"
     sodipodi:nodetypes="ccccccc" /><path
     inkscape:connector-curvature="0"
     style="font-size:12px;fill:#ffffff;fill-opacity:1;fill-rule:evenodd;stroke:#000600;stroke-width:1.06667"
     d="m 132.05536,672.16905 0.53333,-0.92384 56.25302,0.30026 c 0.22357,9.2128 -2.0336,18.45568 -6.70272,27.07606 l -1.56672,2.7137 c -5.1488,8.65131 -12.32235,15.20971 -20.59488,19.67136 z"
     id="path1366-7" /><path
     inkscape:connector-curvature="0"
     style="font-size:12px;fill:#ffffff;fill-opacity:1;fill-rule:evenodd;stroke:#000600;stroke-width:1.06666"
     d="m 132.69739,671.00755 -0.53344,-0.92373 28.38656,-48.5664 c 8.09034,4.4128 14.96629,10.98901 20.09717,19.34272 l 1.56683,2.71371 c 4.91776,8.78464 7.01077,18.27626 6.73845,27.67136 z"
     id="path1367-3" /><circle
     style="font-size:12px;fill:#ffffff;fill-opacity:1;fill-rule:evenodd;stroke:#000600;stroke-width:1.06667"
     id="path1368-0"
     cx="132.16405"
     cy="671.24524"
     r="37.79528" /></g><text
   style="font-style:normal;font-weight:bold;font-size:12.8px;line-height:0%;font-family:'Bitstream Vera Sans';writing-mode:lr-tb;text-anchor:start;fill:#000000;fill-opacity:1;stroke:none;stroke-width:1.06667"
   x="62.388191"
   y="519.59375"
   id="text1369-2"
   xml:space="default"><tspan
     x="62.388191"
     y="519.59375"
     sodipodi:role="line"
     id="tspan1370-0"
     style="font-size:51.2px;line-height:1;stroke-width:1.06667">1</tspan></text>
</g><rect
   y="93.222969"
   x="104.62792"
   height="15.11811"
   width="14.836475"
   id="rect1016-23"
   style="font-size:12px;fill:#ffffff;fill-rule:evenodd;stroke:#000000;stroke-width:0.845346" /><rect
   y="55.567608"
   x="86.120293"
   height="15.11811"
   width="14.836475"
   id="rect1016-5-6"
   style="font-size:12px;fill:#ffffff;fill-rule:evenodd;stroke:#000000;stroke-width:0.845346" /><rect
   y="93.222969"
   x="86.120293"
   height="15.11811"
   width="14.836475"
   id="rect1016-2-6-8-1"
   style="font-size:12px;fill:#ffffff;fill-rule:evenodd;stroke:#000000;stroke-width:0.845346" /><g
   style="font-size:12px"
   transform="matrix(0.981372,0,0,1,-49.250512,-594.44341)"
   id="g1219-3-94"><rect
     y="669.15875"
     x="156.79929"
     height="15.11811"
     width="15.118096"
     id="rect1218-0-96"
     style="font-size:12px;fill:#ffffff;fill-rule:evenodd;stroke:#000000;stroke-width:0.853331" /></g><rect
   y="55.567608"
   x="122.65052"
   height="15.11811"
   width="14.836475"
   id="rect1016-5-7"
   style="font-size:12px;fill:#ffffff;fill-rule:evenodd;stroke:#000000;stroke-width:0.845346" /><g
   style="font-size:12px"
   transform="matrix(0.981372,0,0,1,-87.05048,-594.69351)"
   id="g1219-3-80-9"><rect
     y="669.15875"
     x="156.79929"
     height="15.11811"
     width="15.118096"
     id="rect1218-0-8-1"
     style="font-size:12px;fill:#ffffff;fill-rule:evenodd;stroke:#000000;stroke-width:0.853331" /><polygon
     d="m 155.90552,666.14173 -68.390443,-37.55691 -69.710064,35.04683 14.584934,-76.6489 -54.873114,-55.46814 77.40443,-9.81472 35.796616,-69.32803 33.253631,70.58307 76.99664,12.62107 -56.85255,53.43745 z"
     inkscape:randomized="0"
     inkscape:rounded="0"
     inkscape:flatsided="false"
     transform="matrix(0.05119999,0,0,0.05119999,159.78912,648.08384)"
     points="155.9055,666.1417 87.51508,628.5848 17.80502,663.6317 32.38995,586.9827 -22.48316,531.5146 54.92126,521.6999 90.71788,452.3719 123.9715,522.955 200.9681,535.576 144.1156,589.0134 155.9055,666.1417 "
     sodipodi:arg2="1.5889701"
     sodipodi:arg1="0.96065152"
     sodipodi:r2="58.747353"
     sodipodi:r1="117.49471"
     sodipodi:cy="569.84717"
     sodipodi:cx="88.58268"
     sodipodi:sides="5"
     id="polygon1217-4-8-9"
     style="font-size:12px;fill:#000000;fill-opacity:1;fill-rule:evenodd;stroke-width:1"
     sodipodi:type="star" /></g><g
   id="g1495-2"
   transform="matrix(0.5,0,0,0.5,-46.987573,-64.155814)"><rect
     style="font-size:12px;fill:#ffffff;fill-rule:evenodd;stroke:#000000;stroke-width:1.33333;stroke-dasharray:none"
     id="rect1489-4"
     width="37.795246"
     height="37.795235"
     x="377.95276"
     y="520.06421" /><ellipse
     style="fill:#000000;fill-opacity:1;fill-rule:evenodd;stroke:#000600;stroke-width:1.06667pt;stroke-linecap:butt;stroke-linejoin:miter;stroke-opacity:1"
     id="path1490-5"
     cx="396.85043"
     cy="538.96179"
     rx="9.4488182"
     ry="9.4488115" /></g><g
   id="g1312"
   transform="matrix(0.225,0,0,0.225,219.47554,-31.962755)"><g
   id="g1313"
   transform="translate(-132.04448,8.8155275)"><path
     inkscape:connector-curvature="0"
     style="font-size:12px;fill:#ffffff;fill-rule:evenodd;stroke:#000600;stroke-width:1.06667"
     d="m 133.58027,671.1523 h -1.06667 l -28.2,-49.53333 c 7.86667,-4.8 17.33333,-6.8 27.13333,-7.06667 h 3.13334 c 10.06666,0.13333 19.33333,3.06667 27.33333,8 z"
     id="path1314"
     sodipodi:nodetypes="ccccccc" /><path
     inkscape:connector-curvature="0"
     style="font-size:12px;fill:#ffffff;fill-rule:evenodd;stroke:#000600;stroke-width:1.06667"
     d="m 132.27253,670.32147 -0.53333,0.92374 -56.253013,-0.30006 c -0.22368,-9.2128 2.0336,-18.45578 6.70272,-27.07616 l 1.566613,-2.7136 c 5.1488,-8.6513 12.322453,-15.20981 20.59488,-19.67136 z"
     id="path1315" /><path
     inkscape:connector-curvature="0"
     style="font-size:12px;fill:#999999;fill-rule:evenodd;stroke:#000600;stroke-width:1.06667"
     d="m 131.63061,671.48265 0.53334,0.92384 -28.38646,48.5664 C 95.687147,716.56019 88.8112,709.98387 83.680213,701.63017 l -1.56672,-2.7136 C 77.195627,690.13193 75.10272,680.64009 75.37504,671.24521 Z"
     id="path1316" /><path
     inkscape:connector-curvature="0"
     style="font-size:12px;fill:#999999;fill-rule:evenodd;stroke:#000600;stroke-width:1.06667"
     d="m 132.22293,671.24521 h 1.06678 l 27.86645,48.86666 c -7.86667,4.8 -16.99989,7.46667 -26.79989,7.73334 h -3.13344 c -10.06667,-0.13334 -19.66656,-2.4 -27.66667,-7.33334 z"
     id="path1317"
     sodipodi:nodetypes="ccccccc" /><path
     inkscape:connector-curvature="0"
     style="font-size:12px;fill:#999999;fill-rule:evenodd;stroke:#000600;stroke-width:1.06667"
     d="m 132.05536,672.16905 0.53333,-0.92384 56.25302,0.30026 c 0.22357,9.2128 -2.0336,18.45568 -6.70272,27.07606 l -1.56672,2.7137 c -5.1488,8.65131 -12.32235,15.20971 -20.59488,19.67136 z"
     id="path1318" /><path
     inkscape:connector-curvature="0"
     style="font-size:12px;fill:#ffffff;fill-rule:evenodd;stroke:#000600;stroke-width:1.06666"
     d="m 132.69739,671.00755 -0.53344,-0.92373 28.38656,-48.5664 c 8.09034,4.4128 14.96629,10.98901 20.09717,19.34272 l 1.56683,2.71371 c 4.91776,8.78464 7.01077,18.27626 6.73845,27.67136 z"
     id="path1319" /><circle
     style="font-size:12px;fill:#ffffff;fill-rule:evenodd;stroke:#000600;stroke-width:1.06667"
     id="path1320"
     cx="132.16405"
     cy="671.24524"
     r="37.79528" /></g><text
   style="font-style:normal;font-weight:bold;font-size:12.8px;line-height:0%;font-family:'Bitstream Vera Sans';writing-mode:lr-tb;text-anchor:start;fill:#000000;fill-opacity:1;stroke:none;stroke-width:1.06667"
   x="-17.493025"
   y="699.01428"
   id="text1321"
   xml:space="default"><tspan
     x="-17.493025"
     y="699.01428"
     sodipodi:role="line"
     id="tspan1322"
     style="font-size:51.2px;line-height:1;stroke-width:1.06667">2</tspan></text>
</g><g
   id="g1456"
   transform="matrix(0.225,0,0,0.225,92.607505,-84.908837)"><g
   id="g1457"
   transform="translate(4.7156576,-0.41835947)"><path
     inkscape:connector-curvature="0"
     style="font-size:12px;fill:#ffffff;fill-rule:evenodd;stroke:#000600;stroke-width:1.06667"
     d="m 455.07904,746.74283 h -1.06667 l -28.2,-49.53334 c 7.86667,-4.8 17.33334,-6.8 27.13334,-7.06666 h 3.13333 c 10.06667,0.13333 19.33333,3.06666 27.33333,8 z"
     id="path1458"
     sodipodi:nodetypes="ccccccc" /><path
     inkscape:connector-curvature="0"
     style="font-size:12px;fill:#989999;fill-opacity:1;fill-rule:evenodd;stroke:#000600;stroke-width:1.06667"
     d="m 453.77131,745.912 -0.53334,0.92373 -56.25301,-0.30005 c -0.22368,-9.2128 2.0336,-18.45579 6.70272,-27.07616 l 1.56661,-2.7136 c 5.1488,-8.65131 12.32246,-15.20981 20.59488,-19.67136 z"
     id="path1459" /><path
     inkscape:connector-curvature="0"
     style="font-size:12px;fill:#999999;fill-rule:evenodd;stroke:#000600;stroke-width:1.06667"
     d="m 453.12939,747.07317 0.53333,0.92384 -28.38645,48.5664 c -8.09035,-4.41269 -14.9663,-10.98901 -20.09728,-19.34272 l -1.56672,-2.7136 c -4.91787,-8.78464 -7.01078,-18.27648 -6.73846,-27.67136 z"
     id="path1460" /><path
     inkscape:connector-curvature="0"
     style="font-size:12px;fill:#999999;fill-rule:evenodd;stroke:#000600;stroke-width:1.06667"
     d="m 453.72171,746.83573 h 1.06677 l 27.86645,48.86667 c -7.86666,4.8 -16.99989,7.46667 -26.79989,7.73333 h -3.13344 c -10.06667,-0.13333 -19.66656,-2.4 -27.66667,-7.33333 z"
     id="path1461"
     sodipodi:nodetypes="ccccccc" /><path
     inkscape:connector-curvature="0"
     style="font-size:12px;fill:#999999;fill-rule:evenodd;stroke:#000600;stroke-width:1.06667"
     d="m 453.55413,747.75957 0.53334,-0.92384 56.25301,0.30027 c 0.22357,9.2128 -2.0336,18.45568 -6.70272,27.07605 l -1.56672,2.71371 c -5.1488,8.65131 -12.32235,15.20971 -20.59488,19.67136 z"
     id="path1462" /><path
     inkscape:connector-curvature="0"
     style="font-size:12px;fill:#999999;fill-opacity:1;fill-rule:evenodd;stroke:#000600;stroke-width:1.06666"
     d="m 454.19616,746.59808 -0.53344,-0.92373 28.38656,-48.5664 c 8.09035,4.4128 14.96629,10.98901 20.09717,19.34272 l 1.56683,2.7137 c 4.91776,8.78464 7.01077,18.27627 6.73845,27.67136 z"
     id="path1463" /><circle
     style="font-size:12px;fill:#ffffff;fill-rule:evenodd;stroke:#000600;stroke-width:1.06667"
     id="path1464"
     cx="453.66281"
     cy="746.83575"
     r="37.79528" /></g><text
   style="font-style:normal;font-weight:bold;font-size:12.8px;line-height:0%;font-family:'Bitstream Vera Sans';writing-mode:lr-tb;text-anchor:start;fill:#000000;fill-opacity:1;stroke:none;stroke-width:1.06667"
   x="440.89093"
   y="765.00842"
   id="text1465"
   xml:space="default"><tspan
     x="440.89093"
     y="765.00842"
     sodipodi:role="line"
     id="tspan1466"
     style="font-size:51.2px;line-height:1;stroke-width:1.06667">3</tspan></text>
</g><rect
   y="55.567608"
   x="141.14297"
   height="15.11811"
   width="14.836475"
   id="rect1016-5-7-3"
   style="font-size:12px;fill:#ffffff;fill-rule:evenodd;stroke:#000000;stroke-width:0.845346" /><rect
   y="74.71534"
   x="141.14297"
   height="15.11811"
   width="14.836475"
   id="rect1016-5-7-2"
   style="font-size:12px;fill:#ffffff;fill-rule:evenodd;stroke:#000000;stroke-width:0.845346" /><rect
   y="74.71534"
   x="122.65052"
   height="15.11811"
   width="14.836475"
   id="rect1016-5-7-38"
   style="font-size:12px;fill:#ffffff;fill-rule:evenodd;stroke:#000000;stroke-width:0.845346" /><rect
   y="93.222969"
   x="122.65052"
   height="15.11811"
   width="14.836475"
   id="rect1016-5-7-1"
   style="font-size:12px;fill:#ffffff;fill-rule:evenodd;stroke:#000000;stroke-width:0.845346" /><rect
   y="111.9475"
   x="122.65052"
   height="15.11811"
   width="14.836475"
   id="rect1016-5-7-6"
   style="font-size:12px;fill:#ffffff;fill-rule:evenodd;stroke:#000000;stroke-width:0.845346" /><rect
   y="111.9475"
   x="11.5896"
   height="15.11811"
   width="14.836475"
   id="rect1016-5-7-21"
   style="font-size:12px;fill:#ffffff;fill-rule:evenodd;stroke:#000000;stroke-width:0.845346" /><rect
   y="111.9475"
   x="141.14297"
   height="15.11811"
   width="14.836475"
   id="rect1016-5-7-65"
   style="font-size:12px;fill:#ffffff;fill-rule:evenodd;stroke:#000000;stroke-width:0.845346" /><g
   id="g3196-2-0-3"
   transform="matrix(0.144298,0,0,0.144298,18.369747,142.65098)"><ellipse
     id="path3198-1-72-6"
     style="color:#000000;display:inline;overflow:visible;visibility:visible;fill:#000000;fill-opacity:1;fill-rule:evenodd;stroke:#000000;stroke-width:5.44778;stroke-linecap:round;stroke-linejoin:miter;stroke-miterlimit:4;stroke-dasharray:none;stroke-dashoffset:0;stroke-opacity:1;marker:none"
     cx="420.20648"
     cy="106.7557"
     rx="54.815933"
     ry="54.931549" /><path
     inkscape:connector-curvature="0"
     style="color:#000000;display:inline;overflow:visible;visibility:visible;fill:#ffffff;fill-opacity:1;fill-rule:evenodd;stroke:#000000;stroke-width:3.77953;stroke-linecap:round;stroke-linejoin:miter;stroke-miterlimit:4;stroke-dasharray:none;stroke-dashoffset:0;stroke-opacity:1;marker:none"
     d="m 379.37691,68.255699 c -9.44407,9.870061 -15.33334,23.189799 -15.33334,37.933331 0,15.28858 6.26427,29.10491 16.33334,39.06667 9.79488,-9.79488 38,-38 38,-38 z"
     id="path3200-7-36-4" /><path
     inkscape:connector-curvature="0"
     style="color:#000000;display:inline;overflow:visible;visibility:visible;fill:#ffffff;fill-opacity:1;fill-rule:evenodd;stroke:#000000;stroke-width:3.77953;stroke-linecap:round;stroke-linejoin:miter;stroke-miterlimit:4;stroke-dasharray:none;stroke-dashoffset:0;stroke-opacity:1;marker:none"
     d="m 459.24357,67.239033 c -11.15287,11.152881 -39.7,39.699997 -39.7,39.699997 l 39.33334,39.33333 c 10.47632,-10.00695 17.1,-24.02907 17.1,-39.66666 0,-15.468163 -6.45538,-29.380317 -16.73334,-39.366667 z"
     id="path3202-8-14-3" /></g><g
   id="g3196-2-0-8"
   transform="matrix(0.144298,0,0,0.144298,43.186119,142.65098)"><ellipse
     id="path3198-1-72-1"
     style="color:#000000;display:inline;overflow:visible;visibility:visible;fill:#000000;fill-opacity:1;fill-rule:evenodd;stroke:#000000;stroke-width:5.44778;stroke-linecap:round;stroke-linejoin:miter;stroke-miterlimit:4;stroke-dasharray:none;stroke-dashoffset:0;stroke-opacity:1;marker:none"
     cx="420.20648"
     cy="106.7557"
     rx="54.815933"
     ry="54.931549" /><path
     inkscape:connector-curvature="0"
     style="color:#000000;display:inline;overflow:visible;visibility:visible;fill:#ffffff;fill-opacity:1;fill-rule:evenodd;stroke:#000000;stroke-width:3.77953;stroke-linecap:round;stroke-linejoin:miter;stroke-miterlimit:4;stroke-dasharray:none;stroke-dashoffset:0;stroke-opacity:1;marker:none"
     d="m 379.37691,68.255699 c -9.44407,9.870061 -15.33334,23.189799 -15.33334,37.933331 0,15.28858 6.26427,29.10491 16.33334,39.06667 9.79488,-9.79488 38,-38 38,-38 z"
     id="path3200-7-36-0" /><path
     inkscape:connector-curvature="0"
     style="color:#000000;display:inline;overflow:visible;visibility:visible;fill:#ffffff;fill-opacity:1;fill-rule:evenodd;stroke:#000000;stroke-width:3.77953;stroke-linecap:round;stroke-linejoin:miter;stroke-miterlimit:4;stroke-dasharray:none;stroke-dashoffset:0;stroke-opacity:1;marker:none"
     d="m 459.24357,67.239033 c -11.15287,11.152881 -39.7,39.699997 -39.7,39.699997 l 39.33334,39.33333 c 10.47632,-10.00695 17.1,-24.02907 17.1,-39.66666 0,-15.468163 -6.45538,-29.380317 -16.73334,-39.366667 z"
     id="path3202-8-14-30" /></g><g
   id="g1456-0"
   transform="matrix(0.225,0,0,0.225,134.21262,-85.909161)"><g
   id="g1457-1"
   transform="translate(4.7156576,-0.41835947)"><path
     inkscape:connector-curvature="0"
     style="font-size:12px;fill:#ffffff;fill-rule:evenodd;stroke:#000600;stroke-width:1.06667"
     d="m 455.07904,746.74283 h -1.06667 l -28.2,-49.53334 c 7.86667,-4.8 17.33334,-6.8 27.13334,-7.06666 h 3.13333 c 10.06667,0.13333 19.33333,3.06666 27.33333,8 z"
     id="path1458-2"
     sodipodi:nodetypes="ccccccc" /><path
     inkscape:connector-curvature="0"
     style="font-size:12px;fill:#989999;fill-opacity:1;fill-rule:evenodd;stroke:#000600;stroke-width:1.06667"
     d="m 453.77131,745.912 -0.53334,0.92373 -56.25301,-0.30005 c -0.22368,-9.2128 2.0336,-18.45579 6.70272,-27.07616 l 1.56661,-2.7136 c 5.1488,-8.65131 12.32246,-15.20981 20.59488,-19.67136 z"
     id="path1459-1" /><path
     inkscape:connector-curvature="0"
     style="font-size:12px;fill:#999999;fill-rule:evenodd;stroke:#000600;stroke-width:1.06667"
     d="m 453.12939,747.07317 0.53333,0.92384 -28.38645,48.5664 c -8.09035,-4.41269 -14.9663,-10.98901 -20.09728,-19.34272 l -1.56672,-2.7136 c -4.91787,-8.78464 -7.01078,-18.27648 -6.73846,-27.67136 z"
     id="path1460-6" /><path
     inkscape:connector-curvature="0"
     style="font-size:12px;fill:#999999;fill-rule:evenodd;stroke:#000600;stroke-width:1.06667"
     d="m 453.72171,746.83573 h 1.06677 l 27.86645,48.86667 c -7.86666,4.8 -16.99989,7.46667 -26.79989,7.73333 h -3.13344 c -10.06667,-0.13333 -19.66656,-2.4 -27.66667,-7.33333 z"
     id="path1461-6"
     sodipodi:nodetypes="ccccccc" /><path
     inkscape:connector-curvature="0"
     style="font-size:12px;fill:#999999;fill-rule:evenodd;stroke:#000600;stroke-width:1.06667"
     d="m 453.55413,747.75957 0.53334,-0.92384 56.25301,0.30027 c 0.22357,9.2128 -2.0336,18.45568 -6.70272,27.07605 l -1.56672,2.71371 c -5.1488,8.65131 -12.32235,15.20971 -20.59488,19.67136 z"
     id="path1462-0" /><path
     inkscape:connector-curvature="0"
     style="font-size:12px;fill:#999999;fill-opacity:1;fill-rule:evenodd;stroke:#000600;stroke-width:1.06666"
     d="m 454.19616,746.59808 -0.53344,-0.92373 28.38656,-48.5664 c 8.09035,4.4128 14.96629,10.98901 20.09717,19.34272 l 1.56683,2.7137 c 4.91776,8.78464 7.01077,18.27627 6.73845,27.67136 z"
     id="path1463-2" /><circle
     style="font-size:12px;fill:#ffffff;fill-rule:evenodd;stroke:#000600;stroke-width:1.06667"
     id="path1464-1"
     cx="453.66281"
     cy="746.83575"
     r="37.79528" /></g><text
   style="font-style:normal;font-weight:bold;font-size:12.8px;line-height:0%;font-family:'Bitstream Vera Sans';writing-mode:lr-tb;text-anchor:start;fill:#000000;fill-opacity:1;stroke:none;stroke-width:1.06667"
   x="440.89093"
   y="765.00842"
   id="text1465-5"
   xml:space="default"><tspan
     x="440.89093"
     y="765.00842"
     sodipodi:role="line"
     id="tspan1466-8"
     style="font-size:51.2px;line-height:1;stroke-width:1.06667">3</tspan></text>
</g><g
   id="g1312-0"
   transform="matrix(0.225,0,0,0.225,219.56357,-2.4506854)"><g
   id="g1313-8"
   transform="translate(-132.04448,8.8155275)"><path
     inkscape:connector-curvature="0"
     style="font-size:12px;fill:#ffffff;fill-rule:evenodd;stroke:#000600;stroke-width:1.06667"
     d="m 133.58027,671.1523 h -1.06667 l -28.2,-49.53333 c 7.86667,-4.8 17.33333,-6.8 27.13333,-7.06667 h 3.13334 c 10.06666,0.13333 19.33333,3.06667 27.33333,8 z"
     id="path1314-2"
     sodipodi:nodetypes="ccccccc" /><path
     inkscape:connector-curvature="0"
     style="font-size:12px;fill:#ffffff;fill-rule:evenodd;stroke:#000600;stroke-width:1.06667"
     d="m 132.27253,670.32147 -0.53333,0.92374 -56.253013,-0.30006 c -0.22368,-9.2128 2.0336,-18.45578 6.70272,-27.07616 l 1.566613,-2.7136 c 5.1488,-8.6513 12.322453,-15.20981 20.59488,-19.67136 z"
     id="path1315-6" /><path
     inkscape:connector-curvature="0"
     style="font-size:12px;fill:#999999;fill-rule:evenodd;stroke:#000600;stroke-width:1.06667"
     d="m 131.63061,671.48265 0.53334,0.92384 -28.38646,48.5664 C 95.687147,716.56019 88.8112,709.98387 83.680213,701.63017 l -1.56672,-2.7136 C 77.195627,690.13193 75.10272,680.64009 75.37504,671.24521 Z"
     id="path1316-6" /><path
     inkscape:connector-curvature="0"
     style="font-size:12px;fill:#999999;fill-rule:evenodd;stroke:#000600;stroke-width:1.06667"
     d="m 132.22293,671.24521 h 1.06678 l 27.86645,48.86666 c -7.86667,4.8 -16.99989,7.46667 -26.79989,7.73334 h -3.13344 c -10.06667,-0.13334 -19.66656,-2.4 -27.66667,-7.33334 z"
     id="path1317-3"
     sodipodi:nodetypes="ccccccc" /><path
     inkscape:connector-curvature="0"
     style="font-size:12px;fill:#999999;fill-rule:evenodd;stroke:#000600;stroke-width:1.06667"
     d="m 132.05536,672.16905 0.53333,-0.92384 56.25302,0.30026 c 0.22357,9.2128 -2.0336,18.45568 -6.70272,27.07606 l -1.56672,2.7137 c -5.1488,8.65131 -12.32235,15.20971 -20.59488,19.67136 z"
     id="path1318-4" /><path
     inkscape:connector-curvature="0"
     style="font-size:12px;fill:#ffffff;fill-rule:evenodd;stroke:#000600;stroke-width:1.06666"
     d="m 132.69739,671.00755 -0.53344,-0.92373 28.38656,-48.5664 c 8.09034,4.4128 14.96629,10.98901 20.09717,19.34272 l 1.56683,2.71371 c 4.91776,8.78464 7.01077,18.27626 6.73845,27.67136 z"
     id="path1319-8" /><circle
     style="font-size:12px;fill:#ffffff;fill-rule:evenodd;stroke:#000600;stroke-width:1.06667"
     id="path1320-6"
     cx="132.16405"
     cy="671.24524"
     r="37.79528" /></g><text
   style="font-style:normal;font-weight:bold;font-size:12.8px;line-height:0%;font-family:'Bitstream Vera Sans';writing-mode:lr-tb;text-anchor:start;fill:#000000;fill-opacity:1;stroke:none;stroke-width:1.06667"
   x="-17.493025"
   y="699.01428"
   id="text1321-0"
   xml:space="default"><tspan
     x="-17.493025"
     y="699.01428"
     sodipodi:role="line"
     id="tspan1322-3"
     style="font-size:51.2px;line-height:1;stroke-width:1.06667">2</tspan></text>
</g><g
   id="g1360-2-2"
   transform="matrix(0.225,0,0,0.225,134.01446,38.843412)"><g
   id="g1361-6-7"
   transform="translate(-50.838315,-170.26752)"
   style="fill:#ffffff;fill-opacity:1"><path
     inkscape:connector-curvature="0"
     style="font-size:12px;fill:#ffffff;fill-opacity:1;fill-rule:evenodd;stroke:#000600;stroke-width:1.06667"
     d="m 133.58027,671.1523 h -1.06667 l -28.2,-49.53333 c 7.86667,-4.8 17.33333,-6.8 27.13333,-7.06667 h 3.13334 c 10.06666,0.13333 19.33333,3.06667 27.33333,8 z"
     id="path1362-6-9"
     sodipodi:nodetypes="ccccccc" /><path
     inkscape:connector-curvature="0"
     style="font-size:12px;fill:#ffffff;fill-opacity:1;fill-rule:evenodd;stroke:#000600;stroke-width:1.06667"
     d="m 132.27253,670.32147 -0.53333,0.92374 -56.253013,-0.30006 c -0.22368,-9.2128 2.0336,-18.45578 6.70272,-27.07616 l 1.566613,-2.7136 c 5.1488,-8.6513 12.322453,-15.20981 20.59488,-19.67136 z"
     id="path1363-6-5" /><path
     inkscape:connector-curvature="0"
     style="font-size:12px;fill:#ffffff;fill-opacity:1;fill-rule:evenodd;stroke:#000600;stroke-width:1.06667"
     d="m 131.63061,671.48265 0.53334,0.92384 -28.38646,48.5664 C 95.687147,716.56019 88.8112,709.98387 83.680213,701.63017 l -1.56672,-2.7136 C 77.195627,690.13193 75.10272,680.64009 75.37504,671.24521 Z"
     id="path1364-6-7" /><path
     inkscape:connector-curvature="0"
     style="font-size:12px;fill:#ffffff;fill-opacity:1;fill-rule:evenodd;stroke:#000600;stroke-width:1.06667"
     d="m 132.22293,671.24521 h 1.06678 l 27.86645,48.86666 c -7.86667,4.8 -16.99989,7.46667 -26.79989,7.73334 h -3.13344 c -10.06667,-0.13334 -19.66656,-2.4 -27.66667,-7.33334 z"
     id="path1365-6-2"
     sodipodi:nodetypes="ccccccc" /><path
     inkscape:connector-curvature="0"
     style="font-size:12px;fill:#ffffff;fill-opacity:1;fill-rule:evenodd;stroke:#000600;stroke-width:1.06667"
     d="m 132.05536,672.16905 0.53333,-0.92384 56.25302,0.30026 c 0.22357,9.2128 -2.0336,18.45568 -6.70272,27.07606 l -1.56672,2.7137 c -5.1488,8.65131 -12.32235,15.20971 -20.59488,19.67136 z"
     id="path1366-7-7" /><path
     inkscape:connector-curvature="0"
     style="font-size:12px;fill:#ffffff;fill-opacity:1;fill-rule:evenodd;stroke:#000600;stroke-width:1.06666"
     d="m 132.69739,671.00755 -0.53344,-0.92373 28.38656,-48.5664 c 8.09034,4.4128 14.96629,10.98901 20.09717,19.34272 l 1.56683,2.71371 c 4.91776,8.78464 7.01077,18.27626 6.73845,27.67136 z"
     id="path1367-3-1" /><circle
     style="font-size:12px;fill:#ffffff;fill-opacity:1;fill-rule:evenodd;stroke:#000600;stroke-width:1.06667"
     id="path1368-0-2"
     cx="132.16405"
     cy="671.24524"
     r="37.79528" /></g><text
   style="font-style:normal;font-weight:bold;font-size:12.8px;line-height:0%;font-family:'Bitstream Vera Sans';writing-mode:lr-tb;text-anchor:start;fill:#000000;fill-opacity:1;stroke:none;stroke-width:1.06667"
   x="62.388191"
   y="519.59375"
   id="text1369-2-7"
   xml:space="default"><tspan
     x="62.388191"
     y="519.59375"
     sodipodi:role="line"
     id="tspan1370-0-2"
     style="font-size:51.2px;line-height:1;stroke-width:1.06667">1</tspan></text>
</g><g
   id="g1495-2-5"
   transform="matrix(0.5,0,0,0.5,-21.602352,-64.155814)"><rect
     style="font-size:12px;fill:#ffffff;fill-rule:evenodd;stroke:#000000;stroke-width:1.33333;stroke-dasharray:none"
     id="rect1489-4-9"
     width="37.795246"
     height="37.795235"
     x="377.95276"
     y="520.06421" /><ellipse
     style="fill:#000000;fill-opacity:1;fill-rule:evenodd;stroke:#000600;stroke-width:1.06667pt;stroke-linecap:butt;stroke-linejoin:miter;stroke-opacity:1"
     id="path1490-5-0"
     cx="396.85043"
     cy="538.96179"
     rx="9.4488182"
     ry="9.4488115" /></g></svg>
