<?xml version="1.0" encoding="UTF-8" standalone="no"?>
<!-- Created with Sodipodi ("http://www.sodipodi.com/") -->

<svg
   xmlns:dc="http://purl.org/dc/elements/1.1/"
   xmlns:cc="http://creativecommons.org/ns#"
   xmlns:rdf="http://www.w3.org/1999/02/22-rdf-syntax-ns#"
   xmlns:svg="http://www.w3.org/2000/svg"
   xmlns="http://www.w3.org/2000/svg"
   xmlns:sodipodi="http://sodipodi.sourceforge.net/DTD/sodipodi-0.dtd"
   xmlns:inkscape="http://www.inkscape.org/namespaces/inkscape"
   id="svg1290"
   sodipodi:version="0.32"
   width="210pt"
   height="169pt"
   xml:space="preserve"
   sodipodi:docname="ibiza.svg"
   inkscape:version="0.48.0 r9654"
   version="1.0"><metadata
   id="metadata71"><rdf:RDF><cc:Work
       rdf:about=""><dc:format>image/svg+xml</dc:format><dc:type
         rdf:resource="http://purl.org/dc/dcmitype/StillImage" /><dc:title>Eilenburg Frigate</dc:title><dc:creator><cc:Agent><dc:title>Samuel Penn</dc:title></cc:Agent></dc:creator><dc:rights><cc:Agent><dc:title /></cc:Agent></dc:rights><dc:publisher><cc:Agent><dc:title>http://www.glendale.org.uk/ft</dc:title></cc:Agent></dc:publisher><dc:subject><rdf:Bag><rdf:li>fullthrust</rdf:li></rdf:Bag></dc:subject><cc:license
         rdf:resource="http://www.glendale.org.uk/bsd.txt" /><dc:description>A short range patrol vessel designed for anti-pirate and escort duty.</dc:description></cc:Work></rdf:RDF></metadata><defs
   id="defs1292"><inkscape:perspective
   sodipodi:type="inkscape:persp3d"
   inkscape:vp_x="0 : 105.625 : 1"
   inkscape:vp_y="0 : 1000 : 0"
   inkscape:vp_z="262.5 : 105.625 : 1"
   inkscape:persp3d-origin="131.25 : 70.416667 : 1"
   id="perspective15577" />














</defs><sodipodi:namedview
   id="base"
   inkscape:zoom="3.0157461"
   inkscape:cx="69.575635"
   inkscape:cy="117.35773"
   inkscape:window-width="1388"
   inkscape:window-height="954"
   inkscape:window-x="564"
   inkscape:window-y="77"
   inkscape:current-layer="svg1290"
   showgrid="true"
   inkscape:grid-points="true"
   gridtolerance="1mm"
   showborder="true"
   pagecolor="#ffffff"
   inkscape:pageopacity="0"
   inkscape:window-maximized="0"><inkscape:grid
     id="GridFromPre046Settings"
     type="xygrid"
     originx="0px"
     originy="0mm"
     spacingx="5mm"
     spacingy="5mm"
     color="#0000ff"
     empcolor="#0000ff"
     opacity="0.2"
     empopacity="0.4"
     empspacing="10" /></sodipodi:namedview>














<rect
   y="6.006927"
   x="4.918406"
   height="169.37181"
   width="207.18135"
   id="rect1157"
   style="font-size:12px;fill:#e6e6e6;fill-rule:evenodd;stroke:#000000;stroke-width:0.92113882" /><g
   style="font-size:12px"
   transform="matrix(0.490686,0,0,0.5,-66.7148,-121.11275)"
   id="g1012"><rect
     y="487.56018"
     x="354.33072"
     height="35.433033"
     width="35.433044"
     id="rect1013"
     style="font-size:12px;fill:#ffffff;fill-rule:evenodd;stroke:#000000;stroke-width:1.25;stroke-dasharray:none" /><path
     transform="matrix(0.999999,0,0,1,44.2917,186.0237)"
     sodipodi:ry="8.8582611"
     sodipodi:rx="8.8582764"
     sodipodi:cy="319.25299"
     sodipodi:cx="327.75592"
     d="m 336.6142,319.25299 c 0,4.89228 -3.96599,8.85826 -8.85828,8.85826 -4.89229,0 -8.85828,-3.96598 -8.85828,-8.85826 0,-4.89228 3.96599,-8.85826 8.85828,-8.85826 4.89229,0 8.85828,3.96598 8.85828,8.85826 z"
     id="path1014"
     style="fill:#000000;fill-opacity:1;fill-rule:evenodd;stroke:#000600;stroke-width:1pt;stroke-linecap:butt;stroke-linejoin:miter;stroke-opacity:1"
     sodipodi:type="arc" /></g><g
   style="font-size:12px"
   transform="matrix(0.981372,0,0,1,44.03201,-376.3574)"
   id="g1130"><path
     inkscape:connector-curvature="0"
     sodipodi:nodetypes="ccccccccc"
     id="path1129"
     d="m 95.66929,522.9932 63.77951,0 3.5433,3.5432 0,17.7166 -3.5433,3.5433 -63.77951,0 -3.54331,-3.5433 0,-17.7166 3.54331,-3.5432 z"
     style="font-size:12px;fill:#ffffff;fill-opacity:1;fill-rule:evenodd;stroke:#000000;stroke-width:0.5;stroke-dasharray:none" /><g
     transform="matrix(0.500002,0,0,0.500002,78.83826,301.3578)"
     id="g1088"><rect
       transform="translate(-1.771645,-1.771729)"
       y="452.12695"
       x="35.433067"
       height="35.433067"
       width="35.433064"
       id="rect1089"
       style="font-size:12px;fill:#000000;fill-opacity:1;fill-rule:evenodd;stroke-width:1" /><g
       transform="matrix(0.875,0,0,0.875003,4.872056,56.95746)"
       id="g1090"><path
         transform="matrix(1.879387,0,0,1.339475,-39.65244,-159.5001)"
         sodipodi:ry="5.290741"
         sodipodi:rx="3.7707062"
         sodipodi:cy="464.55283"
         sodipodi:cx="49.378899"
         d="m 53.149605,464.55283 c 0,2.92199 -1.688203,5.29074 -3.770706,5.29074 -2.082504,0 -3.770707,-2.36875 -3.770707,-5.29074 0,-2.922 1.688203,-5.29075 3.770707,-5.29075 2.082503,0 3.770706,2.36875 3.770706,5.29075 z"
         id="path1095"
         style="fill:none;stroke:#ffffff;stroke-width:1.96959996;stroke-linecap:butt;stroke-linejoin:miter;stroke-opacity:1;stroke-dasharray:none"
         sodipodi:type="arc" /><path
         inkscape:connector-curvature="0"
         sodipodi:nodetypes="cc"
         id="path1096"
         d="m 38.97637,469.8434 28.34646,0"
         style="font-size:12px;fill:none;stroke:#ffffff;stroke-width:3.125;stroke-dasharray:none" /><path
         inkscape:connector-curvature="0"
         sodipodi:nodetypes="cc"
         id="path1097"
         d="m 38.97637,476.93 28.34646,0"
         style="font-size:12px;fill:none;stroke:#ffffff;stroke-width:3.125;stroke-dasharray:none" /><path
         inkscape:connector-curvature="0"
         sodipodi:nodetypes="cc"
         id="path1100"
         d="m 38.97637,484.0167 28.34646,0"
         style="font-size:12px;fill:none;stroke:#ffffff;stroke-width:3.125" /></g></g><g
     transform="matrix(0.500002,0,0,0.500002,77.95243,300.472)"
     id="g1101"><rect
       y="452.12695"
       x="81.496056"
       height="35.433102"
       width="35.433064"
       id="rect1102"
       style="font-size:12px;fill:#000000;fill-opacity:1;fill-rule:evenodd;stroke-width:1" /><g
       transform="matrix(0.818182,0,0,0.818191,13.69002,83.97211)"
       id="g1103"><path
         transform="translate(0,-3.543335)"
         sodipodi:ry="19.488174"
         sodipodi:rx="19.48819"
         sodipodi:cy="475.15851"
         sodipodi:cx="104.52756"
         d="m 124.01575,475.15851 c 0,10.76302 -8.72516,19.48817 -19.48819,19.48817 -10.763033,0 -19.488192,-8.72515 -19.488192,-19.48817 0,-10.76302 8.725159,-19.48818 19.488192,-19.48818 10.76303,0 19.48819,8.72516 19.48819,19.48818 z"
         id="path1107"
         style="fill:none;stroke:#ffffff;stroke-width:1pt;stroke-linecap:butt;stroke-linejoin:miter;stroke-opacity:1"
         sodipodi:type="arc" /><g
         transform="translate(3.543309,0.600159)"
         id="g1110"><path
           inkscape:connector-curvature="0"
           transform="translate(-1.77165,0)"
           sodipodi:nodetypes="cccccc"
           id="path1112"
           d="m 102.1957,487.5601 4.1035,-18.5892 10.6299,-3.5433 -28.3464,0 10.62992,3.5433 2.98308,18.5892 z"
           style="font-size:12px;fill:#ffffff;fill-rule:evenodd;stroke:#ffffff;stroke-width:1" /><path
           transform="translate(-3.543309,-8.287048)"
           sodipodi:ry="5.3149567"
           sodipodi:rx="5.3149605"
           sodipodi:cy="468.0719"
           sodipodi:cx="104.52756"
           d="m 109.84252,468.0719 c 0,2.93537 -2.37959,5.31496 -5.31496,5.31496 -2.93537,0 -5.314963,-2.37959 -5.314963,-5.31496 0,-2.93537 2.379593,-5.31496 5.314963,-5.31496 2.93537,0 5.31496,2.37959 5.31496,5.31496 z"
           id="path1113"
           style="fill:#ffffff;fill-opacity:1;fill-rule:evenodd;stroke:none"
           sodipodi:type="arc" /></g></g></g><g
     transform="matrix(0.500002,0,0,0.500002,70.86579,300.472)"
     id="g1114"><rect
       transform="translate(-9.909271e-6,0)"
       y="452.12701"
       x="141.73228"
       height="35.433075"
       width="35.433075"
       id="rect1115"
       style="font-size:12px;fill-rule:evenodd" /><g
       id="g1116"><path
         transform="matrix(0.72,0,0,0.72,44.64565,131.556)"
         sodipodi:ry="3.5432892"
         sodipodi:rx="3.5433044"
         sodipodi:cy="469.84357"
         sodipodi:cx="159.44882"
         d="m 162.99213,469.84357 c 0,1.9569 -1.58639,3.54329 -3.54331,3.54329 -1.95691,0 -3.5433,-1.58639 -3.5433,-3.54329 0,-1.95691 1.58639,-3.54329 3.5433,-3.54329 1.95692,0 3.54331,1.58638 3.54331,3.54329 z"
         id="path1119"
         style="font-size:12px;fill:#ffffff;fill-rule:evenodd;stroke-width:1"
         sodipodi:type="arc" /><path
         transform="matrix(0.766045,-0.642787,0.857053,1.021398,-364.9199,48.88373)"
         sodipodi:ry="10.629913"
         sodipodi:rx="3.5433121"
         sodipodi:cy="494.6467"
         sodipodi:cx="131.10236"
         d="m 134.64567,494.6467 c 0,5.87074 -1.5864,10.62991 -3.54331,10.62991 -1.95692,0 -3.54332,-4.75917 -3.54332,-10.62991 0,-5.87074 1.5864,-10.62992 3.54332,-10.62992 1.95691,0 3.54331,4.75918 3.54331,10.62992 z"
         id="path1120"
         style="font-size:12px;fill:none;stroke:#fffffc;stroke-width:0.5413;stroke-dasharray:none"
         sodipodi:type="arc" /><path
         transform="matrix(-0.422617,-0.906308,1.208418,-0.563492,-382.8835,867.3918)"
         sodipodi:ry="10.629913"
         sodipodi:rx="3.5433121"
         sodipodi:cy="494.6467"
         sodipodi:cx="131.10236"
         d="m 134.64567,494.6467 c 0,5.87074 -1.5864,10.62991 -3.54331,10.62991 -1.95692,0 -3.54332,-4.75917 -3.54332,-10.62991 0,-5.87074 1.5864,-10.62992 3.54332,-10.62992 1.95691,0 3.54331,4.75918 3.54331,10.62992 z"
         id="path1121"
         style="font-size:12px;fill:none;stroke:#fffffc;stroke-width:0.5413;stroke-dasharray:none"
         sodipodi:type="arc" /><path
         transform="matrix(-0.965925,-0.258821,0.345097,-1.287907,115.3843,1140.834)"
         sodipodi:ry="10.629913"
         sodipodi:rx="3.5433121"
         sodipodi:cy="494.6467"
         sodipodi:cx="131.10236"
         d="m 134.64567,494.6467 c 0,5.87074 -1.5864,10.62991 -3.54331,10.62991 -1.95692,0 -3.54332,-4.75917 -3.54332,-10.62991 0,-5.87074 1.5864,-10.62992 3.54332,-10.62992 1.95691,0 3.54331,4.75918 3.54331,10.62992 z"
         id="path1124"
         style="font-size:12px;fill:none;stroke:#fffffc;stroke-width:0.5413;stroke-dasharray:none"
         sodipodi:type="arc" /><path
         transform="matrix(0.24562,0,0,0.24562,109.2649,361.1344)"
         sodipodi:ry="3.5432892"
         sodipodi:rx="3.5433044"
         sodipodi:cy="469.84357"
         sodipodi:cx="159.44882"
         d="m 162.99213,469.84357 c 0,1.9569 -1.58639,3.54329 -3.54331,3.54329 -1.95691,0 -3.5433,-1.58639 -3.5433,-3.54329 0,-1.95691 1.58639,-3.54329 3.5433,-3.54329 1.95692,0 3.54331,1.58638 3.54331,3.54329 z"
         id="path1125"
         style="font-size:12px;fill:#ffffff;fill-rule:evenodd;stroke-width:1"
         sodipodi:type="arc" /><path
         transform="matrix(0.24562,0,0,0.24562,111.0052,345.8915)"
         sodipodi:ry="3.5432892"
         sodipodi:rx="3.5433044"
         sodipodi:cy="469.84357"
         sodipodi:cx="159.44882"
         d="m 162.99213,469.84357 c 0,1.9569 -1.58639,3.54329 -3.54331,3.54329 -1.95691,0 -3.5433,-1.58639 -3.5433,-3.54329 0,-1.95691 1.58639,-3.54329 3.5433,-3.54329 1.95692,0 3.54331,1.58638 3.54331,3.54329 z"
         id="path1126"
         style="font-size:12px;fill:#ffffff;fill-rule:evenodd;stroke-width:1"
         sodipodi:type="arc" /><path
         transform="matrix(0.24562,0,0,0.24562,125.1678,342.471)"
         sodipodi:ry="3.5432892"
         sodipodi:rx="3.5433044"
         sodipodi:cy="469.84357"
         sodipodi:cx="159.44882"
         d="m 162.99213,469.84357 c 0,1.9569 -1.58639,3.54329 -3.54331,3.54329 -1.95691,0 -3.5433,-1.58639 -3.5433,-3.54329 0,-1.95691 1.58639,-3.54329 3.5433,-3.54329 1.95692,0 3.54331,1.58638 3.54331,3.54329 z"
         id="path1127"
         style="font-size:12px;fill:#ffffff;fill-rule:evenodd;stroke-width:1"
         sodipodi:type="arc" /></g></g></g><rect
   y="24.342962"
   x="10.964613"
   height="16.769964"
   width="160.24992"
   id="namebox"
   style="font-size:12px;fill:#ffffff;fill-rule:evenodd;stroke:#000000"
   inkscape:label="#rect1156"
   ry="5.6497712" /><text
   transform="scale(0.9906422,1.0094462)"
   xml:space="default"
   sodipodi:linespacing="100%"
   id="text1158"
   y="20.193047"
   x="11.743358"
   style="font-size:11.88768768px;font-weight:bold;line-height:100%;font-family:Bitstream Vera Sans"><tspan
     id="tspan1161"
     sodipodi:role="line"
     y="20.193047"
     x="11.743358">Ibiza Frigate</tspan></text>
<rect
   y="105.21736"
   x="20.891918"
   height="14.173228"
   width="13.909196"
   id="rect1016"
   style="font-size:12px;fill:#ffffff;fill-rule:evenodd;stroke:#000000;stroke-width:0.79251176" /><rect
   y="87.565666"
   x="20.89192"
   height="14.173227"
   width="13.909195"
   id="rect1017"
   style="font-size:12px;fill:#ffffff;fill-rule:evenodd;stroke:#000000;stroke-width:0.79251176" /><g
   style="font-size:12px"
   transform="matrix(0.981372,0,0,1,-123.1334,-504.2728)"
   id="g1219"><rect
     transform="translate(1.723747,-1.956085)"
     y="629.29242"
     x="145.27559"
     height="14.173228"
     width="14.173215"
     id="rect1218"
     style="font-size:12px;fill:#ffffff;fill-rule:evenodd;stroke:#000000;stroke-width:0.79999799" /><polygon
     d="m 155.90552,666.14173 -68.390443,-37.55691 -69.710064,35.04683 14.584934,-76.6489 -54.873114,-55.46814 77.40443,-9.81472 35.796616,-69.32803 33.253631,70.58307 76.99664,12.62107 -56.85255,53.43745 z"
     inkscape:randomized="0"
     inkscape:rounded="0"
     inkscape:flatsided="false"
     transform="matrix(0.04799999,0,0,0.04799999,149.8023,607.5786)"
     points="155.9055,666.1417 87.51508,628.5848 17.80502,663.6317 32.38995,586.9827 -22.48316,531.5146 54.92126,521.6999 90.71788,452.3719 123.9715,522.955 200.9681,535.576 144.1156,589.0134 155.9055,666.1417 "
     sodipodi:arg2="1.5889701"
     sodipodi:arg1="0.96065152"
     sodipodi:r2="58.747353"
     sodipodi:r1="117.49471"
     sodipodi:cy="569.84717"
     sodipodi:cx="88.58268"
     sodipodi:sides="5"
     id="polygon1217"
     style="font-size:12px;fill:#000000;fill-opacity:1;fill-rule:evenodd;stroke-width:1"
     sodipodi:type="star" /></g><rect
   style="color:#000000;fill:#ffffff;fill-opacity:1;fill-rule:evenodd;stroke:#000000;stroke-width:0.86878639;stroke-linecap:round;stroke-linejoin:round;stroke-miterlimit:4;stroke-opacity:1;stroke-dasharray:none;stroke-dashoffset:0;marker:none;visibility:visible;display:inline;overflow:visible"
   id="rect2371"
   width="30.411802"
   height="12.514148"
   x="177.16536"
   y="20.556213" /><rect
   style="color:#000000;fill:#ffffff;fill-opacity:1;fill-rule:evenodd;stroke:#000000;stroke-width:0.86878639;stroke-linecap:round;stroke-linejoin:round;stroke-miterlimit:4;stroke-opacity:1;stroke-dasharray:none;stroke-dashoffset:0;marker:none;visibility:visible;display:inline;overflow:visible"
   id="rect3246"
   width="30.411802"
   height="12.514148"
   x="177.16536"
   y="44.099308" /><text
   xml:space="preserve"
   style="font-size:8px;font-style:oblique;font-variant:normal;font-weight:normal;font-stretch:normal;text-align:start;line-height:100%;writing-mode:lr-tb;text-anchor:start;fill:#000000;fill-opacity:1;stroke:none;font-family:Bitstream Vera Sans"
   x="177.16536"
   y="18.368111"
   id="text3248"
   sodipodi:linespacing="100%"><tspan
     sodipodi:role="line"
     id="tspan3250"
     x="177.16536"
     y="18.368111">Mass</tspan></text>
<text
   xml:space="preserve"
   style="font-size:8px;font-style:oblique;font-variant:normal;font-weight:normal;font-stretch:normal;text-align:start;line-height:100%;writing-mode:lr-tb;text-anchor:start;fill:#000000;fill-opacity:1;stroke:none;font-family:Bitstream Vera Sans"
   x="177.16536"
   y="42.162769"
   id="text3252"
   sodipodi:linespacing="100%"><tspan
     sodipodi:role="line"
     id="tspan3254"
     x="177.16536"
     y="42.162769">Points</tspan></text>
<text
   xml:space="preserve"
   style="font-size:10px;font-style:normal;font-variant:normal;font-weight:normal;font-stretch:normal;text-align:start;line-height:100%;writing-mode:lr-tb;text-anchor:start;fill:#000000;fill-opacity:1;stroke:none;font-family:Bitstream Vera Sans"
   x="188.04449"
   y="30.542311"
   id="text3256"
   sodipodi:linespacing="100%"><tspan
     sodipodi:role="line"
     id="tspan3258"
     x="188.04449"
     y="30.542311">18</tspan></text>
<text
   xml:space="preserve"
   style="font-size:10px;font-style:normal;font-variant:normal;font-weight:normal;font-stretch:normal;text-align:start;line-height:100%;writing-mode:lr-tb;text-anchor:start;fill:#000000;fill-opacity:1;stroke:none;font-family:Bitstream Vera Sans"
   x="186.32796"
   y="53.97538"
   id="text3260"
   sodipodi:linespacing="100%"><tspan
     sodipodi:role="line"
     id="tspan3262"
     x="186.32796"
     y="53.97538">60</tspan></text>
<rect
   y="69.71949"
   x="20.89192"
   height="14.173227"
   width="13.909195"
   id="rect3274"
   style="font-size:12px;fill:#ffffff;fill-rule:evenodd;stroke:#000000;stroke-width:0.79251176" /><g
   id="g982"
   transform="matrix(0.5,0,0,0.5,-26.62184,-137.3881)"><path
   inkscape:connector-curvature="0"
   style="fill:#ffffff;fill-opacity:1;fill-rule:evenodd;stroke:#000000;stroke-width:1pt;stroke-linecap:butt;stroke-linejoin:miter;stroke-opacity:1"
   d="m 96.63792,576.1428 0,35.433 70.86608,0 0,-35.433 -35.433,-17.7166 -35.43308,17.7166 z"
   id="path964"
   sodipodi:nodetypes="cccccc"
   transform="translate(-7.961168,5.721832)" /><text
   style="font-size:40px;font-style:normal;font-variant:normal;font-weight:bold;font-stretch:normal;text-align:start;line-height:100%;writing-mode:lr-tb;text-anchor:start;fill:#000000;fill-opacity:1;stroke:none;font-family:Bitstream Vera Sans"
   x="110.2133"
   y="605.30292"
   id="text934"
   sodipodi:linespacing="100%"
   xml:space="default"><tspan
     x="110.2133"
     y="605.30292"
     sodipodi:role="line"
     id="tspan950">6</tspan></text>





</g><g
   id="g1240"
   transform="matrix(0.225,0,0,0.225,144.63223,-22.367555)"><g
   id="g1241"
   transform="translate(-47.66092,-159.6258)"
   style="fill:#ffffff;fill-opacity:1"><path
     inkscape:connector-curvature="0"
     style="font-size:12px;fill:#ffffff;fill-opacity:1;fill-rule:evenodd;stroke:#000600"
     d="m 373.375,558.3391 -1,0 -26.4375,-46.4375 c 7.375,-4.5 16.25,-6.375 25.4375,-6.625 l 2.9375,0 c 9.4375,0.125 18.125,2.875 25.625,7.5 l -26.5625,45.5625 z"
     id="path1242"
     transform="translate(-248.1435,70.86618)"
     sodipodi:nodetypes="ccccccc" /><path
     inkscape:connector-curvature="0"
     style="font-size:12px;fill:#ffffff;fill-opacity:1;fill-rule:evenodd;stroke:#000600"
     d="m 372.149,557.5602 -0.5,0.866 -52.7372,-0.2813 c -0.2097,-8.637 1.9065,-17.3023 6.2838,-25.3839 l 1.4687,-2.544 c 4.827,-8.1106 11.5523,-14.2592 19.3077,-18.4419 l 26.177,45.7851 z"
     id="path1243"
     transform="translate(-248.1435,70.86618)" /><path
     inkscape:connector-curvature="0"
     style="font-size:12px;fill:#ffffff;fill-opacity:1;fill-rule:evenodd;stroke:#000600"
     d="m 371.5472,558.6488 0.5,0.8661 -26.6123,45.531 c -7.5847,-4.1369 -14.0309,-10.3022 -18.8412,-18.1338 l -1.4688,-2.544 c -4.6105,-8.2356 -6.5726,-17.1342 -6.3173,-25.9419 l 52.7396,0.2226 z"
     id="path1244"
     transform="translate(-248.1435,70.86618)" /><path
     inkscape:connector-curvature="0"
     style="font-size:12px;fill:#ffffff;fill-opacity:1;fill-rule:evenodd;stroke:#000600;stroke-width:0.99999899"
     d="m 372.1025,558.4262 1.0001,0 26.1248,45.8125 c -7.375,4.5 -15.9374,7 -25.1249,7.25 l -2.9376,0 c -9.4375,-0.125 -18.4374,-2.25 -25.9375,-6.875 l 26.8751,-46.1875 z"
     id="path1245"
     transform="translate(-248.1435,70.86618)"
     sodipodi:nodetypes="ccccccc" /><path
     inkscape:connector-curvature="0"
     style="font-size:12px;fill:#ffffff;fill-opacity:1;fill-rule:evenodd;stroke:#000600;stroke-width:0.99999899"
     d="m 371.9454,559.2923 0.5,-0.8661 52.7372,0.2815 c 0.2096,8.637 -1.9065,17.3022 -6.2838,25.3838 l -1.4688,2.5441 c -4.827,8.1106 -11.5522,14.2591 -19.3077,18.4419 l -26.1769,-45.7852 z"
     id="path1246"
     transform="translate(-248.1435,70.86618)" /><path
     inkscape:connector-curvature="0"
     style="font-size:12px;fill:#ffffff;fill-opacity:1;fill-rule:evenodd;stroke:#000600;stroke-width:0.99999797"
     d="m 372.5473,558.2034 -0.5001,-0.866 26.6124,-45.531 c 7.5847,4.137 14.0309,10.3022 18.8411,18.1338 l 1.4689,2.5441 c 4.6104,8.2356 6.5726,17.134 6.3173,25.9419 l -52.7396,-0.2228 z"
     id="path1247"
     transform="translate(-248.1435,70.86618)" /><path
     sodipodi:type="arc"
     style="font-size:12px;fill:#ffffff;fill-opacity:1;fill-rule:evenodd;stroke:#000600"
     id="path1248"
     d="m 283.46457,540.70972 c 0,19.56914 -15.86393,35.43307 -35.43308,35.43307 -19.56914,0 -35.43307,-15.86393 -35.43307,-35.43307 0,-19.56915 15.86393,-35.43308 35.43307,-35.43308 19.56915,0 35.43308,15.86393 35.43308,35.43308 z"
     sodipodi:cx="248.03149"
     sodipodi:cy="540.70972"
     sodipodi:rx="35.433075"
     sodipodi:ry="35.433075"
     transform="translate(-124.1277,88.58272)" /></g><text
   style="font-size:48px;font-style:normal;font-weight:bold;line-height:100%;writing-mode:lr-tb;text-anchor:start;fill:#000000;fill-opacity:1;stroke:none;font-family:Bitstream Vera Sans"
   x="58.48893"
   y="487.11914"
   id="text1249"
   sodipodi:linespacing="100%"
   xml:space="default"><tspan
     x="58.48893"
     y="487.11914"
     sodipodi:role="line"
     id="tspan1250">1</tspan></text>





</g><g
   id="g2435"
   transform="matrix(0.674582,0,0,0.674582,22.21835,-80.82117)"><g
   transform="matrix(0.75,0,0,0.75,44.76009,-59.32947)"
   id="g2347"><rect
     y="540.70972"
     x="35.433071"
     height="35.433044"
     width="35.433071"
     id="rect2349"
     style="font-size:12px;fill:#feffff;fill-opacity:1;fill-rule:evenodd;stroke:#000000;stroke-width:1;stroke-opacity:1" /><path
     inkscape:connector-curvature="0"
     sodipodi:nodetypes="csss"
     id="path2351"
     d="m 35.43307,565.5128 c 0,-7.0866 3.54331,-17.7165 10.62992,-17.7165 7.08661,0 7.08661,21.2599 14.17323,21.2599 7.08661,0 10.62992,-10.63 10.62992,-17.7166"
     style="fill:none;stroke:#000000;stroke-width:1pt;stroke-linecap:butt;stroke-linejoin:miter;stroke-opacity:1" /></g><text
   sodipodi:linespacing="100%"
   id="text2357"
   y="359.79156"
   x="86.122787"
   style="font-size:14.79462528px;font-style:normal;font-variant:normal;font-weight:bold;font-stretch:normal;text-align:start;line-height:100%;writing-mode:lr-tb;text-anchor:start;fill:#000000;fill-opacity:1;stroke:none;font-family:Bitstream Vera Sans"
   xml:space="preserve"><tspan
     y="359.79156"
     x="86.122787"
     id="tspan2359"
     sodipodi:role="line">2</tspan></text>



</g><g
   id="g1198"
   transform="matrix(0.454546,0,0,0.454546,-88.582899,52.492365)"><path
     sodipodi:type="arc"
     style="fill:#fffffe;fill-opacity:1;fill-rule:evenodd;stroke:#0a0000;stroke-width:6.25;stroke-linecap:butt;stroke-linejoin:miter;stroke-opacity:1;stroke-dasharray:none"
     id="path1197"
     d="m 513.77942,212.95381 c 0,42.07367 -34.10742,76.18111 -76.18106,76.18111 -42.07364,0 -76.18106,-34.10744 -76.18106,-76.18111 0,-42.07366 34.10742,-76.1811 76.18106,-76.1811 42.07364,0 76.18106,34.10744 76.18106,76.1811 z"
     sodipodi:cx="437.59836"
     sodipodi:cy="212.95381"
     sodipodi:rx="76.181061"
     sodipodi:ry="76.181107"
     transform="matrix(0.209302,0,0,0.209303,287.5436,23.10614)" /><path
     inkscape:connector-curvature="0"
     style="font-size:12px;fill-rule:evenodd;stroke:#0a0000;stroke-width:1.29099202"
     d="m 368.5039,44.64671 21.2599,0 -10.6299,17.71652 -10.63,-17.71652 z"
     id="path1196"
     sodipodi:nodetypes="cccc" /></g><g
   id="g2594"
   transform="matrix(0.225,0,0,0.225,109.19913,-22.367555)"><g
   id="g2596"
   transform="translate(-47.66092,-159.6258)"
   style="fill:#ffffff;fill-opacity:1"><path
     inkscape:connector-curvature="0"
     style="font-size:12px;fill:#ffffff;fill-opacity:1;fill-rule:evenodd;stroke:#000600"
     d="m 373.375,558.3391 -1,0 -26.4375,-46.4375 c 7.375,-4.5 16.25,-6.375 25.4375,-6.625 l 2.9375,0 c 9.4375,0.125 18.125,2.875 25.625,7.5 l -26.5625,45.5625 z"
     id="path2598"
     transform="translate(-248.1435,70.86618)"
     sodipodi:nodetypes="ccccccc" /><path
     inkscape:connector-curvature="0"
     style="font-size:12px;fill:#ffffff;fill-opacity:1;fill-rule:evenodd;stroke:#000600"
     d="m 372.149,557.5602 -0.5,0.866 -52.7372,-0.2813 c -0.2097,-8.637 1.9065,-17.3023 6.2838,-25.3839 l 1.4687,-2.544 c 4.827,-8.1106 11.5523,-14.2592 19.3077,-18.4419 l 26.177,45.7851 z"
     id="path2600"
     transform="translate(-248.1435,70.86618)" /><path
     inkscape:connector-curvature="0"
     style="font-size:12px;fill:#ffffff;fill-opacity:1;fill-rule:evenodd;stroke:#000600"
     d="m 371.5472,558.6488 0.5,0.8661 -26.6123,45.531 c -7.5847,-4.1369 -14.0309,-10.3022 -18.8412,-18.1338 l -1.4688,-2.544 c -4.6105,-8.2356 -6.5726,-17.1342 -6.3173,-25.9419 l 52.7396,0.2226 z"
     id="path2602"
     transform="translate(-248.1435,70.86618)" /><path
     inkscape:connector-curvature="0"
     style="font-size:12px;fill:#ffffff;fill-opacity:1;fill-rule:evenodd;stroke:#000600;stroke-width:0.99999899"
     d="m 372.1025,558.4262 1.0001,0 26.1248,45.8125 c -7.375,4.5 -15.9374,7 -25.1249,7.25 l -2.9376,0 c -9.4375,-0.125 -18.4374,-2.25 -25.9375,-6.875 l 26.8751,-46.1875 z"
     id="path2604"
     transform="translate(-248.1435,70.86618)"
     sodipodi:nodetypes="ccccccc" /><path
     inkscape:connector-curvature="0"
     style="font-size:12px;fill:#ffffff;fill-opacity:1;fill-rule:evenodd;stroke:#000600;stroke-width:0.99999899"
     d="m 371.9454,559.2923 0.5,-0.8661 52.7372,0.2815 c 0.2096,8.637 -1.9065,17.3022 -6.2838,25.3838 l -1.4688,2.5441 c -4.827,8.1106 -11.5522,14.2591 -19.3077,18.4419 l -26.1769,-45.7852 z"
     id="path2606"
     transform="translate(-248.1435,70.86618)" /><path
     inkscape:connector-curvature="0"
     style="font-size:12px;fill:#ffffff;fill-opacity:1;fill-rule:evenodd;stroke:#000600;stroke-width:0.99999797"
     d="m 372.5473,558.2034 -0.5001,-0.866 26.6124,-45.531 c 7.5847,4.137 14.0309,10.3022 18.8411,18.1338 l 1.4689,2.5441 c 4.6104,8.2356 6.5726,17.134 6.3173,25.9419 l -52.7396,-0.2228 z"
     id="path2608"
     transform="translate(-248.1435,70.86618)" /><path
     sodipodi:type="arc"
     style="font-size:12px;fill:#ffffff;fill-opacity:1;fill-rule:evenodd;stroke:#000600"
     id="path2610"
     d="m 283.46457,540.70972 c 0,19.56914 -15.86393,35.43307 -35.43308,35.43307 -19.56914,0 -35.43307,-15.86393 -35.43307,-35.43307 0,-19.56915 15.86393,-35.43308 35.43307,-35.43308 19.56915,0 35.43308,15.86393 35.43308,35.43308 z"
     sodipodi:cx="248.03149"
     sodipodi:cy="540.70972"
     sodipodi:rx="35.433075"
     sodipodi:ry="35.433075"
     transform="translate(-124.1277,88.58272)" /></g><text
   style="font-size:48px;font-style:normal;font-weight:bold;line-height:100%;writing-mode:lr-tb;text-anchor:start;fill:#000000;fill-opacity:1;stroke:none;font-family:Bitstream Vera Sans"
   x="58.48893"
   y="487.11914"
   id="text2612"
   sodipodi:linespacing="100%"
   xml:space="default"><tspan
     x="58.48893"
     y="487.11914"
     sodipodi:role="line"
     id="tspan2614">1</tspan></text>





</g><rect
   y="87.565666"
   x="38.473629"
   height="14.173227"
   width="13.909195"
   id="rect1017-3"
   style="font-size:12px;fill:#ffffff;fill-rule:evenodd;stroke:#000000;stroke-width:0.79251176" /><rect
   y="69.71949"
   x="38.473629"
   height="14.173227"
   width="13.909195"
   id="rect3274-6"
   style="font-size:12px;fill:#ffffff;fill-rule:evenodd;stroke:#000000;stroke-width:0.79251176" /><g
   id="g3196"
   transform="matrix(0.144298,0,0,0.144298,87.755785,96.667098)"><path
     transform="matrix(1.439874,0,0,1.442911,542.9225,-70.01707)"
     d="m -67.776051,117.88706 c 0,19.71136 -15.979216,35.69058 -35.690579,35.69058 -19.71136,0 -35.69058,-15.97922 -35.69058,-35.69058 0,-19.71136 15.97922,-35.690576 35.69058,-35.690576 19.711363,0 35.690579,15.979216 35.690579,35.690576 z"
     sodipodi:ry="35.690578"
     sodipodi:rx="35.690578"
     sodipodi:cy="117.88706"
     sodipodi:cx="-103.46663"
     id="path3198"
     style="color:#000000;fill:#000000;fill-opacity:1;fill-rule:evenodd;stroke:#000000;stroke-width:3.54330707;stroke-linecap:round;stroke-linejoin:miter;stroke-miterlimit:4;stroke-opacity:1;stroke-dasharray:none;stroke-dashoffset:0;marker:none;visibility:visible;display:inline;overflow:visible"
     sodipodi:type="arc" /><path
     inkscape:connector-curvature="0"
     style="color:#000000;fill:#ffffff;fill-opacity:1;fill-rule:evenodd;stroke:#000000;stroke-width:3.54330707;stroke-linecap:round;stroke-linejoin:miter;stroke-miterlimit:4;stroke-opacity:1;stroke-dasharray:none;stroke-dashoffset:0;marker:none;visibility:visible;display:inline;overflow:visible"
     d="m 355.66585,63.989718 c -8.85381,9.253182 -14.375,21.740436 -14.375,35.562502 0,14.33304 5.87275,27.28585 15.3125,36.625 9.1827,-9.1827 35.625,-35.625 35.625,-35.625 l -36.5625,-36.562502 z"
     id="path3200" /><path
     inkscape:connector-curvature="0"
     style="color:#000000;fill:#ffffff;fill-opacity:1;fill-rule:evenodd;stroke:#000000;stroke-width:3.54330707;stroke-linecap:round;stroke-linejoin:miter;stroke-miterlimit:4;stroke-opacity:1;stroke-dasharray:none;stroke-dashoffset:0;marker:none;visibility:visible;display:inline;overflow:visible"
     d="M 430.54085,63.036593 C 420.08503,73.492419 393.3221,100.25534 393.3221,100.25534 l 36.875,36.875 c 9.82155,-9.38152 16.03125,-22.52726 16.03125,-37.187496 0,-14.501403 -6.05192,-27.544047 -15.6875,-36.906251 z"
     id="path3202" /></g></svg>