<?xml version="1.0" encoding="UTF-8" standalone="no"?>
<!-- Created with Sodipodi ("http://www.sodipodi.com/") -->

<svg
   id="svg1290"
   sodipodi:version="0.32"
   width="81.080002mm"
   height="70.260002mm"
   xml:space="preserve"
   sodipodi:docname="048_kronprinz_wilhelm.svg"
   inkscape:version="1.1.2 (0a00cf5339, 2022-02-04)"
   version="1.0"
   inkscape:export-filename="/home/sam/rpg/gzg/trunk/fullthrust/nsl/oldstyle/kronprinz_wilhelm.png"
   inkscape:export-xdpi="90"
   inkscape:export-ydpi="90"
   xmlns:inkscape="http://www.inkscape.org/namespaces/inkscape"
   xmlns:sodipodi="http://sodipodi.sourceforge.net/DTD/sodipodi-0.dtd"
   xmlns="http://www.w3.org/2000/svg"
   xmlns:svg="http://www.w3.org/2000/svg"
   xmlns:rdf="http://www.w3.org/1999/02/22-rdf-syntax-ns#"
   xmlns:cc="http://creativecommons.org/ns#"
   xmlns:dc="http://purl.org/dc/elements/1.1/"><metadata
   id="metadata71"><rdf:RDF><cc:Work
       rdf:about=""><dc:format>image/svg+xml</dc:format><dc:type
         rdf:resource="http://purl.org/dc/dcmitype/StillImage" /><dc:title>Eilenburg Frigate</dc:title><dc:creator><cc:Agent><dc:title>Samuel Penn</dc:title></cc:Agent></dc:creator><dc:rights><cc:Agent><dc:title /></cc:Agent></dc:rights><dc:publisher><cc:Agent><dc:title>http://www.glendale.org.uk/ft</dc:title></cc:Agent></dc:publisher><dc:subject><rdf:Bag><rdf:li>fullthrust</rdf:li></rdf:Bag></dc:subject><cc:license
         rdf:resource="http://www.glendale.org.uk/bsd.txt" /><dc:description>A short range patrol vessel designed for anti-pirate and escort duty.</dc:description></cc:Work></rdf:RDF></metadata><defs
   id="defs1292">









</defs><sodipodi:namedview
   id="base"
   inkscape:zoom="2.8284271"
   inkscape:cx="115.78874"
   inkscape:cy="139.83037"
   inkscape:window-width="1200"
   inkscape:window-height="954"
   inkscape:window-x="0"
   inkscape:window-y="87"
   inkscape:current-layer="g3712"
   showgrid="true"
   inkscape:grid-points="true"
   gridtolerance="1mm"
   showborder="true"
   pagecolor="#ffffff"
   inkscape:pageopacity="0"
   inkscape:window-maximized="0"
   bordercolor="#666666"
   borderopacity="1.0"
   inkscape:pageshadow="2"
   inkscape:pagecheckerboard="0"
   inkscape:document-units="mm"><inkscape:grid
     id="GridFromPre046Settings"
     type="xygrid"
     originx="0"
     originy="0"
     spacingx="20.15748"
     spacingy="20.15748"
     color="#0000ff"
     empcolor="#0000ff"
     opacity="0.2"
     empopacity="0.4"
     empspacing="10" /></sodipodi:namedview>














<g
   id="g3712"><rect
   style="font-size:12px;fill:#e6e6e6;fill-rule:evenodd;stroke:#000000;stroke-width:1.16987"
   id="rect1157"
   width="258.6619"
   height="218.81645"
   x="5.3300376"
   y="6.5168824" /><g
   id="g1012"
   transform="matrix(0.490686,0,0,0.5,41.31552,-99.047957)"
   style="font-size:12px"><rect
     style="font-size:12px;fill:#ffffff;fill-rule:evenodd;stroke:#000000;stroke-width:1.33333;stroke-dasharray:none"
     id="rect1013"
     width="37.795246"
     height="37.795235"
     x="377.95276"
     y="520.06421" /><ellipse
     style="fill:#000000;fill-opacity:1;fill-rule:evenodd;stroke:#000600;stroke-width:1.06667pt;stroke-linecap:butt;stroke-linejoin:miter;stroke-opacity:1"
     id="path1014"
     cx="396.85043"
     cy="538.96179"
     rx="9.4488182"
     ry="9.4488115" /></g><g
   id="g1130"
   transform="matrix(0.981372,0,0,1,85.094827,-364.82315)"
   style="font-size:12px"><path
     style="font-size:12px;fill:#ffffff;fill-opacity:1;fill-rule:evenodd;stroke:#000000;stroke-width:0.533333;stroke-dasharray:none"
     d="m 102.04724,557.85941 h 68.03148 l 3.77952,3.77942 v 18.8977 l -3.77952,3.77952 h -68.03148 l -3.779528,-3.77952 v -18.8977 z"
     id="path1129"
     sodipodi:nodetypes="ccccccccc" /><g
     id="g1088"
     transform="matrix(0.500002,0,0,0.500002,84.094144,321.44832)"><rect
       style="font-size:12px;fill:#000000;fill-opacity:1;fill-rule:evenodd;stroke-width:1.06667"
       id="rect1089"
       width="37.795269"
       height="37.795273"
       x="35.905518"
       y="480.37891" /><g
       id="g1090"
       transform="matrix(0.875,0,0,0.875003,5.1968597,60.754624)"><ellipse
         style="fill:none;fill-opacity:1;fill-rule:evenodd;stroke:#ffffff;stroke-width:3.33336;stroke-linecap:butt;stroke-linejoin:miter;stroke-dasharray:none;stroke-opacity:1"
         id="path1095"
         cx="56.692928"
         cy="493.60724"
         rx="7.5590572"
         ry="7.5592694" /><path
         style="font-size:12px;fill:none;fill-rule:evenodd;stroke:#ffffff;stroke-width:3.33333;stroke-dasharray:none"
         d="M 41.574795,501.16629 H 71.811019"
         id="path1096"
         sodipodi:nodetypes="cc" /><path
         style="font-size:12px;fill:none;fill-rule:evenodd;stroke:#ffffff;stroke-width:3.33333;stroke-dasharray:none"
         d="M 41.574795,508.72533 H 71.811019"
         id="path1097"
         sodipodi:nodetypes="cc" /><path
         style="font-size:12px;fill:none;fill-rule:evenodd;stroke:#ffffff;stroke-width:3.33333"
         d="M 41.574795,516.28448 H 71.811019"
         id="path1100"
         sodipodi:nodetypes="cc" /></g></g><g
     id="g1101"
     transform="matrix(0.500002,0,0,0.500002,83.149259,320.50347)"><rect
       style="font-size:12px;fill:#000000;fill-opacity:1;fill-rule:evenodd;stroke-width:1.06667"
       id="rect1102"
       width="37.795269"
       height="37.795307"
       x="86.929123"
       y="482.26874" /><g
       id="g1103"
       transform="matrix(0.818182,0,0,0.818191,14.602688,89.570251)"><ellipse
         style="fill:none;fill-opacity:1;fill-rule:evenodd;stroke:#ffffff;stroke-width:1.06667pt;stroke-linecap:butt;stroke-linejoin:miter;stroke-opacity:1"
         id="path1107"
         cx="111.49606"
         cy="503.05618"
         rx="20.787403"
         ry="20.787386" /><g
         id="g1110"
         transform="translate(3.7795296,0.6401696)"><path
           style="font-size:12px;fill:#ffffff;fill-rule:evenodd;stroke:#ffffff;stroke-width:1.06667"
           d="m 107.11899,520.06411 4.37706,-19.82848 11.33856,-3.77952 H 92.598453 l 11.338577,3.77952 z"
           id="path1112"
           sodipodi:nodetypes="cccccc" /><ellipse
           style="fill:#ffffff;fill-opacity:1;fill-rule:evenodd;stroke:none;stroke-width:1.06667pt;stroke-linecap:butt;stroke-linejoin:miter;stroke-opacity:1"
           id="path1113"
           cx="107.71653"
           cy="490.43716"
           rx="5.669291"
           ry="5.6692872" /></g></g></g><g
     id="g1114"
     transform="matrix(0.500002,0,0,0.500002,75.590176,320.50347)"><rect
       style="font-size:12px;fill-rule:evenodd;stroke-width:1.06667"
       id="rect1115"
       width="37.79528"
       height="37.79528"
       x="151.18109"
       y="482.26883" /><g
       id="g1116"><ellipse
         style="font-size:12px;fill:#ffffff;fill-rule:evenodd;stroke-width:0.768"
         id="path1119"
         cx="170.07872"
         cy="501.16626"
         rx="2.7212579"
         ry="2.721246" /><ellipse
         style="font-size:12px;fill:none;fill-rule:evenodd;stroke:#fffffc;stroke-width:0.66671;stroke-dasharray:none"
         id="path1120"
         transform="rotate(-39.999953)"
         cx="-191.85551"
         cy="493.24081"
         rx="3.7795329"
         ry="15.118167" /><ellipse
         style="font-size:12px;fill:none;fill-rule:evenodd;stroke:#fffffc;stroke-width:0.66671;stroke-dasharray:none"
         id="path1121"
         transform="rotate(-114.99993)"
         cx="-526.08997"
         cy="-57.656097"
         rx="3.7795315"
         ry="15.118182" /><ellipse
         style="font-size:12px;fill:none;fill-rule:evenodd;stroke:#fffffc;stroke-width:0.66671;stroke-dasharray:none"
         id="path1124"
         transform="rotate(-164.99988)"
         cx="-293.99738"
         cy="-440.06842"
         rx="3.7795317"
         ry="15.118178" /><ellipse
         style="font-size:12px;fill:#ffffff;fill-rule:evenodd;stroke-width:0.261995"
         id="path1125"
         cx="158.32397"
         cy="508.30655"
         rx="0.92832685"
         ry="0.92832285" /><ellipse
         style="font-size:12px;fill:#ffffff;fill-rule:evenodd;stroke-width:0.261995"
         id="path1126"
         cx="160.18028"
         cy="492.04745"
         rx="0.92832685"
         ry="0.92832285" /><ellipse
         style="font-size:12px;fill:#ffffff;fill-rule:evenodd;stroke-width:0.261995"
         id="path1127"
         cx="175.28706"
         cy="488.3989"
         rx="0.92832685"
         ry="0.92832285" /></g></g></g><rect
   ry="6.0264225"
   inkscape:label="#rect1156"
   style="font-size:12px;fill:#ffffff;fill-rule:evenodd;stroke:#000000;stroke-width:1.06667"
   id="namebox"
   width="207.21654"
   height="17.887962"
   x="11.808795"
   y="25.965826" /><text
   style="font-weight:bold;font-size:12.8px;line-height:0%;font-family:'Bitstream Vera Sans';stroke-width:1.06667"
   x="12.526241"
   y="21.539238"
   id="text1158"
   xml:space="default"
   transform="scale(0.9906422,1.0094462)"><tspan
     x="12.526241"
     y="21.539238"
     sodipodi:role="line"
     id="tspan1161"
     style="font-size:12.6802px;line-height:1;stroke-width:1.06667">Kronprinz Wilhelm Lt Cruiser</tspan></text>


<rect
   style="font-size:12px;fill:#ffffff;fill-rule:evenodd;stroke:#000000;stroke-width:0.845346"
   id="rect1016"
   width="14.836475"
   height="15.11811"
   x="13.157288"
   y="149.3201" /><rect
   style="font-size:12px;fill:#ffffff;fill-rule:evenodd;stroke:#000000;stroke-width:0.845346"
   id="rect1017"
   width="14.836474"
   height="15.118109"
   x="13.157288"
   y="130.77596" /><rect
   y="21.926628"
   x="225.24306"
   height="13.348424"
   width="32.439255"
   id="rect2371"
   style="color:#000000;display:inline;overflow:visible;visibility:visible;fill:#ffffff;fill-opacity:1;fill-rule:evenodd;stroke:#000000;stroke-width:0.926705;stroke-linecap:round;stroke-linejoin:round;stroke-miterlimit:4;stroke-dasharray:none;stroke-dashoffset:0;stroke-opacity:1;marker:none;marker-start:none;marker-mid:none;marker-end:none" /><rect
   y="47.039261"
   x="225.24306"
   height="13.348424"
   width="32.439255"
   id="rect3246"
   style="color:#000000;display:inline;overflow:visible;visibility:visible;fill:#ffffff;fill-opacity:1;fill-rule:evenodd;stroke:#000000;stroke-width:0.926705;stroke-linecap:round;stroke-linejoin:round;stroke-miterlimit:4;stroke-dasharray:none;stroke-dashoffset:0;stroke-opacity:1;marker:none;marker-start:none;marker-mid:none;marker-end:none" /><text
   id="text3248"
   y="19.592651"
   x="225.24306"
   style="font-style:oblique;font-variant:normal;font-weight:normal;font-stretch:normal;font-size:12.8px;line-height:0%;font-family:'Bitstream Vera Sans';text-align:start;writing-mode:lr-tb;text-anchor:start;fill:#000000;fill-opacity:1;stroke:none;stroke-width:1.06667px;stroke-linecap:butt;stroke-linejoin:miter;stroke-opacity:1"
   xml:space="preserve"><tspan
     y="19.592651"
     x="225.24306"
     id="tspan3250"
     sodipodi:role="line"
     style="font-size:8.53333px;line-height:1;stroke-width:1.06667px">Mass</tspan></text>


<text
   id="text3252"
   y="44.973621"
   x="225.24306"
   style="font-style:oblique;font-variant:normal;font-weight:normal;font-stretch:normal;font-size:12.8px;line-height:0%;font-family:'Bitstream Vera Sans';text-align:start;writing-mode:lr-tb;text-anchor:start;fill:#000000;fill-opacity:1;stroke:none;stroke-width:1.06667px;stroke-linecap:butt;stroke-linejoin:miter;stroke-opacity:1"
   xml:space="preserve"><tspan
     y="44.973621"
     x="225.24306"
     id="tspan3254"
     sodipodi:role="line"
     style="font-size:8.53333px;line-height:1;stroke-width:1.06667px">Points</tspan></text>


<text
   id="text3256"
   y="32.578465"
   x="236.84746"
   style="font-style:normal;font-variant:normal;font-weight:normal;font-stretch:normal;font-size:12.8px;line-height:0%;font-family:'Bitstream Vera Sans';text-align:start;writing-mode:lr-tb;text-anchor:start;fill:#000000;fill-opacity:1;stroke:none;stroke-width:1.06667px;stroke-linecap:butt;stroke-linejoin:miter;stroke-opacity:1"
   xml:space="preserve"><tspan
     y="32.578465"
     x="236.84746"
     id="tspan3258"
     sodipodi:role="line"
     style="font-size:10.6667px;line-height:1;stroke-width:1.06667px">48</tspan></text>


<text
   id="text3260"
   y="57.573738"
   x="235.01649"
   style="font-style:normal;font-variant:normal;font-weight:normal;font-stretch:normal;font-size:12.8px;line-height:0%;font-family:'Bitstream Vera Sans';text-align:start;writing-mode:lr-tb;text-anchor:start;fill:#000000;fill-opacity:1;stroke:none;stroke-width:1.06667"
   xml:space="preserve"><tspan
     y="57.573738"
     x="235.01649"
     id="tspan3262"
     sodipodi:role="line"
     style="font-size:10.6667px;line-height:1;stroke-width:1.06667">159</tspan></text>


<rect
   style="font-size:12px;fill:#ffffff;fill-rule:evenodd;stroke:#000000;stroke-width:0.845346"
   id="rect3274"
   width="14.836474"
   height="15.118109"
   x="52.226952"
   y="149.3201" /><g
   transform="matrix(0.5,0,0,0.5,-34.796629,-111.00565)"
   id="g982"><path
   sodipodi:nodetypes="cccccc"
   id="path964"
   d="m 94.588535,620.65561 v 37.7952 h 75.590485 v -37.7952 l -37.7952,-18.89771 z"
   style="fill:#ffffff;fill-opacity:1;fill-rule:evenodd;stroke:#000000;stroke-width:1.06667pt;stroke-linecap:butt;stroke-linejoin:miter;stroke-opacity:1" /><text
   xml:space="default"
   id="text934"
   y="645.65643"
   x="117.56086"
   style="font-style:normal;font-weight:bold;font-size:12.8px;line-height:0%;font-family:'Bitstream Vera Sans';writing-mode:lr-tb;text-anchor:start;fill:#000000;fill-opacity:1;stroke:none;stroke-width:1.06667pt;stroke-linecap:butt;stroke-linejoin:miter;stroke-opacity:1"><tspan
     id="tspan950"
     sodipodi:role="line"
     y="645.65643"
     x="117.56086"
     style="font-size:42.6667px;line-height:1;stroke-width:1.06667pt">4</tspan></text>






</g><ellipse
   id="path611"
   style="fill:#ffffff;fill-opacity:1;fill-rule:evenodd;stroke:#000600;stroke-width:0.853333pt;stroke-linecap:butt;stroke-linejoin:miter;stroke-opacity:1"
   cx="20.575476"
   cy="98.283829"
   rx="7.5590529"
   ry="7.5590496" /><rect
   style="font-size:12px;fill:#ffffff;fill-rule:evenodd;stroke:#000000;stroke-width:0.845346"
   id="rect3325"
   width="14.836474"
   height="15.118109"
   x="13.157288"
   y="168.21773" /><ellipse
   id="path3327"
   style="fill:#ffffff;fill-opacity:1;fill-rule:evenodd;stroke:#000600;stroke-width:0.853333pt;stroke-linecap:butt;stroke-linejoin:miter;stroke-opacity:1"
   cx="39.473076"
   cy="98.283829"
   rx="7.5590529"
   ry="7.5590496" /><g
   transform="matrix(0.225,0,0,0.225,153.10549,-61.625387)"
   id="g1312"><g
   transform="translate(-132.04448,8.8155275)"
   id="g1313"><path
     sodipodi:nodetypes="ccccccc"
     id="path1314"
     d="m 133.58027,671.1523 h -1.06667 l -28.2,-49.53333 c 7.86667,-4.8 17.33333,-6.8 27.13333,-7.06667 h 3.13334 c 10.06666,0.13333 19.33333,3.06667 27.33333,8 z"
     style="font-size:12px;fill:#ffffff;fill-rule:evenodd;stroke:#000600;stroke-width:1.06667" /><path
     id="path1315"
     d="m 132.27253,670.32147 -0.53333,0.92374 -56.253013,-0.30006 c -0.22368,-9.2128 2.0336,-18.45578 6.70272,-27.07616 l 1.566613,-2.7136 c 5.1488,-8.6513 12.322453,-15.20981 20.59488,-19.67136 z"
     style="font-size:12px;fill:#ffffff;fill-rule:evenodd;stroke:#000600;stroke-width:1.06667" /><path
     id="path1316"
     d="m 131.63061,671.48265 0.53334,0.92384 -28.38646,48.5664 C 95.687147,716.56019 88.8112,709.98387 83.680213,701.63017 l -1.56672,-2.7136 C 77.195627,690.13193 75.10272,680.64009 75.37504,671.24521 Z"
     style="font-size:12px;fill:#999999;fill-rule:evenodd;stroke:#000600;stroke-width:1.06667" /><path
     sodipodi:nodetypes="ccccccc"
     id="path1317"
     d="m 132.22293,671.24521 h 1.06678 l 27.86645,48.86666 c -7.86667,4.8 -16.99989,7.46667 -26.79989,7.73334 h -3.13344 c -10.06667,-0.13334 -19.66656,-2.4 -27.66667,-7.33334 z"
     style="font-size:12px;fill:#999999;fill-rule:evenodd;stroke:#000600;stroke-width:1.06667" /><path
     id="path1318"
     d="m 132.05536,672.16905 0.53333,-0.92384 56.25302,0.30026 c 0.22357,9.2128 -2.0336,18.45568 -6.70272,27.07606 l -1.56672,2.7137 c -5.1488,8.65131 -12.32235,15.20971 -20.59488,19.67136 z"
     style="font-size:12px;fill:#999999;fill-rule:evenodd;stroke:#000600;stroke-width:1.06667" /><path
     id="path1319"
     d="m 132.69739,671.00755 -0.53344,-0.92373 28.38656,-48.5664 c 8.09034,4.4128 14.96629,10.98901 20.09717,19.34272 l 1.56683,2.71371 c 4.91776,8.78464 7.01077,18.27626 6.73845,27.67136 z"
     style="font-size:12px;fill:#ffffff;fill-rule:evenodd;stroke:#000600;stroke-width:1.06666" /><circle
     id="path1320"
     style="font-size:12px;fill:#ffffff;fill-rule:evenodd;stroke:#000600;stroke-width:1.06667"
     cx="132.16405"
     cy="671.24524"
     r="37.79528" /></g><text
   xml:space="default"
   id="text1321"
   y="699.01428"
   x="-17.493025"
   style="font-style:normal;font-weight:bold;font-size:12.8px;line-height:0%;font-family:'Bitstream Vera Sans';writing-mode:lr-tb;text-anchor:start;fill:#000000;fill-opacity:1;stroke:none;stroke-width:1.06667pt;stroke-linecap:butt;stroke-linejoin:miter;stroke-opacity:1"><tspan
     id="tspan1322"
     sodipodi:role="line"
     y="699.01428"
     x="-17.493025"
     style="font-size:51.2px;line-height:1;stroke-width:1.06667pt">2</tspan></text>






</g><g
   transform="matrix(0.144298,0,0,0.144298,138.91883,142.65771)"
   id="g3196"><ellipse
     style="color:#000000;display:inline;overflow:visible;visibility:visible;opacity:1;fill:#000000;fill-opacity:1;fill-rule:evenodd;stroke:#000000;stroke-width:5.44778;stroke-linecap:round;stroke-linejoin:miter;stroke-miterlimit:4;stroke-dasharray:none;stroke-dashoffset:0;stroke-opacity:1;marker:none;marker-start:none;marker-mid:none;marker-end:none"
     id="path3198"
     cx="420.20648"
     cy="106.7557"
     rx="54.815933"
     ry="54.931549" /><path
     id="path3200"
     d="m 379.37691,68.255699 c -9.44407,9.870061 -15.33334,23.189799 -15.33334,37.933331 0,15.28858 6.26427,29.10491 16.33334,39.06667 9.79488,-9.79488 38,-38 38,-38 z"
     style="color:#000000;display:inline;overflow:visible;visibility:visible;opacity:1;fill:#ffffff;fill-opacity:1;fill-rule:evenodd;stroke:#000000;stroke-width:3.77953;stroke-linecap:round;stroke-linejoin:miter;stroke-miterlimit:4;stroke-dasharray:none;stroke-dashoffset:0;stroke-opacity:1;marker:none;marker-start:none;marker-mid:none;marker-end:none" /><path
     id="path3202"
     d="m 459.24357,67.239033 c -11.15287,11.152881 -39.7,39.699997 -39.7,39.699997 l 39.33334,39.33333 c 10.47632,-10.00695 17.1,-24.02907 17.1,-39.66666 0,-15.468163 -6.45538,-29.380317 -16.73334,-39.366667 z"
     style="color:#000000;display:inline;overflow:visible;visibility:visible;opacity:1;fill:#ffffff;fill-opacity:1;fill-rule:evenodd;stroke:#000000;stroke-width:3.77953;stroke-linecap:round;stroke-linejoin:miter;stroke-miterlimit:4;stroke-dasharray:none;stroke-dashoffset:0;stroke-opacity:1;marker:none;marker-start:none;marker-mid:none;marker-end:none" /></g><g
   transform="matrix(0.225,0,0,0.225,228.696,-61.625387)"
   id="g1478"><g
   transform="translate(-132.04448,8.8155275)"
   id="g1480"><path
     sodipodi:nodetypes="ccccccc"
     id="path1482"
     d="m 133.58027,671.1523 h -1.06667 l -28.2,-49.53333 c 7.86667,-4.8 17.33333,-6.8 27.13333,-7.06667 h 3.13334 c 10.06666,0.13333 19.33333,3.06667 27.33333,8 z"
     style="font-size:12px;fill:#ffffff;fill-rule:evenodd;stroke:#000600;stroke-width:1.06667" /><path
     id="path1484"
     d="m 132.27253,670.32147 -0.53333,0.92374 -56.253013,-0.30006 c -0.22368,-9.2128 2.0336,-18.45578 6.70272,-27.07616 l 1.566613,-2.7136 c 5.1488,-8.6513 12.322453,-15.20981 20.59488,-19.67136 z"
     style="font-size:12px;fill:#ffffff;fill-rule:evenodd;stroke:#000600;stroke-width:1.06667" /><path
     id="path1486"
     d="m 131.63061,671.48265 0.53334,0.92384 -28.38646,48.5664 C 95.687147,716.56019 88.8112,709.98387 83.680213,701.63017 l -1.56672,-2.7136 C 77.195627,690.13193 75.10272,680.64009 75.37504,671.24521 Z"
     style="font-size:12px;fill:#999999;fill-rule:evenodd;stroke:#000600;stroke-width:1.06667" /><path
     sodipodi:nodetypes="ccccccc"
     id="path1488"
     d="m 132.22293,671.24521 h 1.06678 l 27.86645,48.86666 c -7.86667,4.8 -16.99989,7.46667 -26.79989,7.73334 h -3.13344 c -10.06667,-0.13334 -19.66656,-2.4 -27.66667,-7.33334 z"
     style="font-size:12px;fill:#999999;fill-rule:evenodd;stroke:#000600;stroke-width:1.06667" /><path
     id="path1490"
     d="m 132.05536,672.16905 0.53333,-0.92384 56.25302,0.30026 c 0.22357,9.2128 -2.0336,18.45568 -6.70272,27.07606 l -1.56672,2.7137 c -5.1488,8.65131 -12.32235,15.20971 -20.59488,19.67136 z"
     style="font-size:12px;fill:#999999;fill-rule:evenodd;stroke:#000600;stroke-width:1.06667" /><path
     id="path1492"
     d="m 132.69739,671.00755 -0.53344,-0.92373 28.38656,-48.5664 c 8.09034,4.4128 14.96629,10.98901 20.09717,19.34272 l 1.56683,2.71371 c 4.91776,8.78464 7.01077,18.27626 6.73845,27.67136 z"
     style="font-size:12px;fill:#ffffff;fill-rule:evenodd;stroke:#000600;stroke-width:1.06666" /><circle
     id="path1494"
     style="font-size:12px;fill:#ffffff;fill-rule:evenodd;stroke:#000600;stroke-width:1.06667"
     cx="132.16405"
     cy="671.24524"
     r="37.79528" /></g><text
   xml:space="default"
   id="text1496"
   y="699.01428"
   x="-17.493025"
   style="font-style:normal;font-weight:bold;font-size:12.8px;line-height:0%;font-family:'Bitstream Vera Sans';writing-mode:lr-tb;text-anchor:start;fill:#000000;fill-opacity:1;stroke:none;stroke-width:1.06667pt;stroke-linecap:butt;stroke-linejoin:miter;stroke-opacity:1"><tspan
     id="tspan1498"
     sodipodi:role="line"
     y="699.01428"
     x="-17.493025"
     style="font-size:51.2px;line-height:1;stroke-width:1.06667pt">2</tspan></text>






</g><g
   transform="matrix(0.672444,0,0,0.672444,31.277707,-49.147381)"
   id="g2428"><g
   id="g2337"
   transform="matrix(0.75,0,0,0.75,9.9488192,-63.284768)"><rect
     style="font-size:12px;fill:#feffff;fill-opacity:1;fill-rule:evenodd;stroke:#000000;stroke-width:1.06667;stroke-opacity:1"
     id="rect2339"
     width="37.795277"
     height="37.795246"
     x="37.795277"
     y="576.75702" /><path
     style="fill:none;fill-opacity:1;fill-rule:evenodd;stroke:#000000;stroke-width:1.06667pt;stroke-linecap:butt;stroke-linejoin:miter;stroke-opacity:1"
     d="m 37.795275,603.21365 c 0,-7.55904 3.77953,-18.8976 11.338581,-18.8976 7.559051,0 7.559051,22.67723 15.118112,22.67723 7.559051,0 11.338581,-11.33867 11.338581,-18.89771"
     id="path2341"
     sodipodi:nodetypes="csss" /></g><text
   xml:space="preserve"
   style="font-style:normal;font-variant:normal;font-weight:bold;font-stretch:normal;font-size:12.8px;line-height:0%;font-family:'Bitstream Vera Sans';text-align:start;writing-mode:lr-tb;text-anchor:start;fill:#000000;fill-opacity:1;stroke:none;stroke-width:1.06667px;stroke-linecap:butt;stroke-linejoin:miter;stroke-opacity:1"
   x="53.88805"
   y="382.91132"
   id="text2343"><tspan
     sodipodi:role="line"
     id="tspan2345"
     x="53.88805"
     y="382.91132"
     style="font-size:15.7809px;line-height:1;stroke-width:1.06667px">2</tspan></text>




</g><rect
   style="font-size:12px;fill:#ffffff;fill-rule:evenodd;stroke:#000000;stroke-width:0.845346"
   id="rect3297"
   width="14.836475"
   height="15.11811"
   x="32.69212"
   y="149.3201" /><rect
   style="font-size:12px;fill:#ffffff;fill-rule:evenodd;stroke:#000000;stroke-width:0.845346"
   id="rect3299"
   width="14.836474"
   height="15.118109"
   x="52.226952"
   y="130.77596" /><g
   id="g3301"
   transform="matrix(0.981372,0,0,1,-82.116652,-500.94103)"
   style="font-size:12px"><rect
     style="font-size:12px;fill:#ffffff;fill-rule:evenodd;stroke:#000000;stroke-width:0.853331"
     id="rect3303"
     width="15.118096"
     height="15.11811"
     x="156.79929"
     y="669.15875" /><polygon
     sodipodi:type="star"
     style="font-size:12px;fill:#000000;fill-opacity:1;fill-rule:evenodd;stroke-width:1"
     id="polygon3305"
     sodipodi:sides="5"
     sodipodi:cx="88.58268"
     sodipodi:cy="569.84717"
     sodipodi:r1="117.49471"
     sodipodi:r2="58.747353"
     sodipodi:arg1="0.96065152"
     sodipodi:arg2="1.5889701"
     points="155.9055,666.1417 87.51508,628.5848 17.80502,663.6317 32.38995,586.9827 -22.48316,531.5146 54.92126,521.6999 90.71788,452.3719 123.9715,522.955 200.9681,535.576 144.1156,589.0134 155.9055,666.1417 "
     transform="matrix(0.05119999,0,0,0.05119999,159.78912,648.08384)"
     inkscape:flatsided="false"
     inkscape:rounded="0"
     inkscape:randomized="0"
     d="m 155.90552,666.14173 -68.390443,-37.55691 -69.710064,35.04683 14.584934,-76.6489 -54.873114,-55.46814 77.40443,-9.81472 35.796616,-69.32803 33.253631,70.58307 76.99664,12.62107 -56.85255,53.43745 z" /></g><rect
   style="font-size:12px;fill:#ffffff;fill-rule:evenodd;stroke:#000000;stroke-width:0.845346"
   id="rect3307"
   width="14.836474"
   height="15.118109"
   x="71.761795"
   y="131.25146" /><rect
   style="font-size:12px;fill:#ffffff;fill-rule:evenodd;stroke:#000000;stroke-width:0.845346"
   id="rect3309"
   width="14.836474"
   height="15.118109"
   x="71.761795"
   y="111.02742" /><rect
   style="font-size:12px;fill:#ffffff;fill-rule:evenodd;stroke:#000000;stroke-width:0.845346"
   id="rect3311"
   width="14.836474"
   height="15.118109"
   x="51.561535"
   y="168.21773" /><rect
   style="font-size:12px;fill:#ffffff;fill-rule:evenodd;stroke:#000000;stroke-width:0.845346"
   id="rect3313"
   width="14.836475"
   height="15.11811"
   x="52.226952"
   y="111.02742" /><rect
   style="font-size:12px;fill:#ffffff;fill-rule:evenodd;stroke:#000000;stroke-width:0.845346"
   id="rect3315"
   width="14.836474"
   height="15.118109"
   x="32.692123"
   y="111.02742" /><g
   id="g3317"
   transform="matrix(0.981372,0,0,1,-82.116643,-519.18279)"
   style="font-size:12px"><rect
     style="font-size:12px;fill:#ffffff;fill-rule:evenodd;stroke:#000000;stroke-width:0.853331"
     id="rect3319"
     width="15.118096"
     height="15.11811"
     x="156.79929"
     y="669.15875" /><polygon
     sodipodi:type="star"
     style="font-size:12px;fill:#000000;fill-opacity:1;fill-rule:evenodd;stroke-width:1"
     id="polygon3321"
     sodipodi:sides="5"
     sodipodi:cx="88.58268"
     sodipodi:cy="569.84717"
     sodipodi:r1="117.49471"
     sodipodi:r2="58.747353"
     sodipodi:arg1="0.96065152"
     sodipodi:arg2="1.5889701"
     points="155.9055,666.1417 87.51508,628.5848 17.80502,663.6317 32.38995,586.9827 -22.48316,531.5146 54.92126,521.6999 90.71788,452.3719 123.9715,522.955 200.9681,535.576 144.1156,589.0134 155.9055,666.1417 "
     transform="matrix(0.05119999,0,0,0.05119999,159.78912,648.08384)"
     inkscape:flatsided="false"
     inkscape:rounded="0"
     inkscape:randomized="0"
     d="m 155.90552,666.14173 -68.390443,-37.55691 -69.710064,35.04683 14.584934,-76.6489 -54.873114,-55.46814 77.40443,-9.81472 35.796616,-69.32803 33.253631,70.58307 76.99664,12.62107 -56.85255,53.43745 z" /></g><rect
   style="font-size:12px;fill:#ffffff;fill-rule:evenodd;stroke:#000000;stroke-width:0.845346"
   id="rect3326"
   width="14.836474"
   height="15.118109"
   x="13.157288"
   y="111.02742" /><rect
   style="font-size:12px;fill:#ffffff;fill-rule:evenodd;stroke:#000000;stroke-width:0.845346"
   id="rect3330"
   width="14.836474"
   height="15.118109"
   x="32.729012"
   y="168.21773" /><ellipse
   id="path3332"
   style="fill:#ffffff;fill-opacity:1;fill-rule:evenodd;stroke:#000600;stroke-width:0.853333pt;stroke-linecap:butt;stroke-linejoin:miter;stroke-opacity:1"
   cx="58.519264"
   cy="98.283936"
   rx="7.5590529"
   ry="7.5590496" /><ellipse
   id="path3334"
   style="fill:#ffffff;fill-opacity:1;fill-rule:evenodd;stroke:#000600;stroke-width:0.853333pt;stroke-linecap:butt;stroke-linejoin:miter;stroke-opacity:1"
   cx="77.735687"
   cy="98.283936"
   rx="7.5590529"
   ry="7.5590496" /><g
   id="g3356"
   transform="matrix(0.490686,0,0,0.5,-33.922987,-98.192267)"
   style="font-size:12px"><rect
     style="font-size:12px;fill:#ffffff;fill-rule:evenodd;stroke:#000000;stroke-width:1.33333;stroke-dasharray:none"
     id="rect3358"
     width="37.795246"
     height="37.795235"
     x="377.95276"
     y="520.06421" /><ellipse
     style="fill:#000000;fill-opacity:1;fill-rule:evenodd;stroke:#000600;stroke-width:1.06667pt;stroke-linecap:butt;stroke-linejoin:miter;stroke-opacity:1"
     id="path3360"
     cx="396.85043"
     cy="538.96179"
     rx="9.4488182"
     ry="9.4488115" /></g><g
   transform="matrix(0.225,0,0,0.225,190.9008,-61.745387)"
   id="g3362"><g
   transform="translate(-132.04448,8.8155275)"
   id="g3364"><path
     sodipodi:nodetypes="ccccccc"
     id="path3366"
     d="m 133.58027,671.1523 h -1.06667 l -28.2,-49.53333 c 7.86667,-4.8 17.33333,-6.8 27.13333,-7.06667 h 3.13334 c 10.06666,0.13333 19.33333,3.06667 27.33333,8 z"
     style="font-size:12px;fill:#ffffff;fill-rule:evenodd;stroke:#000600;stroke-width:1.06667" /><path
     id="path3368"
     d="m 132.27253,670.32147 -0.53333,0.92374 -56.253013,-0.30006 c -0.22368,-9.2128 2.0336,-18.45578 6.70272,-27.07616 l 1.566613,-2.7136 c 5.1488,-8.6513 12.322453,-15.20981 20.59488,-19.67136 z"
     style="font-size:12px;fill:#ffffff;fill-rule:evenodd;stroke:#000600;stroke-width:1.06667" /><path
     id="path3370"
     d="m 131.63061,671.48265 0.53334,0.92384 -28.38646,48.5664 C 95.687147,716.56019 88.8112,709.98387 83.680213,701.63017 l -1.56672,-2.7136 C 77.195627,690.13193 75.10272,680.64009 75.37504,671.24521 Z"
     style="font-size:12px;fill:#999999;fill-rule:evenodd;stroke:#000600;stroke-width:1.06667" /><path
     sodipodi:nodetypes="ccccccc"
     id="path3372"
     d="m 132.22293,671.24521 h 1.06678 l 27.86645,48.86666 c -7.86667,4.8 -16.99989,7.46667 -26.79989,7.73334 h -3.13344 c -10.06667,-0.13334 -19.66656,-2.4 -27.66667,-7.33334 z"
     style="font-size:12px;fill:#999999;fill-rule:evenodd;stroke:#000600;stroke-width:1.06667" /><path
     id="path3374"
     d="m 132.05536,672.16905 0.53333,-0.92384 56.25302,0.30026 c 0.22357,9.2128 -2.0336,18.45568 -6.70272,27.07606 l -1.56672,2.7137 c -5.1488,8.65131 -12.32235,15.20971 -20.59488,19.67136 z"
     style="font-size:12px;fill:#999999;fill-rule:evenodd;stroke:#000600;stroke-width:1.06667" /><path
     id="path3376"
     d="m 132.69739,671.00755 -0.53344,-0.92373 28.38656,-48.5664 c 8.09034,4.4128 14.96629,10.98901 20.09717,19.34272 l 1.56683,2.71371 c 4.91776,8.78464 7.01077,18.27626 6.73845,27.67136 z"
     style="font-size:12px;fill:#ffffff;fill-rule:evenodd;stroke:#000600;stroke-width:1.06666" /><circle
     id="path3378"
     style="font-size:12px;fill:#ffffff;fill-rule:evenodd;stroke:#000600;stroke-width:1.06667"
     cx="132.16405"
     cy="671.24524"
     r="37.79528" /></g><text
   xml:space="default"
   id="text3380"
   y="699.01428"
   x="-17.493025"
   style="font-style:normal;font-weight:bold;font-size:12.8px;line-height:0%;font-family:'Bitstream Vera Sans';writing-mode:lr-tb;text-anchor:start;fill:#000000;fill-opacity:1;stroke:none;stroke-width:1.06667pt;stroke-linecap:butt;stroke-linejoin:miter;stroke-opacity:1"><tspan
     id="tspan3382"
     sodipodi:role="line"
     y="699.01428"
     x="-17.493025"
     style="font-size:51.2px;line-height:1;stroke-width:1.06667pt">2</tspan></text>






</g><g
   transform="matrix(0.225,0,0,0.225,124.32245,-26.125301)"
   id="g1444"><g
   transform="rotate(-59.999988,129.68517,675.7901)"
   id="g1445"><path
     sodipodi:nodetypes="ccccccc"
     id="path1446"
     d="m 133.58027,671.1523 h -1.06667 l -28.2,-49.53333 c 7.86667,-4.8 17.33333,-6.8 27.13333,-7.06667 h 3.13334 c 10.06666,0.13333 19.33333,3.06667 27.33333,8 z"
     style="font-size:12px;fill:#ffffff;fill-rule:evenodd;stroke:#000600;stroke-width:1.06667" /><path
     id="path1447"
     d="m 132.27253,670.32147 -0.53333,0.92374 -56.253013,-0.30006 c -0.22368,-9.2128 2.0336,-18.45578 6.70272,-27.07616 l 1.566613,-2.7136 c 5.1488,-8.6513 12.322453,-15.20981 20.59488,-19.67136 z"
     style="font-size:12px;fill:#ffffff;fill-rule:evenodd;stroke:#000600;stroke-width:1.06667" /><path
     id="path1448"
     d="m 131.63061,671.48265 0.53334,0.92384 -28.38646,48.5664 C 95.687147,716.56019 88.8112,709.98387 83.680213,701.63017 l -1.56672,-2.7136 C 77.195627,690.13193 75.10272,680.64009 75.37504,671.24521 Z"
     style="font-size:12px;fill:#999999;fill-rule:evenodd;stroke:#000600;stroke-width:1.06667" /><path
     sodipodi:nodetypes="ccccccc"
     id="path1449"
     d="m 132.22293,671.24521 h 1.06678 l 27.86645,48.86666 c -7.86667,4.8 -16.99989,7.46667 -26.79989,7.73334 h -3.13344 c -10.06667,-0.13334 -19.66656,-2.4 -27.66667,-7.33334 z"
     style="font-size:12px;fill:#999999;fill-rule:evenodd;stroke:#000600;stroke-width:1.06667" /><path
     id="path1450"
     d="m 132.05536,672.16905 0.53333,-0.92384 56.25302,0.30026 c 0.22357,9.2128 -2.0336,18.45568 -6.70272,27.07606 l -1.56672,2.7137 c -5.1488,8.65131 -12.32235,15.20971 -20.59488,19.67136 z"
     style="font-size:12px;fill:#999999;fill-rule:evenodd;stroke:#000600;stroke-width:1.06667" /><path
     id="path1451"
     d="m 132.69739,671.00755 -0.53344,-0.92373 28.38656,-48.5664 c 8.09034,4.4128 14.96629,10.98901 20.09717,19.34272 l 1.56683,2.71371 c 4.91776,8.78464 7.01077,18.27626 6.73845,27.67136 z"
     style="font-size:12px;fill:#ffffff;fill-rule:evenodd;stroke:#000600;stroke-width:1.06666" /><circle
     id="path1452"
     style="font-size:12px;fill:#ffffff;fill-rule:evenodd;stroke:#000600;stroke-width:1.06667"
     cx="132.16405"
     cy="671.24524"
     r="37.79528" /></g><text
   xml:space="default"
   id="text1453"
   y="690.3476"
   x="109.33582"
   style="font-style:normal;font-weight:bold;font-size:12.8px;line-height:0%;font-family:'Bitstream Vera Sans';writing-mode:lr-tb;text-anchor:start;fill:#000000;fill-opacity:1;stroke:none;stroke-width:1.06667pt;stroke-linecap:butt;stroke-linejoin:miter;stroke-opacity:1"><tspan
     id="tspan1454"
     sodipodi:role="line"
     y="690.3476"
     x="109.33582"
     style="font-size:51.2px;line-height:1;stroke-width:1.06667pt">2</tspan></text>


</g><g
   transform="matrix(0.225,0,0,0.225,126.52299,-21.913909)"
   id="g1408"><g
   transform="matrix(0.499998,0.866024,-0.866024,0.499998,968.65685,202.36224)"
   id="g1409"><path
     sodipodi:nodetypes="ccccccc"
     id="path1410"
     d="m 133.58027,671.1523 h -1.06667 l -28.2,-49.53333 c 7.86667,-4.8 17.33333,-6.8 27.13333,-7.06667 h 3.13334 c 10.06666,0.13333 19.33333,3.06667 27.33333,8 z"
     style="font-size:12px;fill:#ffffff;fill-rule:evenodd;stroke:#000600;stroke-width:1.06667" /><path
     id="path1411"
     d="m 132.27253,670.32147 -0.53333,0.92374 -56.253013,-0.30006 c -0.22368,-9.2128 2.0336,-18.45578 6.70272,-27.07616 l 1.566613,-2.7136 c 5.1488,-8.6513 12.322453,-15.20981 20.59488,-19.67136 z"
     style="font-size:12px;fill:#ffffff;fill-rule:evenodd;stroke:#000600;stroke-width:1.06667" /><path
     id="path1412"
     d="m 131.63061,671.48265 0.53334,0.92384 -28.38646,48.5664 C 95.687147,716.56019 88.8112,709.98387 83.680213,701.63017 l -1.56672,-2.7136 C 77.195627,690.13193 75.10272,680.64009 75.37504,671.24521 Z"
     style="font-size:12px;fill:#999999;fill-rule:evenodd;stroke:#000600;stroke-width:1.06667" /><path
     sodipodi:nodetypes="ccccccc"
     id="path1413"
     d="m 132.22293,671.24521 h 1.06678 l 27.86645,48.86666 c -7.86667,4.8 -16.99989,7.46667 -26.79989,7.73334 h -3.13344 c -10.06667,-0.13334 -19.66656,-2.4 -27.66667,-7.33334 z"
     style="font-size:12px;fill:#999999;fill-rule:evenodd;stroke:#000600;stroke-width:1.06667" /><path
     id="path1414"
     d="m 132.05536,672.16905 0.53333,-0.92384 56.25302,0.30026 c 0.22357,9.2128 -2.0336,18.45568 -6.70272,27.07606 l -1.56672,2.7137 c -5.1488,8.65131 -12.32235,15.20971 -20.59488,19.67136 z"
     style="font-size:12px;fill:#999999;fill-rule:evenodd;stroke:#000600;stroke-width:1.06667" /><path
     id="path1415"
     d="m 132.69739,671.00755 -0.53344,-0.92373 28.38656,-48.5664 c 8.09034,4.4128 14.96629,10.98901 20.09717,19.34272 l 1.56683,2.71371 c 4.91776,8.78464 7.01077,18.27626 6.73845,27.67136 z"
     style="font-size:12px;fill:#ffffff;fill-rule:evenodd;stroke:#000600;stroke-width:1.06666" /><circle
     id="path1416"
     style="font-size:12px;fill:#ffffff;fill-rule:evenodd;stroke:#000600;stroke-width:1.06667"
     cx="132.16405"
     cy="671.24524"
     r="37.79528" /></g><text
   xml:space="default"
   id="text1417"
   y="671.3941"
   x="435.81134"
   style="font-style:normal;font-weight:bold;font-size:12.8px;line-height:0%;font-family:'Bitstream Vera Sans';writing-mode:lr-tb;text-anchor:start;fill:#000000;fill-opacity:1;stroke:none;stroke-width:1.06667pt;stroke-linecap:butt;stroke-linejoin:miter;stroke-opacity:1"><tspan
     id="tspan1418"
     sodipodi:role="line"
     y="671.3941"
     x="435.81134"
     style="font-size:51.2px;line-height:1;stroke-width:1.06667pt">2</tspan></text>


</g><g
   id="g3317-9"
   transform="matrix(0.981372,0,0,1,-121.06275,-538.63599)"
   style="font-size:12px"><rect
     style="font-size:12px;fill:#ffffff;fill-rule:evenodd;stroke:#000000;stroke-width:0.853331"
     id="rect3319-7"
     width="15.118096"
     height="15.11811"
     x="156.79929"
     y="669.15875" /><polygon
     sodipodi:type="star"
     style="font-size:12px;fill:#000000;fill-opacity:1;fill-rule:evenodd;stroke-width:1"
     id="polygon3321-3"
     sodipodi:sides="5"
     sodipodi:cx="88.58268"
     sodipodi:cy="569.84717"
     sodipodi:r1="117.49471"
     sodipodi:r2="58.747353"
     sodipodi:arg1="0.96065152"
     sodipodi:arg2="1.5889701"
     points="155.9055,666.1417 87.51508,628.5848 17.80502,663.6317 32.38995,586.9827 -22.48316,531.5146 54.92126,521.6999 90.71788,452.3719 123.9715,522.955 200.9681,535.576 144.1156,589.0134 155.9055,666.1417 "
     transform="matrix(0.05119999,0,0,0.05119999,159.78912,648.08384)"
     inkscape:flatsided="false"
     inkscape:rounded="0"
     inkscape:randomized="0"
     d="m 155.90552,666.14173 -68.390443,-37.55691 -69.710064,35.04683 14.584934,-76.6489 -54.873114,-55.46814 77.40443,-9.81472 35.796616,-69.32803 33.253631,70.58307 76.99664,12.62107 -56.85255,53.43745 z" /></g></g></svg>
